{"failedCount":0,"prefixedPath":"classpath:frame\/get.feature","packageQualifiedName":"frame.get","loopIndex":-1,"relativePath":"frame\/get.feature","scenarioResults":[{"sectionIndex":0,"stepResults":[{"result":{"nanos":95000,"millis":0.095,"status":"passed"},"step":{"background":true,"line":4,"prefix":"Given","index":0,"text":"url niha"},"stepLog":"22:57:20.689 the value is null \n"},{"result":{"nanos":406400,"millis":0.4064,"status":"passed"},"step":{"line":7,"prefix":"Given","index":0,"text":"path 'unknown'"}},{"result":{"nanos":1034200,"millis":1.0342,"status":"passed"},"step":{"line":8,"prefix":"Given","index":1,"text":"param id = 2"}},{"result":{"nanos":4749182100,"millis":4749.1821,"status":"passed"},"step":{"line":9,"prefix":"When","index":2,"text":"method GET"},"stepLog":"22:57:20.693 request:\n1 > GET https:\/\/reqres.in\/api\/unknown?id=2\n1 > Host: reqres.in\n1 > Connection: Keep-Alive\n1 > User-Agent: Apache-HttpClient\/4.5.14 (Java\/17.0.1)\n1 > Accept-Encoding: gzip,deflate\n\n\n22:57:25.438 response time in milliseconds: 4744\n1 < 200\n1 < Date: Mon, 12 Feb 2024 17:27:22 GMT\n1 < Content-Type: application\/json; charset=utf-8\n1 < Transfer-Encoding: chunked\n1 < Connection: keep-alive\n1 < Report-To: {\"group\":\"heroku-nel\",\"max_age\":3600,\"endpoints\":[{\"url\":\"https:\/\/nel.heroku.com\/reports?ts=1707315991&sid=c4c9725f-1ab0-44d8-820f-430df2718e11&s=O9x%2FFdnigKNO2%2FiHPuEBJqs7%2FdTuKMSSEJYyNQvdvZs%3D\"}]}\n1 < Reporting-Endpoints: heroku-nel=https:\/\/nel.heroku.com\/reports?ts=1707315991&sid=c4c9725f-1ab0-44d8-820f-430df2718e11&s=O9x%2FFdnigKNO2%2FiHPuEBJqs7%2FdTuKMSSEJYyNQvdvZs%3D\n1 < Nel: {\"report_to\":\"heroku-nel\",\"max_age\":3600,\"success_fraction\":0.005,\"failure_fraction\":0.05,\"response_headers\":[\"Via\"]}\n1 < X-Powered-By: Express\n1 < Access-Control-Allow-Origin: *\n1 < Etag: W\/\"e8-ov4wWh4\/OY1IMQMqWgskYtOFnVs\"\n1 < Via: 1.1 vegur\n1 < Cache-Control: max-age=14400\n1 < CF-Cache-Status: REVALIDATED\n1 < Vary: Accept-Encoding\n1 < Server: cloudflare\n1 < CF-RAY: 85468ab908ef7efa-MAA\n{\"data\":{\"id\":2,\"name\":\"fuchsia rose\",\"year\":2001,\"color\":\"#C74375\",\"pantone_value\":\"17-2031\"},\"support\":{\"url\":\"https:\/\/reqres.in\/#support-heading\",\"text\":\"To keep ReqRes free, contributions towards server costs are appreciated!\"}}\n\n"},{"result":{"nanos":21200,"millis":0.0212,"status":"passed"},"step":{"line":10,"prefix":"Then","index":3,"text":"status 200"}},{"result":{"nanos":1303800,"millis":1.3038,"status":"passed"},"step":{"line":11,"prefix":"And","index":4,"text":"print  response"},"stepLog":"22:57:25.442 [print] {\n  \"data\": {\n    \"id\": 2,\n    \"name\": \"fuchsia rose\",\n    \"year\": 2001,\n    \"color\": \"#C74375\",\n    \"pantone_value\": \"17-2031\"\n  },\n  \"support\": {\n    \"url\": \"https:\/\/reqres.in\/#support-heading\",\n    \"text\": \"To keep ReqRes free, contributions towards server costs are appreciated!\"\n  }\n}\n \n"},{"result":{"nanos":1203100,"millis":1.2031,"status":"passed"},"step":{"comments":["# And match response.data[0].name =='cerulean'"],"line":13,"prefix":"And","index":5,"text":"match response.data.color == '#C74375'"}}],"executorName":"main","line":6,"name":"Test a sample Get API","description":"","durationMillis":4753.2458,"startTime":1707758840687,"failed":false,"refId":"[1:6]","endTime":1707758845443,"exampleIndex":-1},{"sectionIndex":1,"stepResults":[{"result":{"nanos":71300,"millis":0.0713,"status":"passed"},"step":{"background":true,"line":4,"prefix":"Given","index":0,"text":"url niha"},"stepLog":"22:57:25.449 the value is null \n"},{"result":{"nanos":285100,"millis":0.2851,"status":"passed"},"step":{"line":17,"prefix":"Given","index":0,"text":"path 'users'"}},{"result":{"nanos":316741200,"millis":316.7412,"status":"passed"},"step":{"comments":["#Given param  id = 2"],"line":19,"prefix":"When","index":1,"text":"method GET"},"stepLog":"22:57:25.451 request:\n1 > GET https:\/\/reqres.in\/api\/users\n1 > Host: reqres.in\n1 > Connection: Keep-Alive\n1 > User-Agent: Apache-HttpClient\/4.5.14 (Java\/17.0.1)\n1 > Accept-Encoding: gzip,deflate\n\n\n22:57:25.764 response time in milliseconds: 311\n1 < 200\n1 < Date: Mon, 12 Feb 2024 17:27:26 GMT\n1 < Content-Type: application\/json; charset=utf-8\n1 < Transfer-Encoding: chunked\n1 < Connection: keep-alive\n1 < Report-To: {\"group\":\"heroku-nel\",\"max_age\":3600,\"endpoints\":[{\"url\":\"https:\/\/nel.heroku.com\/reports?ts=1707757835&sid=c4c9725f-1ab0-44d8-820f-430df2718e11&s=ir2LRcLjPbj1syOACqJ42xAQ7zllGAkGeosaY6pueVU%3D\"}]}\n1 < Reporting-Endpoints: heroku-nel=https:\/\/nel.heroku.com\/reports?ts=1707757835&sid=c4c9725f-1ab0-44d8-820f-430df2718e11&s=ir2LRcLjPbj1syOACqJ42xAQ7zllGAkGeosaY6pueVU%3D\n1 < Nel: {\"report_to\":\"heroku-nel\",\"max_age\":3600,\"success_fraction\":0.005,\"failure_fraction\":0.05,\"response_headers\":[\"Via\"]}\n1 < X-Powered-By: Express\n1 < Access-Control-Allow-Origin: *\n1 < Etag: W\/\"3e4-2RLXvr5wTg9YQ6aH95CkYoFNuO8\"\n1 < Via: 1.1 vegur\n1 < Cache-Control: max-age=14400\n1 < CF-Cache-Status: HIT\n1 < Age: 1011\n1 < Vary: Accept-Encoding\n1 < Server: cloudflare\n1 < CF-RAY: 85468ad52f287fa9-MAA\n{\"page\":1,\"per_page\":6,\"total\":12,\"total_pages\":2,\"data\":[{\"id\":1,\"email\":\"george.bluth@reqres.in\",\"first_name\":\"George\",\"last_name\":\"Bluth\",\"avatar\":\"https:\/\/reqres.in\/img\/faces\/1-image.jpg\"},{\"id\":2,\"email\":\"janet.weaver@reqres.in\",\"first_name\":\"Janet\",\"last_name\":\"Weaver\",\"avatar\":\"https:\/\/reqres.in\/img\/faces\/2-image.jpg\"},{\"id\":3,\"email\":\"emma.wong@reqres.in\",\"first_name\":\"Emma\",\"last_name\":\"Wong\",\"avatar\":\"https:\/\/reqres.in\/img\/faces\/3-image.jpg\"},{\"id\":4,\"email\":\"eve.holt@reqres.in\",\"first_name\":\"Eve\",\"last_name\":\"Holt\",\"avatar\":\"https:\/\/reqres.in\/img\/faces\/4-image.jpg\"},{\"id\":5,\"email\":\"charles.morris@reqres.in\",\"first_name\":\"Charles\",\"last_name\":\"Morris\",\"avatar\":\"https:\/\/reqres.in\/img\/faces\/5-image.jpg\"},{\"id\":6,\"email\":\"tracey.ramos@reqres.in\",\"first_name\":\"Tracey\",\"last_name\":\"Ramos\",\"avatar\":\"https:\/\/reqres.in\/img\/faces\/6-image.jpg\"}],\"support\":{\"url\":\"https:\/\/reqres.in\/#support-heading\",\"text\":\"To keep ReqRes free, contributions towards server costs are appreciated!\"}}\n\n"},{"result":{"nanos":21200,"millis":0.0212,"status":"passed"},"step":{"line":20,"prefix":"Then","index":2,"text":"status 200"}},{"result":{"nanos":1371200,"millis":1.3712,"status":"passed"},"step":{"line":21,"prefix":"And","index":3,"text":"print  response"},"stepLog":"22:57:25.768 [print] {\n  \"page\": 1,\n  \"per_page\": 6,\n  \"total\": 12,\n  \"total_pages\": 2,\n  \"data\": [\n    {\n      \"id\": 1,\n      \"email\": \"george.bluth@reqres.in\",\n      \"first_name\": \"George\",\n      \"last_name\": \"Bluth\",\n      \"avatar\": \"https:\/\/reqres.in\/img\/faces\/1-image.jpg\"\n    },\n    {\n      \"id\": 2,\n      \"email\": \"janet.weaver@reqres.in\",\n      \"first_name\": \"Janet\",\n      \"last_name\": \"Weaver\",\n      \"avatar\": \"https:\/\/reqres.in\/img\/faces\/2-image.jpg\"\n    },\n    {\n      \"id\": 3,\n      \"email\": \"emma.wong@reqres.in\",\n      \"first_name\": \"Emma\",\n      \"last_name\": \"Wong\",\n      \"avatar\": \"https:\/\/reqres.in\/img\/faces\/3-image.jpg\"\n    },\n    {\n      \"id\": 4,\n      \"email\": \"eve.holt@reqres.in\",\n      \"first_name\": \"Eve\",\n      \"last_name\": \"Holt\",\n      \"avatar\": \"https:\/\/reqres.in\/img\/faces\/4-image.jpg\"\n    },\n    {\n      \"id\": 5,\n      \"email\": \"charles.morris@reqres.in\",\n      \"first_name\": \"Charles\",\n      \"last_name\": \"Morris\",\n      \"avatar\": \"https:\/\/reqres.in\/img\/faces\/5-image.jpg\"\n    },\n    {\n      \"id\": 6,\n      \"email\": \"tracey.ramos@reqres.in\",\n      \"first_name\": \"Tracey\",\n      \"last_name\": \"Ramos\",\n      \"avatar\": \"https:\/\/reqres.in\/img\/faces\/6-image.jpg\"\n    }\n  ],\n  \"support\": {\n    \"url\": \"https:\/\/reqres.in\/#support-heading\",\n    \"text\": \"To keep ReqRes free, contributions towards server costs are appreciated!\"\n  }\n}\n \n"},{"result":{"nanos":1511400,"millis":1.5114,"status":"passed"},"step":{"line":22,"prefix":"And","index":4,"text":"match response.data[5].first_name ==\"Tracey\""}},{"result":{"nanos":1300500,"millis":1.3005,"status":"passed"},"step":{"line":23,"prefix":"And","index":5,"text":"print name"},"stepLog":"22:57:25.771 [print] Mahesh \n"}],"line":16,"description":"","durationMillis":321.3019,"failed":false,"tags":["second"],"executorName":"main","name":"Test a sample get data","startTime":1707758845448,"refId":"[2:16]","endTime":1707758845771,"exampleIndex":-1}],"callDepth":0,"name":"To test Get Request","description":"","resultDate":"2024-02-12 10:57:25 pm","durationMillis":5074.5477,"passedCount":2}