{"failedCount":1,"prefixedPath":"src\/test\/java\/frame\/geet.feature","packageQualifiedName":"src.test.java.frame.geet","loopIndex":-1,"relativePath":"src\/test\/java\/frame\/geet.feature","scenarioResults":[{"sectionIndex":0,"stepResults":[{"result":{"nanos":80132100,"millis":80.1321,"status":"passed"},"step":{"background":true,"line":4,"prefix":"Given","index":0,"text":"url  'https:\/\/reqres.in'"}},{"result":{"nanos":61704000,"millis":61.704,"status":"passed"},"step":{"background":true,"line":5,"prefix":"And","index":1,"text":"print 'lOVE YOU '"},"stepLog":"16:36:26.475 [print] lOVE YOU  \n"},{"result":{"nanos":590300,"millis":0.5903,"status":"passed"},"step":{"comments":["# Given url  'https:\/\/reqres.in'"],"line":9,"prefix":"Given","index":0,"text":"path '\/api\/unknown'"}},{"result":{"nanos":682581900,"millis":682.5819,"status":"passed"},"step":{"line":10,"prefix":"When","index":1,"text":"method GET"},"stepLog":"16:36:26.730 request:\n1 > GET https:\/\/reqres.in\/api\/unknown\n1 > Host: reqres.in\n1 > Connection: Keep-Alive\n1 > User-Agent: Apache-HttpClient\/4.5.14 (Java\/17.0.1)\n1 > Accept-Encoding: gzip,deflate\n\n\n16:36:27.131 response time in milliseconds: 396\n1 < 200\n1 < Date: Fri, 26 Jan 2024 11:06:27 GMT\n1 < Content-Type: application\/json; charset=utf-8\n1 < Transfer-Encoding: chunked\n1 < Connection: keep-alive\n1 < Report-To: {\"group\":\"heroku-nel\",\"max_age\":3600,\"endpoints\":[{\"url\":\"https:\/\/nel.heroku.com\/reports?ts=1706228772&sid=c4c9725f-1ab0-44d8-820f-430df2718e11&s=SBc66F5%2FSVw74FPIzZjUv3MelgZD1PAfHyTvKAf2nj0%3D\"}]}\n1 < Reporting-Endpoints: heroku-nel=https:\/\/nel.heroku.com\/reports?ts=1706228772&sid=c4c9725f-1ab0-44d8-820f-430df2718e11&s=SBc66F5%2FSVw74FPIzZjUv3MelgZD1PAfHyTvKAf2nj0%3D\n1 < Nel: {\"report_to\":\"heroku-nel\",\"max_age\":3600,\"success_fraction\":0.005,\"failure_fraction\":0.05,\"response_headers\":[\"Via\"]}\n1 < X-Powered-By: Express\n1 < Access-Control-Allow-Origin: *\n1 < Etag: W\/\"2c1-N6Rqerxquq2kgQhL51EiSg4x0R8\"\n1 < Via: 1.1 vegur\n1 < Cache-Control: max-age=14400\n1 < CF-Cache-Status: HIT\n1 < Age: 1695\n1 < Vary: Accept-Encoding\n1 < Server: cloudflare\n1 < CF-RAY: 84b849647f9f7f2b-MAA\n{\"page\":1,\"per_page\":6,\"total\":12,\"total_pages\":2,\"data\":[{\"id\":1,\"name\":\"cerulean\",\"year\":2000,\"color\":\"#98B2D1\",\"pantone_value\":\"15-4020\"},{\"id\":2,\"name\":\"fuchsia rose\",\"year\":2001,\"color\":\"#C74375\",\"pantone_value\":\"17-2031\"},{\"id\":3,\"name\":\"true red\",\"year\":2002,\"color\":\"#BF1932\",\"pantone_value\":\"19-1664\"},{\"id\":4,\"name\":\"aqua sky\",\"year\":2003,\"color\":\"#7BC4C4\",\"pantone_value\":\"14-4811\"},{\"id\":5,\"name\":\"tigerlily\",\"year\":2004,\"color\":\"#E2583E\",\"pantone_value\":\"17-1456\"},{\"id\":6,\"name\":\"blue turquoise\",\"year\":2005,\"color\":\"#53B0AE\",\"pantone_value\":\"15-5217\"}],\"support\":{\"url\":\"https:\/\/reqres.in\/#support-heading\",\"text\":\"To keep ReqRes free, contributions towards server costs are appreciated!\"}}\n\n"},{"result":{"nanos":29100,"millis":0.0291,"status":"passed"},"step":{"line":11,"prefix":"Then","index":2,"text":"status 200"}},{"result":{"nanos":10717800,"millis":10.7178,"status":"passed"},"step":{"line":12,"prefix":"And","index":3,"text":"print  response"},"stepLog":"16:36:27.171 [print] {\n  \"page\": 1,\n  \"per_page\": 6,\n  \"total\": 12,\n  \"total_pages\": 2,\n  \"data\": [\n    {\n      \"id\": 1,\n      \"name\": \"cerulean\",\n      \"year\": 2000,\n      \"color\": \"#98B2D1\",\n      \"pantone_value\": \"15-4020\"\n    },\n    {\n      \"id\": 2,\n      \"name\": \"fuchsia rose\",\n      \"year\": 2001,\n      \"color\": \"#C74375\",\n      \"pantone_value\": \"17-2031\"\n    },\n    {\n      \"id\": 3,\n      \"name\": \"true red\",\n      \"year\": 2002,\n      \"color\": \"#BF1932\",\n      \"pantone_value\": \"19-1664\"\n    },\n    {\n      \"id\": 4,\n      \"name\": \"aqua sky\",\n      \"year\": 2003,\n      \"color\": \"#7BC4C4\",\n      \"pantone_value\": \"14-4811\"\n    },\n    {\n      \"id\": 5,\n      \"name\": \"tigerlily\",\n      \"year\": 2004,\n      \"color\": \"#E2583E\",\n      \"pantone_value\": \"17-1456\"\n    },\n    {\n      \"id\": 6,\n      \"name\": \"blue turquoise\",\n      \"year\": 2005,\n      \"color\": \"#53B0AE\",\n      \"pantone_value\": \"15-5217\"\n    }\n  ],\n  \"support\": {\n    \"url\": \"https:\/\/reqres.in\/#support-heading\",\n    \"text\": \"To keep ReqRes free, contributions towards server costs are appreciated!\"\n  }\n}\n \n"},{"result":{"nanos":27349500,"errorMessage":"net.minidev.json.parser.ParseException: Unexpected End Of File position 925: null\nsrc\/test\/java\/frame\/geet.feature:13","millis":27.3495,"status":"failed"},"step":{"endLine":68,"line":13,"prefix":"And","docString":"{\n      \"page\": 1,\n      \"per_page\": 6,\n      \"total\": 12,\n      \"total_pages\": 2,\n      \"data\": [\n      {\n\"id\": 1,\n\"name\": \"cerulean\",\n\"year\": 2000,\n\"color\": \"#98B2D1\",\n\"pantone_value\": \"15-4020\"\n      },\n      {\n\"id\": 2,\n\"name\": \"fuchsia rose\",\n\"year\": 2001,\n\"color\": \"#C74375\",\n\"pantone_value\": \"17-2031\"\n      },\n      {\n\"id\": 3,\n\"name\": \"true red\",\n\"year\": 2002,\n\"color\": \"#BF1932\",\n\"pantone_value\": \"19-1664\"\n      },\n      {\n\"id\": 4,\n\"name\": \"aqua sky\",\n\"year\": 2003,\n\"color\": \"#7BC4C4\",\n\"pantone_value\": \"14-4811\"\n      },\n      {\n\"id\": 5,\n\"name\": \"tigerlily\",\n\"year\": 2004,\n\"color\": \"#E2583E\",\n\"pantone_value\": \"17-1456\"\n      },\n      {\n\"id\": 6,\n\"name\": \"blue turquoise\",\n\"year\": 2005,\n\"color\": \"#53B0AE\",\n\"pantone_value\": \"15-5217\"\n      }\n      ],\n      \"support\": {\n      \"url\": \"https:\/\/reqres.in\/#support-heading\",\n      \"text\": \"To keep ReqRes free, contributions towards server costs are appreciated!\"\n      }","index":4,"text":"match response =="},"stepLog":"16:36:27.202 src\/test\/java\/frame\/geet.feature:13\nAnd match response ==\n\"\"\"\n{\n      \"page\": 1,\n      \"per_page\": 6,\n      \"total\": 12,\n      \"total_pages\": 2,\n      \"data\": [\n      {\n\"id\": 1,\n\"name\": \"cerulean\",\n\"year\": 2000,\n\"color\": \"#98B2D1\",\n\"pantone_value\": \"15-4020\"\n      },\n      {\n\"id\": 2,\n\"name\": \"fuchsia rose\",\n\"year\": 2001,\n\"color\": \"#C74375\",\n\"pantone_value\": \"17-2031\"\n      },\n      {\n\"id\": 3,\n\"name\": \"true red\",\n\"year\": 2002,\n\"color\": \"#BF1932\",\n\"pantone_value\": \"19-1664\"\n      },\n      {\n\"id\": 4,\n\"name\": \"aqua sky\",\n\"year\": 2003,\n\"color\": \"#7BC4C4\",\n\"pantone_value\": \"14-4811\"\n      },\n      {\n\"id\": 5,\n\"name\": \"tigerlily\",\n\"year\": 2004,\n\"color\": \"#E2583E\",\n\"pantone_value\": \"17-1456\"\n      },\n      {\n\"id\": 6,\n\"name\": \"blue turquoise\",\n\"year\": 2005,\n\"color\": \"#53B0AE\",\n\"pantone_value\": \"15-5217\"\n      }\n      ],\n      \"support\": {\n      \"url\": \"https:\/\/reqres.in\/#support-heading\",\n      \"text\": \"To keep ReqRes free, contributions towards server costs are appreciated!\"\n      }\n\"\"\"\nnet.minidev.json.parser.ParseException: Unexpected End Of File position 925: null\nsrc\/test\/java\/frame\/geet.feature:13\n"}],"line":7,"description":"","durationMillis":863.1047,"failed":true,"error":"net.minidev.json.parser.ParseException: Unexpected End Of File position 925: null\nsrc\/test\/java\/frame\/geet.feature:13","executorName":"main","name":"Test a sample Get API","startTime":1706267186317,"refId":"[1:7]","endTime":1706267187202,"exampleIndex":-1},{"sectionIndex":1,"stepResults":[{"result":{"nanos":1801800,"millis":1.8018,"status":"passed"},"step":{"background":true,"line":4,"prefix":"Given","index":0,"text":"url  'https:\/\/reqres.in'"}},{"result":{"nanos":2925100,"millis":2.9251,"status":"passed"},"step":{"background":true,"line":5,"prefix":"And","index":1,"text":"print 'lOVE YOU '"},"stepLog":"16:36:27.216 [print] lOVE YOU  \n"},{"result":{"nanos":718600,"millis":0.7186,"status":"passed"},"step":{"line":71,"prefix":"Given","index":0,"text":"path  '\/api\/users'"}},{"result":{"nanos":82035000,"millis":82.035,"status":"passed"},"step":{"line":72,"prefix":"When","index":1,"text":"method GET"},"stepLog":"16:36:27.219 request:\n1 > GET https:\/\/reqres.in\/api\/users\n1 > Host: reqres.in\n1 > Connection: Keep-Alive\n1 > User-Agent: Apache-HttpClient\/4.5.14 (Java\/17.0.1)\n1 > Accept-Encoding: gzip,deflate\n\n\n16:36:27.298 response time in milliseconds: 78\n1 < 200\n1 < Date: Fri, 26 Jan 2024 11:06:28 GMT\n1 < Content-Type: application\/json; charset=utf-8\n1 < Transfer-Encoding: chunked\n1 < Connection: keep-alive\n1 < Report-To: {\"group\":\"heroku-nel\",\"max_age\":3600,\"endpoints\":[{\"url\":\"https:\/\/nel.heroku.com\/reports?ts=1706233470&sid=c4c9725f-1ab0-44d8-820f-430df2718e11&s=Q2%2BOAc2K7Xf6Ixt3ZqGS6GuwDREZ8hS%2BWmENuJR5Qw8%3D\"}]}\n1 < Reporting-Endpoints: heroku-nel=https:\/\/nel.heroku.com\/reports?ts=1706233470&sid=c4c9725f-1ab0-44d8-820f-430df2718e11&s=Q2%2BOAc2K7Xf6Ixt3ZqGS6GuwDREZ8hS%2BWmENuJR5Qw8%3D\n1 < Nel: {\"report_to\":\"heroku-nel\",\"max_age\":3600,\"success_fraction\":0.005,\"failure_fraction\":0.05,\"response_headers\":[\"Via\"]}\n1 < X-Powered-By: Express\n1 < Access-Control-Allow-Origin: *\n1 < Etag: W\/\"3e4-2RLXvr5wTg9YQ6aH95CkYoFNuO8\"\n1 < Via: 1.1 vegur\n1 < Cache-Control: max-age=14400\n1 < CF-Cache-Status: HIT\n1 < Age: 1764\n1 < Vary: Accept-Encoding\n1 < Server: cloudflare\n1 < CF-RAY: 84b84965a9627ee0-MAA\n{\"page\":1,\"per_page\":6,\"total\":12,\"total_pages\":2,\"data\":[{\"id\":1,\"email\":\"george.bluth@reqres.in\",\"first_name\":\"George\",\"last_name\":\"Bluth\",\"avatar\":\"https:\/\/reqres.in\/img\/faces\/1-image.jpg\"},{\"id\":2,\"email\":\"janet.weaver@reqres.in\",\"first_name\":\"Janet\",\"last_name\":\"Weaver\",\"avatar\":\"https:\/\/reqres.in\/img\/faces\/2-image.jpg\"},{\"id\":3,\"email\":\"emma.wong@reqres.in\",\"first_name\":\"Emma\",\"last_name\":\"Wong\",\"avatar\":\"https:\/\/reqres.in\/img\/faces\/3-image.jpg\"},{\"id\":4,\"email\":\"eve.holt@reqres.in\",\"first_name\":\"Eve\",\"last_name\":\"Holt\",\"avatar\":\"https:\/\/reqres.in\/img\/faces\/4-image.jpg\"},{\"id\":5,\"email\":\"charles.morris@reqres.in\",\"first_name\":\"Charles\",\"last_name\":\"Morris\",\"avatar\":\"https:\/\/reqres.in\/img\/faces\/5-image.jpg\"},{\"id\":6,\"email\":\"tracey.ramos@reqres.in\",\"first_name\":\"Tracey\",\"last_name\":\"Ramos\",\"avatar\":\"https:\/\/reqres.in\/img\/faces\/6-image.jpg\"}],\"support\":{\"url\":\"https:\/\/reqres.in\/#support-heading\",\"text\":\"To keep ReqRes free, contributions towards server costs are appreciated!\"}}\n\n"},{"result":{"nanos":9200,"millis":0.0092,"status":"passed"},"step":{"line":73,"prefix":"Then","index":2,"text":"status 200"}},{"result":{"nanos":1463900,"millis":1.4639,"status":"passed"},"step":{"line":74,"prefix":"And","index":3,"text":"print  response"},"stepLog":"16:36:27.301 [print] {\n  \"page\": 1,\n  \"per_page\": 6,\n  \"total\": 12,\n  \"total_pages\": 2,\n  \"data\": [\n    {\n      \"id\": 1,\n      \"email\": \"george.bluth@reqres.in\",\n      \"first_name\": \"George\",\n      \"last_name\": \"Bluth\",\n      \"avatar\": \"https:\/\/reqres.in\/img\/faces\/1-image.jpg\"\n    },\n    {\n      \"id\": 2,\n      \"email\": \"janet.weaver@reqres.in\",\n      \"first_name\": \"Janet\",\n      \"last_name\": \"Weaver\",\n      \"avatar\": \"https:\/\/reqres.in\/img\/faces\/2-image.jpg\"\n    },\n    {\n      \"id\": 3,\n      \"email\": \"emma.wong@reqres.in\",\n      \"first_name\": \"Emma\",\n      \"last_name\": \"Wong\",\n      \"avatar\": \"https:\/\/reqres.in\/img\/faces\/3-image.jpg\"\n    },\n    {\n      \"id\": 4,\n      \"email\": \"eve.holt@reqres.in\",\n      \"first_name\": \"Eve\",\n      \"last_name\": \"Holt\",\n      \"avatar\": \"https:\/\/reqres.in\/img\/faces\/4-image.jpg\"\n    },\n    {\n      \"id\": 5,\n      \"email\": \"charles.morris@reqres.in\",\n      \"first_name\": \"Charles\",\n      \"last_name\": \"Morris\",\n      \"avatar\": \"https:\/\/reqres.in\/img\/faces\/5-image.jpg\"\n    },\n    {\n      \"id\": 6,\n      \"email\": \"tracey.ramos@reqres.in\",\n      \"first_name\": \"Tracey\",\n      \"last_name\": \"Ramos\",\n      \"avatar\": \"https:\/\/reqres.in\/img\/faces\/6-image.jpg\"\n    }\n  ],\n  \"support\": {\n    \"url\": \"https:\/\/reqres.in\/#support-heading\",\n    \"text\": \"To keep ReqRes free, contributions towards server costs are appreciated!\"\n  }\n}\n \n"}],"executorName":"main","line":70,"name":"sample get api","description":"","durationMillis":88.9536,"startTime":1706267187211,"failed":false,"refId":"[2:70]","endTime":1706267187301,"exampleIndex":-1}],"callDepth":0,"name":"Sample API Tests","description":"","resultDate":"2024-01-26 04:36:27 pm","durationMillis":952.0583,"passedCount":1}