{"failedCount":0,"prefixedPath":"src\/test\/java\/frame\/Driven.feature","packageQualifiedName":"src.test.java.frame.Driven","loopIndex":-1,"relativePath":"src\/test\/java\/frame\/Driven.feature","scenarioResults":[{"sectionIndex":0,"stepResults":[{"result":{"nanos":2799200,"millis":2.7992,"status":"passed"},"step":{"background":true,"line":4,"prefix":"Given","index":0,"text":"url niha"},"stepLog":"00:47:17.714 the value is null \n"},{"result":{"nanos":575500,"millis":0.5755,"status":"passed"},"step":{"line":7,"prefix":"Given","index":0,"text":"path 'users'"}},{"result":{"nanos":54193900,"millis":54.1939,"status":"passed"},"step":{"line":8,"prefix":"And","index":1,"text":"request {\"name\":mahesh,\"job\":mahe}"}},{"result":{"nanos":1301929800,"millis":1301.9298,"status":"passed"},"step":{"line":9,"prefix":"When","index":2,"text":"method Post"},"stepLog":"00:47:18.280 request:\n1 > POST https:\/\/reqres.in\/api\/users\n1 > Content-Type: application\/json; charset=UTF-8\n1 > Content-Length: 30\n1 > Host: reqres.in\n1 > Connection: Keep-Alive\n1 > User-Agent: Apache-HttpClient\/4.5.14 (Java\/17.0.1)\n1 > Accept-Encoding: gzip,deflate\n{\"name\":\"mahesh\",\"job\":\"mahe\"}\n\n00:47:19.122 response time in milliseconds: 837\n1 < 201\n1 < Date: Mon, 19 Feb 2024 19:17:19 GMT\n1 < Content-Type: application\/json; charset=utf-8\n1 < Content-Length: 80\n1 < Connection: keep-alive\n1 < Report-To: {\"group\":\"heroku-nel\",\"max_age\":3600,\"endpoints\":[{\"url\":\"https:\/\/nel.heroku.com\/reports?ts=1708370239&sid=c4c9725f-1ab0-44d8-820f-430df2718e11&s=e%2FU%2FaMmnbI3jdFy9%2B4oyV0iMAis%2FypwqzYAkmdGGCZs%3D\"}]}\n1 < Reporting-Endpoints: heroku-nel=https:\/\/nel.heroku.com\/reports?ts=1708370239&sid=c4c9725f-1ab0-44d8-820f-430df2718e11&s=e%2FU%2FaMmnbI3jdFy9%2B4oyV0iMAis%2FypwqzYAkmdGGCZs%3D\n1 < Nel: {\"report_to\":\"heroku-nel\",\"max_age\":3600,\"success_fraction\":0.005,\"failure_fraction\":0.05,\"response_headers\":[\"Via\"]}\n1 < X-Powered-By: Express\n1 < Access-Control-Allow-Origin: *\n1 < Etag: W\/\"50-NShoJcH2m4MteKDeg90HYPZrmG8\"\n1 < Via: 1.1 vegur\n1 < CF-Cache-Status: DYNAMIC\n1 < Server: cloudflare\n1 < CF-RAY: 8580d96ab8427f3e-MAA\n{\"name\":\"mahesh\",\"job\":\"mahe\",\"id\":\"171\",\"createdAt\":\"2024-02-19T19:17:19.389Z\"}\n\n"},{"result":{"nanos":19900,"millis":0.0199,"status":"passed"},"step":{"line":10,"prefix":"Then","index":3,"text":"status 201"}},{"result":{"nanos":6766600,"millis":6.7666,"status":"passed"},"step":{"line":11,"prefix":"And","index":4,"text":"print response"},"stepLog":"00:47:19.129 [print] {\n  \"name\": \"mahesh\",\n  \"job\": \"mahe\",\n  \"id\": \"171\",\n  \"createdAt\": \"2024-02-19T19:17:19.389Z\"\n}\n \n"},{"result":{"nanos":826500,"millis":0.8265,"status":"passed"},"step":{"line":12,"prefix":"*","index":5,"text":"def result = response"}},{"result":{"nanos":9777000,"millis":9.777,"status":"passed"},"step":{"line":13,"prefix":"Given","index":6,"text":"path 'users' +result.id"}},{"result":{"nanos":408576300,"millis":408.5763,"status":"passed"},"step":{"line":14,"prefix":"When","index":7,"text":"method GET"},"stepLog":"00:47:19.143 request:\n2 > GET https:\/\/reqres.in\/api\/users171\n2 > Host: reqres.in\n2 > Connection: Keep-Alive\n2 > User-Agent: Apache-HttpClient\/4.5.14 (Java\/17.0.1)\n2 > Accept-Encoding: gzip,deflate\n\n\n00:47:19.549 response time in milliseconds: 404\n2 < 200\n2 < Date: Mon, 19 Feb 2024 19:17:19 GMT\n2 < Content-Type: application\/json; charset=utf-8\n2 < Transfer-Encoding: chunked\n2 < Connection: keep-alive\n2 < Report-To: {\"group\":\"heroku-nel\",\"max_age\":3600,\"endpoints\":[{\"url\":\"https:\/\/nel.heroku.com\/reports?ts=1708370239&sid=c4c9725f-1ab0-44d8-820f-430df2718e11&s=e%2FU%2FaMmnbI3jdFy9%2B4oyV0iMAis%2FypwqzYAkmdGGCZs%3D\"}]}\n2 < Reporting-Endpoints: heroku-nel=https:\/\/nel.heroku.com\/reports?ts=1708370239&sid=c4c9725f-1ab0-44d8-820f-430df2718e11&s=e%2FU%2FaMmnbI3jdFy9%2B4oyV0iMAis%2FypwqzYAkmdGGCZs%3D\n2 < Nel: {\"report_to\":\"heroku-nel\",\"max_age\":3600,\"success_fraction\":0.005,\"failure_fraction\":0.05,\"response_headers\":[\"Via\"]}\n2 < X-Powered-By: Express\n2 < Access-Control-Allow-Origin: *\n2 < Etag: W\/\"2c1-N6Rqerxquq2kgQhL51EiSg4x0R8\"\n2 < Via: 1.1 vegur\n2 < Cache-Control: max-age=14400\n2 < CF-Cache-Status: MISS\n2 < Vary: Accept-Encoding\n2 < Server: cloudflare\n2 < CF-RAY: 8580d96d88027e97-MAA\n{\"page\":1,\"per_page\":6,\"total\":12,\"total_pages\":2,\"data\":[{\"id\":1,\"name\":\"cerulean\",\"year\":2000,\"color\":\"#98B2D1\",\"pantone_value\":\"15-4020\"},{\"id\":2,\"name\":\"fuchsia rose\",\"year\":2001,\"color\":\"#C74375\",\"pantone_value\":\"17-2031\"},{\"id\":3,\"name\":\"true red\",\"year\":2002,\"color\":\"#BF1932\",\"pantone_value\":\"19-1664\"},{\"id\":4,\"name\":\"aqua sky\",\"year\":2003,\"color\":\"#7BC4C4\",\"pantone_value\":\"14-4811\"},{\"id\":5,\"name\":\"tigerlily\",\"year\":2004,\"color\":\"#E2583E\",\"pantone_value\":\"17-1456\"},{\"id\":6,\"name\":\"blue turquoise\",\"year\":2005,\"color\":\"#53B0AE\",\"pantone_value\":\"15-5217\"}],\"support\":{\"url\":\"https:\/\/reqres.in\/#support-heading\",\"text\":\"To keep ReqRes free, contributions towards server costs are appreciated!\"}}\n\n"},{"result":{"nanos":10400,"millis":0.0104,"status":"passed"},"step":{"line":15,"prefix":"Then","index":8,"text":"status 200"}},{"result":{"nanos":1155200,"millis":1.1552,"status":"passed"},"step":{"line":16,"prefix":"And","index":9,"text":"print response"},"stepLog":"00:47:19.551 [print] {\n  \"page\": 1,\n  \"per_page\": 6,\n  \"total\": 12,\n  \"total_pages\": 2,\n  \"data\": [\n    {\n      \"id\": 1,\n      \"name\": \"cerulean\",\n      \"year\": 2000,\n      \"color\": \"#98B2D1\",\n      \"pantone_value\": \"15-4020\"\n    },\n    {\n      \"id\": 2,\n      \"name\": \"fuchsia rose\",\n      \"year\": 2001,\n      \"color\": \"#C74375\",\n      \"pantone_value\": \"17-2031\"\n    },\n    {\n      \"id\": 3,\n      \"name\": \"true red\",\n      \"year\": 2002,\n      \"color\": \"#BF1932\",\n      \"pantone_value\": \"19-1664\"\n    },\n    {\n      \"id\": 4,\n      \"name\": \"aqua sky\",\n      \"year\": 2003,\n      \"color\": \"#7BC4C4\",\n      \"pantone_value\": \"14-4811\"\n    },\n    {\n      \"id\": 5,\n      \"name\": \"tigerlily\",\n      \"year\": 2004,\n      \"color\": \"#E2583E\",\n      \"pantone_value\": \"17-1456\"\n    },\n    {\n      \"id\": 6,\n      \"name\": \"blue turquoise\",\n      \"year\": 2005,\n      \"color\": \"#53B0AE\",\n      \"pantone_value\": \"15-5217\"\n    }\n  ],\n  \"support\": {\n    \"url\": \"https:\/\/reqres.in\/#support-heading\",\n    \"text\": \"To keep ReqRes free, contributions towards server costs are appreciated!\"\n  }\n}\n \n"}],"line":20,"description":"","durationMillis":1786.6303,"failed":false,"executorName":"main","name":"Test Driven test","startTime":1708370237561,"refId":"[1.1:20]","endTime":1708370239551,"exampleData":{"name":"mahesh","":null,"salary":"mahe"},"exampleIndex":0},{"sectionIndex":0,"stepResults":[{"result":{"nanos":137200,"millis":0.1372,"status":"passed"},"step":{"background":true,"line":4,"prefix":"Given","index":0,"text":"url niha"},"stepLog":"00:47:19.558 the value is null \n"},{"result":{"nanos":393600,"millis":0.3936,"status":"passed"},"step":{"line":7,"prefix":"Given","index":0,"text":"path 'users'"}},{"result":{"nanos":373000,"millis":0.373,"status":"passed"},"step":{"line":8,"prefix":"And","index":1,"text":"request {\"name\":love,\"job\":baby}"}},{"result":{"nanos":432313400,"millis":432.3134,"status":"passed"},"step":{"line":9,"prefix":"When","index":2,"text":"method Post"},"stepLog":"00:47:19.562 request:\n1 > POST https:\/\/reqres.in\/api\/users\n1 > Content-Type: application\/json; charset=UTF-8\n1 > Content-Length: 28\n1 > Host: reqres.in\n1 > Connection: Keep-Alive\n1 > User-Agent: Apache-HttpClient\/4.5.14 (Java\/17.0.1)\n1 > Accept-Encoding: gzip,deflate\n{\"name\":\"love\",\"job\":\"baby\"}\n\n00:47:19.992 response time in milliseconds: 428\n1 < 201\n1 < Date: Mon, 19 Feb 2024 19:17:20 GMT\n1 < Content-Type: application\/json; charset=utf-8\n1 < Content-Length: 78\n1 < Connection: keep-alive\n1 < Report-To: {\"group\":\"heroku-nel\",\"max_age\":3600,\"endpoints\":[{\"url\":\"https:\/\/nel.heroku.com\/reports?ts=1708370240&sid=c4c9725f-1ab0-44d8-820f-430df2718e11&s=s76r8Cm298Q%2FA55cOZfqodDdHDGyEkXos3nru5Nt1Rw%3D\"}]}\n1 < Reporting-Endpoints: heroku-nel=https:\/\/nel.heroku.com\/reports?ts=1708370240&sid=c4c9725f-1ab0-44d8-820f-430df2718e11&s=s76r8Cm298Q%2FA55cOZfqodDdHDGyEkXos3nru5Nt1Rw%3D\n1 < Nel: {\"report_to\":\"heroku-nel\",\"max_age\":3600,\"success_fraction\":0.005,\"failure_fraction\":0.05,\"response_headers\":[\"Via\"]}\n1 < X-Powered-By: Express\n1 < Access-Control-Allow-Origin: *\n1 < Etag: W\/\"4e-qvSrs1ucDgeOQKWFb7awvhGzWRE\"\n1 < Via: 1.1 vegur\n1 < CF-Cache-Status: DYNAMIC\n1 < Server: cloudflare\n1 < CF-RAY: 8580d96ffe057e69-MAA\n{\"name\":\"love\",\"job\":\"baby\",\"id\":\"178\",\"createdAt\":\"2024-02-19T19:17:20.275Z\"}\n\n"},{"result":{"nanos":20300,"millis":0.0203,"status":"passed"},"step":{"line":10,"prefix":"Then","index":3,"text":"status 201"}},{"result":{"nanos":823700,"millis":0.8237,"status":"passed"},"step":{"line":11,"prefix":"And","index":4,"text":"print response"},"stepLog":"00:47:19.995 [print] {\n  \"name\": \"love\",\n  \"job\": \"baby\",\n  \"id\": \"178\",\n  \"createdAt\": \"2024-02-19T19:17:20.275Z\"\n}\n \n"},{"result":{"nanos":395500,"millis":0.3955,"status":"passed"},"step":{"line":12,"prefix":"*","index":5,"text":"def result = response"}},{"result":{"nanos":321300,"millis":0.3213,"status":"passed"},"step":{"line":13,"prefix":"Given","index":6,"text":"path 'users' +result.id"}},{"result":{"nanos":409525600,"millis":409.5256,"status":"passed"},"step":{"line":14,"prefix":"When","index":7,"text":"method GET"},"stepLog":"00:47:19.998 request:\n2 > GET https:\/\/reqres.in\/api\/users178\n2 > Host: reqres.in\n2 > Connection: Keep-Alive\n2 > User-Agent: Apache-HttpClient\/4.5.14 (Java\/17.0.1)\n2 > Accept-Encoding: gzip,deflate\n\n\n00:47:20.404 response time in milliseconds: 404\n2 < 200\n2 < Date: Mon, 19 Feb 2024 19:17:20 GMT\n2 < Content-Type: application\/json; charset=utf-8\n2 < Transfer-Encoding: chunked\n2 < Connection: keep-alive\n2 < Report-To: {\"group\":\"heroku-nel\",\"max_age\":3600,\"endpoints\":[{\"url\":\"https:\/\/nel.heroku.com\/reports?ts=1708370240&sid=c4c9725f-1ab0-44d8-820f-430df2718e11&s=s76r8Cm298Q%2FA55cOZfqodDdHDGyEkXos3nru5Nt1Rw%3D\"}]}\n2 < Reporting-Endpoints: heroku-nel=https:\/\/nel.heroku.com\/reports?ts=1708370240&sid=c4c9725f-1ab0-44d8-820f-430df2718e11&s=s76r8Cm298Q%2FA55cOZfqodDdHDGyEkXos3nru5Nt1Rw%3D\n2 < Nel: {\"report_to\":\"heroku-nel\",\"max_age\":3600,\"success_fraction\":0.005,\"failure_fraction\":0.05,\"response_headers\":[\"Via\"]}\n2 < X-Powered-By: Express\n2 < Access-Control-Allow-Origin: *\n2 < Etag: W\/\"2c1-N6Rqerxquq2kgQhL51EiSg4x0R8\"\n2 < Via: 1.1 vegur\n2 < Cache-Control: max-age=14400\n2 < CF-Cache-Status: MISS\n2 < Vary: Accept-Encoding\n2 < Server: cloudflare\n2 < CF-RAY: 8580d972df607eb5-MAA\n{\"page\":1,\"per_page\":6,\"total\":12,\"total_pages\":2,\"data\":[{\"id\":1,\"name\":\"cerulean\",\"year\":2000,\"color\":\"#98B2D1\",\"pantone_value\":\"15-4020\"},{\"id\":2,\"name\":\"fuchsia rose\",\"year\":2001,\"color\":\"#C74375\",\"pantone_value\":\"17-2031\"},{\"id\":3,\"name\":\"true red\",\"year\":2002,\"color\":\"#BF1932\",\"pantone_value\":\"19-1664\"},{\"id\":4,\"name\":\"aqua sky\",\"year\":2003,\"color\":\"#7BC4C4\",\"pantone_value\":\"14-4811\"},{\"id\":5,\"name\":\"tigerlily\",\"year\":2004,\"color\":\"#E2583E\",\"pantone_value\":\"17-1456\"},{\"id\":6,\"name\":\"blue turquoise\",\"year\":2005,\"color\":\"#53B0AE\",\"pantone_value\":\"15-5217\"}],\"support\":{\"url\":\"https:\/\/reqres.in\/#support-heading\",\"text\":\"To keep ReqRes free, contributions towards server costs are appreciated!\"}}\n\n"},{"result":{"nanos":19600,"millis":0.0196,"status":"passed"},"step":{"line":15,"prefix":"Then","index":8,"text":"status 200"}},{"result":{"nanos":1239900,"millis":1.2399,"status":"passed"},"step":{"line":16,"prefix":"And","index":9,"text":"print response"},"stepLog":"00:47:20.407 [print] {\n  \"page\": 1,\n  \"per_page\": 6,\n  \"total\": 12,\n  \"total_pages\": 2,\n  \"data\": [\n    {\n      \"id\": 1,\n      \"name\": \"cerulean\",\n      \"year\": 2000,\n      \"color\": \"#98B2D1\",\n      \"pantone_value\": \"15-4020\"\n    },\n    {\n      \"id\": 2,\n      \"name\": \"fuchsia rose\",\n      \"year\": 2001,\n      \"color\": \"#C74375\",\n      \"pantone_value\": \"17-2031\"\n    },\n    {\n      \"id\": 3,\n      \"name\": \"true red\",\n      \"year\": 2002,\n      \"color\": \"#BF1932\",\n      \"pantone_value\": \"19-1664\"\n    },\n    {\n      \"id\": 4,\n      \"name\": \"aqua sky\",\n      \"year\": 2003,\n      \"color\": \"#7BC4C4\",\n      \"pantone_value\": \"14-4811\"\n    },\n    {\n      \"id\": 5,\n      \"name\": \"tigerlily\",\n      \"year\": 2004,\n      \"color\": \"#E2583E\",\n      \"pantone_value\": \"17-1456\"\n    },\n    {\n      \"id\": 6,\n      \"name\": \"blue turquoise\",\n      \"year\": 2005,\n      \"color\": \"#53B0AE\",\n      \"pantone_value\": \"15-5217\"\n    }\n  ],\n  \"support\": {\n    \"url\": \"https:\/\/reqres.in\/#support-heading\",\n    \"text\": \"To keep ReqRes free, contributions towards server costs are appreciated!\"\n  }\n}\n \n"}],"line":21,"description":"","durationMillis":845.5631,"failed":false,"executorName":"main","name":"Test Driven test","startTime":1708370239556,"refId":"[1.2:21]","endTime":1708370240408,"exampleData":{"name":"love","":null,"salary":"baby"},"exampleIndex":1},{"sectionIndex":0,"stepResults":[{"result":{"nanos":335600,"millis":0.3356,"status":"passed"},"step":{"background":true,"line":4,"prefix":"Given","index":0,"text":"url niha"},"stepLog":"00:47:20.417 the value is null \n"},{"result":{"nanos":288100,"millis":0.2881,"status":"passed"},"step":{"line":7,"prefix":"Given","index":0,"text":"path 'users'"}},{"result":{"nanos":383200,"millis":0.3832,"status":"passed"},"step":{"line":8,"prefix":"And","index":1,"text":"request {\"name\":NISHA,\"job\":automation}"}},{"result":{"nanos":415350100,"millis":415.3501,"status":"passed"},"step":{"line":9,"prefix":"When","index":2,"text":"method Post"},"stepLog":"00:47:20.421 request:\n1 > POST https:\/\/reqres.in\/api\/users\n1 > Content-Type: application\/json; charset=UTF-8\n1 > Content-Length: 35\n1 > Host: reqres.in\n1 > Connection: Keep-Alive\n1 > User-Agent: Apache-HttpClient\/4.5.14 (Java\/17.0.1)\n1 > Accept-Encoding: gzip,deflate\n{\"name\":\"NISHA\",\"job\":\"automation\"}\n\n00:47:20.833 response time in milliseconds: 410\n1 < 201\n1 < Date: Mon, 19 Feb 2024 19:17:21 GMT\n1 < Content-Type: application\/json; charset=utf-8\n1 < Content-Length: 85\n1 < Connection: keep-alive\n1 < Report-To: {\"group\":\"heroku-nel\",\"max_age\":3600,\"endpoints\":[{\"url\":\"https:\/\/nel.heroku.com\/reports?ts=1708370241&sid=c4c9725f-1ab0-44d8-820f-430df2718e11&s=CPkmVsN5tfBJrVNwwSOgozdYEX8B1Dv%2Fk8lkYbgQZDM%3D\"}]}\n1 < Reporting-Endpoints: heroku-nel=https:\/\/nel.heroku.com\/reports?ts=1708370241&sid=c4c9725f-1ab0-44d8-820f-430df2718e11&s=CPkmVsN5tfBJrVNwwSOgozdYEX8B1Dv%2Fk8lkYbgQZDM%3D\n1 < Nel: {\"report_to\":\"heroku-nel\",\"max_age\":3600,\"success_fraction\":0.005,\"failure_fraction\":0.05,\"response_headers\":[\"Via\"]}\n1 < X-Powered-By: Express\n1 < Access-Control-Allow-Origin: *\n1 < Etag: W\/\"55-L1z1xo8xRn7syQlkytY2PcYmglY\"\n1 < Via: 1.1 vegur\n1 < CF-Cache-Status: DYNAMIC\n1 < Server: cloudflare\n1 < CF-RAY: 8580d9755c15a8f6-MAA\n{\"name\":\"NISHA\",\"job\":\"automation\",\"id\":\"457\",\"createdAt\":\"2024-02-19T19:17:21.111Z\"}\n\n"},{"result":{"nanos":18000,"millis":0.018,"status":"passed"},"step":{"line":10,"prefix":"Then","index":3,"text":"status 201"}},{"result":{"nanos":836300,"millis":0.8363,"status":"passed"},"step":{"line":11,"prefix":"And","index":4,"text":"print response"},"stepLog":"00:47:20.835 [print] {\n  \"name\": \"NISHA\",\n  \"job\": \"automation\",\n  \"id\": \"457\",\n  \"createdAt\": \"2024-02-19T19:17:21.111Z\"\n}\n \n"},{"result":{"nanos":532500,"millis":0.5325,"status":"passed"},"step":{"line":12,"prefix":"*","index":5,"text":"def result = response"}},{"result":{"nanos":365100,"millis":0.3651,"status":"passed"},"step":{"line":13,"prefix":"Given","index":6,"text":"path 'users' +result.id"}},{"result":{"nanos":427271900,"millis":427.2719,"status":"passed"},"step":{"line":14,"prefix":"When","index":7,"text":"method GET"},"stepLog":"00:47:20.838 request:\n2 > GET https:\/\/reqres.in\/api\/users457\n2 > Host: reqres.in\n2 > Connection: Keep-Alive\n2 > User-Agent: Apache-HttpClient\/4.5.14 (Java\/17.0.1)\n2 > Accept-Encoding: gzip,deflate\n\n\n00:47:21.264 response time in milliseconds: 423\n2 < 200\n2 < Date: Mon, 19 Feb 2024 19:17:21 GMT\n2 < Content-Type: application\/json; charset=utf-8\n2 < Transfer-Encoding: chunked\n2 < Connection: keep-alive\n2 < Report-To: {\"group\":\"heroku-nel\",\"max_age\":3600,\"endpoints\":[{\"url\":\"https:\/\/nel.heroku.com\/reports?ts=1708370241&sid=c4c9725f-1ab0-44d8-820f-430df2718e11&s=CPkmVsN5tfBJrVNwwSOgozdYEX8B1Dv%2Fk8lkYbgQZDM%3D\"}]}\n2 < Reporting-Endpoints: heroku-nel=https:\/\/nel.heroku.com\/reports?ts=1708370241&sid=c4c9725f-1ab0-44d8-820f-430df2718e11&s=CPkmVsN5tfBJrVNwwSOgozdYEX8B1Dv%2Fk8lkYbgQZDM%3D\n2 < Nel: {\"report_to\":\"heroku-nel\",\"max_age\":3600,\"success_fraction\":0.005,\"failure_fraction\":0.05,\"response_headers\":[\"Via\"]}\n2 < X-Powered-By: Express\n2 < Access-Control-Allow-Origin: *\n2 < Etag: W\/\"2c1-N6Rqerxquq2kgQhL51EiSg4x0R8\"\n2 < Via: 1.1 vegur\n2 < Cache-Control: max-age=14400\n2 < CF-Cache-Status: MISS\n2 < Vary: Accept-Encoding\n2 < Server: cloudflare\n2 < CF-RAY: 8580d9780e827edf-MAA\n{\"page\":1,\"per_page\":6,\"total\":12,\"total_pages\":2,\"data\":[{\"id\":1,\"name\":\"cerulean\",\"year\":2000,\"color\":\"#98B2D1\",\"pantone_value\":\"15-4020\"},{\"id\":2,\"name\":\"fuchsia rose\",\"year\":2001,\"color\":\"#C74375\",\"pantone_value\":\"17-2031\"},{\"id\":3,\"name\":\"true red\",\"year\":2002,\"color\":\"#BF1932\",\"pantone_value\":\"19-1664\"},{\"id\":4,\"name\":\"aqua sky\",\"year\":2003,\"color\":\"#7BC4C4\",\"pantone_value\":\"14-4811\"},{\"id\":5,\"name\":\"tigerlily\",\"year\":2004,\"color\":\"#E2583E\",\"pantone_value\":\"17-1456\"},{\"id\":6,\"name\":\"blue turquoise\",\"year\":2005,\"color\":\"#53B0AE\",\"pantone_value\":\"15-5217\"}],\"support\":{\"url\":\"https:\/\/reqres.in\/#support-heading\",\"text\":\"To keep ReqRes free, contributions towards server costs are appreciated!\"}}\n\n"},{"result":{"nanos":13900,"millis":0.0139,"status":"passed"},"step":{"line":15,"prefix":"Then","index":8,"text":"status 200"}},{"result":{"nanos":1629700,"millis":1.6297,"status":"passed"},"step":{"line":16,"prefix":"And","index":9,"text":"print response"},"stepLog":"00:47:21.267 [print] {\n  \"page\": 1,\n  \"per_page\": 6,\n  \"total\": 12,\n  \"total_pages\": 2,\n  \"data\": [\n    {\n      \"id\": 1,\n      \"name\": \"cerulean\",\n      \"year\": 2000,\n      \"color\": \"#98B2D1\",\n      \"pantone_value\": \"15-4020\"\n    },\n    {\n      \"id\": 2,\n      \"name\": \"fuchsia rose\",\n      \"year\": 2001,\n      \"color\": \"#C74375\",\n      \"pantone_value\": \"17-2031\"\n    },\n    {\n      \"id\": 3,\n      \"name\": \"true red\",\n      \"year\": 2002,\n      \"color\": \"#BF1932\",\n      \"pantone_value\": \"19-1664\"\n    },\n    {\n      \"id\": 4,\n      \"name\": \"aqua sky\",\n      \"year\": 2003,\n      \"color\": \"#7BC4C4\",\n      \"pantone_value\": \"14-4811\"\n    },\n    {\n      \"id\": 5,\n      \"name\": \"tigerlily\",\n      \"year\": 2004,\n      \"color\": \"#E2583E\",\n      \"pantone_value\": \"17-1456\"\n    },\n    {\n      \"id\": 6,\n      \"name\": \"blue turquoise\",\n      \"year\": 2005,\n      \"color\": \"#53B0AE\",\n      \"pantone_value\": \"15-5217\"\n    }\n  ],\n  \"support\": {\n    \"url\": \"https:\/\/reqres.in\/#support-heading\",\n    \"text\": \"To keep ReqRes free, contributions towards server costs are appreciated!\"\n  }\n}\n \n"}],"line":22,"description":"","durationMillis":847.0244,"failed":false,"executorName":"main","name":"Test Driven test","startTime":1708370240415,"refId":"[1.3:22]","endTime":1708370241267,"exampleData":{"name":"NISHA","":null,"salary":"automation"},"exampleIndex":2}],"callDepth":0,"name":"test data driven testing","description":"","resultDate":"2024-02-20 12:47:21 am","durationMillis":3479.2178,"passedCount":3}