{"failedCount":1,"prefixedPath":"src\/test\/java\/frame\/geet.feature","packageQualifiedName":"src.test.java.frame.geet","loopIndex":-1,"relativePath":"src\/test\/java\/frame\/geet.feature","scenarioResults":[{"sectionIndex":0,"stepResults":[{"result":{"nanos":77302800,"millis":77.3028,"status":"passed"},"step":{"background":true,"line":4,"prefix":"Given","index":0,"text":"url  'https:\/\/reqres.in'"}},{"result":{"nanos":74773900,"millis":74.7739,"status":"passed"},"step":{"background":true,"line":5,"prefix":"And","index":1,"text":"print 'lOVE YOU '"},"stepLog":"16:38:01.524 [print] lOVE YOU  \n"},{"result":{"nanos":614100,"millis":0.6141,"status":"passed"},"step":{"comments":["# Given url  'https:\/\/reqres.in'"],"line":9,"prefix":"Given","index":0,"text":"path '\/api\/unknown'"}},{"result":{"nanos":698477800,"millis":698.4778,"status":"passed"},"step":{"line":10,"prefix":"When","index":1,"text":"method GET"},"stepLog":"16:38:01.821 request:\n1 > GET https:\/\/reqres.in\/api\/unknown\n1 > Host: reqres.in\n1 > Connection: Keep-Alive\n1 > User-Agent: Apache-HttpClient\/4.5.14 (Java\/17.0.1)\n1 > Accept-Encoding: gzip,deflate\n\n\n16:38:02.186 response time in milliseconds: 360\n1 < 200\n1 < Date: Fri, 26 Jan 2024 11:08:02 GMT\n1 < Content-Type: application\/json; charset=utf-8\n1 < Transfer-Encoding: chunked\n1 < Connection: keep-alive\n1 < Report-To: {\"group\":\"heroku-nel\",\"max_age\":3600,\"endpoints\":[{\"url\":\"https:\/\/nel.heroku.com\/reports?ts=1706228772&sid=c4c9725f-1ab0-44d8-820f-430df2718e11&s=SBc66F5%2FSVw74FPIzZjUv3MelgZD1PAfHyTvKAf2nj0%3D\"}]}\n1 < Reporting-Endpoints: heroku-nel=https:\/\/nel.heroku.com\/reports?ts=1706228772&sid=c4c9725f-1ab0-44d8-820f-430df2718e11&s=SBc66F5%2FSVw74FPIzZjUv3MelgZD1PAfHyTvKAf2nj0%3D\n1 < Nel: {\"report_to\":\"heroku-nel\",\"max_age\":3600,\"success_fraction\":0.005,\"failure_fraction\":0.05,\"response_headers\":[\"Via\"]}\n1 < X-Powered-By: Express\n1 < Access-Control-Allow-Origin: *\n1 < Etag: W\/\"2c1-N6Rqerxquq2kgQhL51EiSg4x0R8\"\n1 < Via: 1.1 vegur\n1 < Cache-Control: max-age=14400\n1 < CF-Cache-Status: HIT\n1 < Age: 1790\n1 < Vary: Accept-Encoding\n1 < Server: cloudflare\n1 < CF-RAY: 84b84bb69dfa7f10-MAA\n{\"page\":1,\"per_page\":6,\"total\":12,\"total_pages\":2,\"data\":[{\"id\":1,\"name\":\"cerulean\",\"year\":2000,\"color\":\"#98B2D1\",\"pantone_value\":\"15-4020\"},{\"id\":2,\"name\":\"fuchsia rose\",\"year\":2001,\"color\":\"#C74375\",\"pantone_value\":\"17-2031\"},{\"id\":3,\"name\":\"true red\",\"year\":2002,\"color\":\"#BF1932\",\"pantone_value\":\"19-1664\"},{\"id\":4,\"name\":\"aqua sky\",\"year\":2003,\"color\":\"#7BC4C4\",\"pantone_value\":\"14-4811\"},{\"id\":5,\"name\":\"tigerlily\",\"year\":2004,\"color\":\"#E2583E\",\"pantone_value\":\"17-1456\"},{\"id\":6,\"name\":\"blue turquoise\",\"year\":2005,\"color\":\"#53B0AE\",\"pantone_value\":\"15-5217\"}],\"support\":{\"url\":\"https:\/\/reqres.in\/#support-heading\",\"text\":\"To keep ReqRes free, contributions towards server costs are appreciated!\"}}\n\n"},{"result":{"nanos":17500,"millis":0.0175,"status":"passed"},"step":{"line":11,"prefix":"Then","index":2,"text":"status 200"}},{"result":{"nanos":5889800,"millis":5.8898,"status":"passed"},"step":{"line":12,"prefix":"And","index":3,"text":"print  response"},"stepLog":"16:38:02.232 [print] {\n  \"page\": 1,\n  \"per_page\": 6,\n  \"total\": 12,\n  \"total_pages\": 2,\n  \"data\": [\n    {\n      \"id\": 1,\n      \"name\": \"cerulean\",\n      \"year\": 2000,\n      \"color\": \"#98B2D1\",\n      \"pantone_value\": \"15-4020\"\n    },\n    {\n      \"id\": 2,\n      \"name\": \"fuchsia rose\",\n      \"year\": 2001,\n      \"color\": \"#C74375\",\n      \"pantone_value\": \"17-2031\"\n    },\n    {\n      \"id\": 3,\n      \"name\": \"true red\",\n      \"year\": 2002,\n      \"color\": \"#BF1932\",\n      \"pantone_value\": \"19-1664\"\n    },\n    {\n      \"id\": 4,\n      \"name\": \"aqua sky\",\n      \"year\": 2003,\n      \"color\": \"#7BC4C4\",\n      \"pantone_value\": \"14-4811\"\n    },\n    {\n      \"id\": 5,\n      \"name\": \"tigerlily\",\n      \"year\": 2004,\n      \"color\": \"#E2583E\",\n      \"pantone_value\": \"17-1456\"\n    },\n    {\n      \"id\": 6,\n      \"name\": \"blue turquoise\",\n      \"year\": 2005,\n      \"color\": \"#53B0AE\",\n      \"pantone_value\": \"15-5217\"\n    }\n  ],\n  \"support\": {\n    \"url\": \"https:\/\/reqres.in\/#support-heading\",\n    \"text\": \"To keep ReqRes free, contributions towards server costs are appreciated!\"\n  }\n}\n \n"},{"result":{"nanos":24020300,"errorMessage":"net.minidev.json.parser.ParseException: Unexpected End Of File position 757: null\nsrc\/test\/java\/frame\/geet.feature:13","millis":24.0203,"status":"failed"},"step":{"endLine":64,"line":13,"prefix":"And","docString":"{\n      \"page\": 1,\n      \"per_page\": 6,\n      \"total\": 12,\n      \"total_pages\": 2,\n      \"data\": [\n      {\n\"id\": 1,\n\"name\": \"cerulean\",\n\"year\": 2000,\n\"color\": \"#98B2D1\",\n\"pantone_value\": \"15-4020\"\n      },\n      {\n\"id\": 2,\n\"name\": \"fuchsia rose\",\n\"year\": 2001,\n\"color\": \"#C74375\",\n\"pantone_value\": \"17-2031\"\n      },\n      {\n\"id\": 3,\n\"name\": \"true red\",\n\"year\": 2002,\n\"color\": \"#BF1932\",\n\"pantone_value\": \"19-1664\"\n      },\n      {\n\"id\": 4,\n\"name\": \"aqua sky\",\n\"year\": 2003,\n\"color\": \"#7BC4C4\",\n\"pantone_value\": \"14-4811\"\n      },\n      {\n\"id\": 5,\n\"name\": \"tigerlily\",\n\"year\": 2004,\n\"color\": \"#E2583E\",\n\"pantone_value\": \"17-1456\"\n      },\n      {\n\"id\": 6,\n\"name\": \"blue turquoise\",\n\"year\": 2005,\n\"color\": \"#53B0AE\",\n\"pantone_value\": \"15-5217\"\n      }\n      ]","index":4,"text":"match response =="},"stepLog":"16:38:02.262 src\/test\/java\/frame\/geet.feature:13\nAnd match response ==\n\"\"\"\n{\n      \"page\": 1,\n      \"per_page\": 6,\n      \"total\": 12,\n      \"total_pages\": 2,\n      \"data\": [\n      {\n\"id\": 1,\n\"name\": \"cerulean\",\n\"year\": 2000,\n\"color\": \"#98B2D1\",\n\"pantone_value\": \"15-4020\"\n      },\n      {\n\"id\": 2,\n\"name\": \"fuchsia rose\",\n\"year\": 2001,\n\"color\": \"#C74375\",\n\"pantone_value\": \"17-2031\"\n      },\n      {\n\"id\": 3,\n\"name\": \"true red\",\n\"year\": 2002,\n\"color\": \"#BF1932\",\n\"pantone_value\": \"19-1664\"\n      },\n      {\n\"id\": 4,\n\"name\": \"aqua sky\",\n\"year\": 2003,\n\"color\": \"#7BC4C4\",\n\"pantone_value\": \"14-4811\"\n      },\n      {\n\"id\": 5,\n\"name\": \"tigerlily\",\n\"year\": 2004,\n\"color\": \"#E2583E\",\n\"pantone_value\": \"17-1456\"\n      },\n      {\n\"id\": 6,\n\"name\": \"blue turquoise\",\n\"year\": 2005,\n\"color\": \"#53B0AE\",\n\"pantone_value\": \"15-5217\"\n      }\n      ]\n\"\"\"\nnet.minidev.json.parser.ParseException: Unexpected End Of File position 757: null\nsrc\/test\/java\/frame\/geet.feature:13\n"}],"line":7,"description":"","durationMillis":881.0962,"failed":true,"error":"net.minidev.json.parser.ParseException: Unexpected End Of File position 757: null\nsrc\/test\/java\/frame\/geet.feature:13","executorName":"main","name":"Test a sample Get API","startTime":1706267281357,"refId":"[1:7]","endTime":1706267282262,"exampleIndex":-1},{"sectionIndex":1,"stepResults":[{"result":{"nanos":1227600,"millis":1.2276,"status":"passed"},"step":{"background":true,"line":4,"prefix":"Given","index":0,"text":"url  'https:\/\/reqres.in'"}},{"result":{"nanos":1154500,"millis":1.1545,"status":"passed"},"step":{"background":true,"line":5,"prefix":"And","index":1,"text":"print 'lOVE YOU '"},"stepLog":"16:38:02.276 [print] lOVE YOU  \n"},{"result":{"nanos":887400,"millis":0.8874,"status":"passed"},"step":{"line":67,"prefix":"Given","index":0,"text":"path  '\/api\/users'"}},{"result":{"nanos":87528500,"millis":87.5285,"status":"passed"},"step":{"line":68,"prefix":"When","index":1,"text":"method GET"},"stepLog":"16:38:02.280 request:\n1 > GET https:\/\/reqres.in\/api\/users\n1 > Host: reqres.in\n1 > Connection: Keep-Alive\n1 > User-Agent: Apache-HttpClient\/4.5.14 (Java\/17.0.1)\n1 > Accept-Encoding: gzip,deflate\n\n\n16:38:02.364 response time in milliseconds: 83\n1 < 200\n1 < Date: Fri, 26 Jan 2024 11:08:03 GMT\n1 < Content-Type: application\/json; charset=utf-8\n1 < Transfer-Encoding: chunked\n1 < Connection: keep-alive\n1 < Report-To: {\"group\":\"heroku-nel\",\"max_age\":3600,\"endpoints\":[{\"url\":\"https:\/\/nel.heroku.com\/reports?ts=1706253703&sid=c4c9725f-1ab0-44d8-820f-430df2718e11&s=RqrgP6W6I4Q1g917CGQigd3ZiY38e%2FT%2F2f80nBAkY6s%3D\"}]}\n1 < Reporting-Endpoints: heroku-nel=https:\/\/nel.heroku.com\/reports?ts=1706253703&sid=c4c9725f-1ab0-44d8-820f-430df2718e11&s=RqrgP6W6I4Q1g917CGQigd3ZiY38e%2FT%2F2f80nBAkY6s%3D\n1 < Nel: {\"report_to\":\"heroku-nel\",\"max_age\":3600,\"success_fraction\":0.005,\"failure_fraction\":0.05,\"response_headers\":[\"Via\"]}\n1 < X-Powered-By: Express\n1 < Access-Control-Allow-Origin: *\n1 < Etag: W\/\"3e4-2RLXvr5wTg9YQ6aH95CkYoFNuO8\"\n1 < Via: 1.1 vegur\n1 < Cache-Control: max-age=14400\n1 < CF-Cache-Status: HIT\n1 < Age: 3865\n1 < Vary: Accept-Encoding\n1 < Server: cloudflare\n1 < CF-RAY: 84b84bb7de6cb291-MAA\n{\"page\":1,\"per_page\":6,\"total\":12,\"total_pages\":2,\"data\":[{\"id\":1,\"email\":\"george.bluth@reqres.in\",\"first_name\":\"George\",\"last_name\":\"Bluth\",\"avatar\":\"https:\/\/reqres.in\/img\/faces\/1-image.jpg\"},{\"id\":2,\"email\":\"janet.weaver@reqres.in\",\"first_name\":\"Janet\",\"last_name\":\"Weaver\",\"avatar\":\"https:\/\/reqres.in\/img\/faces\/2-image.jpg\"},{\"id\":3,\"email\":\"emma.wong@reqres.in\",\"first_name\":\"Emma\",\"last_name\":\"Wong\",\"avatar\":\"https:\/\/reqres.in\/img\/faces\/3-image.jpg\"},{\"id\":4,\"email\":\"eve.holt@reqres.in\",\"first_name\":\"Eve\",\"last_name\":\"Holt\",\"avatar\":\"https:\/\/reqres.in\/img\/faces\/4-image.jpg\"},{\"id\":5,\"email\":\"charles.morris@reqres.in\",\"first_name\":\"Charles\",\"last_name\":\"Morris\",\"avatar\":\"https:\/\/reqres.in\/img\/faces\/5-image.jpg\"},{\"id\":6,\"email\":\"tracey.ramos@reqres.in\",\"first_name\":\"Tracey\",\"last_name\":\"Ramos\",\"avatar\":\"https:\/\/reqres.in\/img\/faces\/6-image.jpg\"}],\"support\":{\"url\":\"https:\/\/reqres.in\/#support-heading\",\"text\":\"To keep ReqRes free, contributions towards server costs are appreciated!\"}}\n\n"},{"result":{"nanos":8500,"millis":0.0085,"status":"passed"},"step":{"line":69,"prefix":"Then","index":2,"text":"status 200"}},{"result":{"nanos":834200,"millis":0.8342,"status":"passed"},"step":{"line":70,"prefix":"And","index":3,"text":"print  response"},"stepLog":"16:38:02.366 [print] {\n  \"page\": 1,\n  \"per_page\": 6,\n  \"total\": 12,\n  \"total_pages\": 2,\n  \"data\": [\n    {\n      \"id\": 1,\n      \"email\": \"george.bluth@reqres.in\",\n      \"first_name\": \"George\",\n      \"last_name\": \"Bluth\",\n      \"avatar\": \"https:\/\/reqres.in\/img\/faces\/1-image.jpg\"\n    },\n    {\n      \"id\": 2,\n      \"email\": \"janet.weaver@reqres.in\",\n      \"first_name\": \"Janet\",\n      \"last_name\": \"Weaver\",\n      \"avatar\": \"https:\/\/reqres.in\/img\/faces\/2-image.jpg\"\n    },\n    {\n      \"id\": 3,\n      \"email\": \"emma.wong@reqres.in\",\n      \"first_name\": \"Emma\",\n      \"last_name\": \"Wong\",\n      \"avatar\": \"https:\/\/reqres.in\/img\/faces\/3-image.jpg\"\n    },\n    {\n      \"id\": 4,\n      \"email\": \"eve.holt@reqres.in\",\n      \"first_name\": \"Eve\",\n      \"last_name\": \"Holt\",\n      \"avatar\": \"https:\/\/reqres.in\/img\/faces\/4-image.jpg\"\n    },\n    {\n      \"id\": 5,\n      \"email\": \"charles.morris@reqres.in\",\n      \"first_name\": \"Charles\",\n      \"last_name\": \"Morris\",\n      \"avatar\": \"https:\/\/reqres.in\/img\/faces\/5-image.jpg\"\n    },\n    {\n      \"id\": 6,\n      \"email\": \"tracey.ramos@reqres.in\",\n      \"first_name\": \"Tracey\",\n      \"last_name\": \"Ramos\",\n      \"avatar\": \"https:\/\/reqres.in\/img\/faces\/6-image.jpg\"\n    }\n  ],\n  \"support\": {\n    \"url\": \"https:\/\/reqres.in\/#support-heading\",\n    \"text\": \"To keep ReqRes free, contributions towards server costs are appreciated!\"\n  }\n}\n \n"}],"executorName":"main","line":66,"name":"sample get api","description":"","durationMillis":91.6407,"startTime":1706267282273,"failed":false,"refId":"[2:66]","endTime":1706267282366,"exampleIndex":-1}],"callDepth":0,"name":"Sample API Tests","description":"","resultDate":"2024-01-26 04:38:02 pm","durationMillis":972.7369,"passedCount":1}