{"failedCount":0,"prefixedPath":"src\/test\/java\/frame\/get.feature","packageQualifiedName":"src.test.java.frame.get","loopIndex":-1,"relativePath":"src\/test\/java\/frame\/get.feature","scenarioResults":[{"sectionIndex":0,"stepResults":[{"result":{"nanos":74641100,"millis":74.6411,"status":"passed"},"step":{"background":true,"line":4,"prefix":"Given","index":0,"text":"url 'https:\/\/reqres.in\/api\/'"}},{"result":{"nanos":594899,"millis":0.594899,"status":"passed"},"step":{"line":7,"prefix":"Given","index":0,"text":"path 'unknown'"}},{"result":{"nanos":584654400,"millis":584.6544,"status":"passed"},"step":{"line":8,"prefix":"When","index":1,"text":"method GET"},"stepLog":"14:42:17.734 request:\n1 > GET https:\/\/reqres.in\/api\/unknown\n1 > Host: reqres.in\n1 > Connection: Keep-Alive\n1 > User-Agent: Apache-HttpClient\/4.5.14 (Java\/17.0.1)\n1 > Accept-Encoding: gzip,deflate\n\n\n14:42:18.007 response time in milliseconds: 269\n1 < 200\n1 < Date: Wed, 07 Feb 2024 09:12:18 GMT\n1 < Content-Type: application\/json; charset=utf-8\n1 < Transfer-Encoding: chunked\n1 < Connection: keep-alive\n1 < Report-To: {\"group\":\"heroku-nel\",\"max_age\":3600,\"endpoints\":[{\"url\":\"https:\/\/nel.heroku.com\/reports?ts=1707179772&sid=c4c9725f-1ab0-44d8-820f-430df2718e11&s=tuMh79n8RreOkqJm6xID1RAj6oIArDXopWwGJyu3rf0%3D\"}]}\n1 < Reporting-Endpoints: heroku-nel=https:\/\/nel.heroku.com\/reports?ts=1707179772&sid=c4c9725f-1ab0-44d8-820f-430df2718e11&s=tuMh79n8RreOkqJm6xID1RAj6oIArDXopWwGJyu3rf0%3D\n1 < Nel: {\"report_to\":\"heroku-nel\",\"max_age\":3600,\"success_fraction\":0.005,\"failure_fraction\":0.05,\"response_headers\":[\"Via\"]}\n1 < X-Powered-By: Express\n1 < Access-Control-Allow-Origin: *\n1 < Etag: W\/\"2c1-N6Rqerxquq2kgQhL51EiSg4x0R8\"\n1 < Via: 1.1 vegur\n1 < Cache-Control: max-age=14400\n1 < CF-Cache-Status: HIT\n1 < Age: 366\n1 < Vary: Accept-Encoding\n1 < Server: cloudflare\n1 < CF-RAY: 851a82ab0edc7fab-MAA\n{\"page\":1,\"per_page\":6,\"total\":12,\"total_pages\":2,\"data\":[{\"id\":1,\"name\":\"cerulean\",\"year\":2000,\"color\":\"#98B2D1\",\"pantone_value\":\"15-4020\"},{\"id\":2,\"name\":\"fuchsia rose\",\"year\":2001,\"color\":\"#C74375\",\"pantone_value\":\"17-2031\"},{\"id\":3,\"name\":\"true red\",\"year\":2002,\"color\":\"#BF1932\",\"pantone_value\":\"19-1664\"},{\"id\":4,\"name\":\"aqua sky\",\"year\":2003,\"color\":\"#7BC4C4\",\"pantone_value\":\"14-4811\"},{\"id\":5,\"name\":\"tigerlily\",\"year\":2004,\"color\":\"#E2583E\",\"pantone_value\":\"17-1456\"},{\"id\":6,\"name\":\"blue turquoise\",\"year\":2005,\"color\":\"#53B0AE\",\"pantone_value\":\"15-5217\"}],\"support\":{\"url\":\"https:\/\/reqres.in\/#support-heading\",\"text\":\"To keep ReqRes free, contributions towards server costs are appreciated!\"}}\n\n"},{"result":{"nanos":23700,"millis":0.0237,"status":"passed"},"step":{"line":9,"prefix":"Then","index":2,"text":"status 200"}},{"result":{"nanos":69882700,"millis":69.8827,"status":"passed"},"step":{"line":10,"prefix":"And","index":3,"text":"print  response"},"stepLog":"14:42:18.101 [print] {\n  \"page\": 1,\n  \"per_page\": 6,\n  \"total\": 12,\n  \"total_pages\": 2,\n  \"data\": [\n    {\n      \"id\": 1,\n      \"name\": \"cerulean\",\n      \"year\": 2000,\n      \"color\": \"#98B2D1\",\n      \"pantone_value\": \"15-4020\"\n    },\n    {\n      \"id\": 2,\n      \"name\": \"fuchsia rose\",\n      \"year\": 2001,\n      \"color\": \"#C74375\",\n      \"pantone_value\": \"17-2031\"\n    },\n    {\n      \"id\": 3,\n      \"name\": \"true red\",\n      \"year\": 2002,\n      \"color\": \"#BF1932\",\n      \"pantone_value\": \"19-1664\"\n    },\n    {\n      \"id\": 4,\n      \"name\": \"aqua sky\",\n      \"year\": 2003,\n      \"color\": \"#7BC4C4\",\n      \"pantone_value\": \"14-4811\"\n    },\n    {\n      \"id\": 5,\n      \"name\": \"tigerlily\",\n      \"year\": 2004,\n      \"color\": \"#E2583E\",\n      \"pantone_value\": \"17-1456\"\n    },\n    {\n      \"id\": 6,\n      \"name\": \"blue turquoise\",\n      \"year\": 2005,\n      \"color\": \"#53B0AE\",\n      \"pantone_value\": \"15-5217\"\n    }\n  ],\n  \"support\": {\n    \"url\": \"https:\/\/reqres.in\/#support-heading\",\n    \"text\": \"To keep ReqRes free, contributions towards server costs are appreciated!\"\n  }\n}\n \n"}],"executorName":"main","line":6,"name":"Test a sample Get API","description":"","durationMillis":729.796799,"startTime":1707297137354,"failed":false,"refId":"[1:6]","endTime":1707297138103,"exampleIndex":-1},{"sectionIndex":1,"stepResults":[{"result":{"nanos":237399,"millis":0.237399,"status":"passed"},"step":{"background":true,"line":4,"prefix":"Given","index":0,"text":"url 'https:\/\/reqres.in\/api\/'"}},{"result":{"nanos":394700,"millis":0.3947,"status":"passed"},"step":{"line":13,"prefix":"Given","index":0,"text":"path 'users'"}},{"result":{"nanos":3351199,"millis":3.351199,"status":"passed"},"step":{"line":14,"prefix":"Given","index":1,"text":"param  id = 1"}},{"result":{"nanos":96740499,"millis":96.740499,"status":"passed"},"step":{"line":15,"prefix":"When","index":2,"text":"method GET"},"stepLog":"14:42:18.115 request:\n1 > GET https:\/\/reqres.in\/api\/users?id=1\n1 > Host: reqres.in\n1 > Connection: Keep-Alive\n1 > User-Agent: Apache-HttpClient\/4.5.14 (Java\/17.0.1)\n1 > Accept-Encoding: gzip,deflate\n\n\n14:42:18.209 response time in milliseconds: 92\n1 < 200\n1 < Date: Wed, 07 Feb 2024 09:12:18 GMT\n1 < Content-Type: application\/json; charset=utf-8\n1 < Transfer-Encoding: chunked\n1 < Connection: keep-alive\n1 < Report-To: {\"group\":\"heroku-nel\",\"max_age\":3600,\"endpoints\":[{\"url\":\"https:\/\/nel.heroku.com\/reports?ts=1707296107&sid=c4c9725f-1ab0-44d8-820f-430df2718e11&s=SPrG2wC6yG16md%2FjOy9crjWpvgOgspF4%2BKg4T6%2FQxYs%3D\"}]}\n1 < Reporting-Endpoints: heroku-nel=https:\/\/nel.heroku.com\/reports?ts=1707296107&sid=c4c9725f-1ab0-44d8-820f-430df2718e11&s=SPrG2wC6yG16md%2FjOy9crjWpvgOgspF4%2BKg4T6%2FQxYs%3D\n1 < Nel: {\"report_to\":\"heroku-nel\",\"max_age\":3600,\"success_fraction\":0.005,\"failure_fraction\":0.05,\"response_headers\":[\"Via\"]}\n1 < X-Powered-By: Express\n1 < Access-Control-Allow-Origin: *\n1 < Etag: W\/\"118-P3iKcVpIgCj9HqYeOOrGLX8qJVc\"\n1 < Via: 1.1 vegur\n1 < Cache-Control: max-age=14400\n1 < CF-Cache-Status: HIT\n1 < Age: 1031\n1 < Vary: Accept-Encoding\n1 < Server: cloudflare\n1 < CF-RAY: 851a82ac4cb37e98-MAA\n{\"data\":{\"id\":1,\"email\":\"george.bluth@reqres.in\",\"first_name\":\"George\",\"last_name\":\"Bluth\",\"avatar\":\"https:\/\/reqres.in\/img\/faces\/1-image.jpg\"},\"support\":{\"url\":\"https:\/\/reqres.in\/#support-heading\",\"text\":\"To keep ReqRes free, contributions towards server costs are appreciated!\"}}\n\n"},{"result":{"nanos":12900,"millis":0.0129,"status":"passed"},"step":{"line":16,"prefix":"Then","index":3,"text":"status 200"}},{"result":{"nanos":688300,"millis":0.6883,"status":"passed"},"step":{"line":17,"prefix":"And","index":4,"text":"print  response"},"stepLog":"14:42:18.210 [print] {\n  \"data\": {\n    \"id\": 1,\n    \"email\": \"george.bluth@reqres.in\",\n    \"first_name\": \"George\",\n    \"last_name\": \"Bluth\",\n    \"avatar\": \"https:\/\/reqres.in\/img\/faces\/1-image.jpg\"\n  },\n  \"support\": {\n    \"url\": \"https:\/\/reqres.in\/#support-heading\",\n    \"text\": \"To keep ReqRes free, contributions towards server costs are appreciated!\"\n  }\n}\n \n"}],"executorName":"main","line":12,"name":"Test a sample get data","description":"","durationMillis":101.424997,"startTime":1707297138109,"failed":false,"refId":"[2:12]","endTime":1707297138210,"exampleIndex":-1}],"callDepth":0,"name":"To test Get Request","description":"","resultDate":"2024-02-07 02:42:18 pm","durationMillis":831.221796,"passedCount":2}