{"failedCount":1,"prefixedPath":"src\/test\/java\/frame\/get.feature","packageQualifiedName":"src.test.java.frame.get","loopIndex":-1,"relativePath":"src\/test\/java\/frame\/get.feature","scenarioResults":[{"sectionIndex":0,"stepResults":[{"result":{"nanos":112984499,"millis":112.984499,"status":"passed"},"step":{"background":true,"line":4,"prefix":"Given","index":0,"text":"url 'https:\/\/reqres.in\/api\/'"}},{"result":{"nanos":790000,"millis":0.79,"status":"passed"},"step":{"line":7,"prefix":"Given","index":0,"text":"path 'unknown'"}},{"result":{"nanos":707820000,"millis":707.82,"status":"passed"},"step":{"line":8,"prefix":"When","index":1,"text":"method GET"},"stepLog":"19:51:56.525 request:\n1 > GET https:\/\/reqres.in\/api\/unknown\n1 > Host: reqres.in\n1 > Connection: Keep-Alive\n1 > User-Agent: Apache-HttpClient\/4.5.14 (Java\/17.0.1)\n1 > Accept-Encoding: gzip,deflate\n\n\n19:51:56.858 response time in milliseconds: 327\n1 < 200\n1 < Date: Wed, 07 Feb 2024 14:21:57 GMT\n1 < Content-Type: application\/json; charset=utf-8\n1 < Transfer-Encoding: chunked\n1 < Connection: keep-alive\n1 < Report-To: {\"group\":\"heroku-nel\",\"max_age\":3600,\"endpoints\":[{\"url\":\"https:\/\/nel.heroku.com\/reports?ts=1707179772&sid=c4c9725f-1ab0-44d8-820f-430df2718e11&s=tuMh79n8RreOkqJm6xID1RAj6oIArDXopWwGJyu3rf0%3D\"}]}\n1 < Reporting-Endpoints: heroku-nel=https:\/\/nel.heroku.com\/reports?ts=1707179772&sid=c4c9725f-1ab0-44d8-820f-430df2718e11&s=tuMh79n8RreOkqJm6xID1RAj6oIArDXopWwGJyu3rf0%3D\n1 < Nel: {\"report_to\":\"heroku-nel\",\"max_age\":3600,\"success_fraction\":0.005,\"failure_fraction\":0.05,\"response_headers\":[\"Via\"]}\n1 < X-Powered-By: Express\n1 < Access-Control-Allow-Origin: *\n1 < Etag: W\/\"2c1-N6Rqerxquq2kgQhL51EiSg4x0R8\"\n1 < Via: 1.1 vegur\n1 < Cache-Control: max-age=14400\n1 < CF-Cache-Status: HIT\n1 < Age: 4305\n1 < Vary: Accept-Encoding\n1 < Server: cloudflare\n1 < CF-RAY: 851c48431cb37f70-MAA\n{\"page\":1,\"per_page\":6,\"total\":12,\"total_pages\":2,\"data\":[{\"id\":1,\"name\":\"cerulean\",\"year\":2000,\"color\":\"#98B2D1\",\"pantone_value\":\"15-4020\"},{\"id\":2,\"name\":\"fuchsia rose\",\"year\":2001,\"color\":\"#C74375\",\"pantone_value\":\"17-2031\"},{\"id\":3,\"name\":\"true red\",\"year\":2002,\"color\":\"#BF1932\",\"pantone_value\":\"19-1664\"},{\"id\":4,\"name\":\"aqua sky\",\"year\":2003,\"color\":\"#7BC4C4\",\"pantone_value\":\"14-4811\"},{\"id\":5,\"name\":\"tigerlily\",\"year\":2004,\"color\":\"#E2583E\",\"pantone_value\":\"17-1456\"},{\"id\":6,\"name\":\"blue turquoise\",\"year\":2005,\"color\":\"#53B0AE\",\"pantone_value\":\"15-5217\"}],\"support\":{\"url\":\"https:\/\/reqres.in\/#support-heading\",\"text\":\"To keep ReqRes free, contributions towards server costs are appreciated!\"}}\n\n"},{"result":{"nanos":25501,"millis":0.025501,"status":"passed"},"step":{"line":9,"prefix":"Then","index":2,"text":"status 200"}},{"result":{"nanos":111210100,"millis":111.2101,"status":"passed"},"step":{"line":10,"prefix":"And","index":3,"text":"print  response"},"stepLog":"19:51:57.000 [print] {\n  \"page\": 1,\n  \"per_page\": 6,\n  \"total\": 12,\n  \"total_pages\": 2,\n  \"data\": [\n    {\n      \"id\": 1,\n      \"name\": \"cerulean\",\n      \"year\": 2000,\n      \"color\": \"#98B2D1\",\n      \"pantone_value\": \"15-4020\"\n    },\n    {\n      \"id\": 2,\n      \"name\": \"fuchsia rose\",\n      \"year\": 2001,\n      \"color\": \"#C74375\",\n      \"pantone_value\": \"17-2031\"\n    },\n    {\n      \"id\": 3,\n      \"name\": \"true red\",\n      \"year\": 2002,\n      \"color\": \"#BF1932\",\n      \"pantone_value\": \"19-1664\"\n    },\n    {\n      \"id\": 4,\n      \"name\": \"aqua sky\",\n      \"year\": 2003,\n      \"color\": \"#7BC4C4\",\n      \"pantone_value\": \"14-4811\"\n    },\n    {\n      \"id\": 5,\n      \"name\": \"tigerlily\",\n      \"year\": 2004,\n      \"color\": \"#E2583E\",\n      \"pantone_value\": \"17-1456\"\n    },\n    {\n      \"id\": 6,\n      \"name\": \"blue turquoise\",\n      \"year\": 2005,\n      \"color\": \"#53B0AE\",\n      \"pantone_value\": \"15-5217\"\n    }\n  ],\n  \"support\": {\n    \"url\": \"https:\/\/reqres.in\/#support-heading\",\n    \"text\": \"To keep ReqRes free, contributions towards server costs are appreciated!\"\n  }\n}\n \n"},{"result":{"nanos":36284100,"errorMessage":"Path must not end with a '.' or '..'\nsrc\/test\/java\/frame\/get.feature:11","millis":36.2841,"status":"failed"},"step":{"line":11,"prefix":"And","index":4,"text":"match response.unknown[0]. contains"},"stepLog":"19:51:57.043 src\/test\/java\/frame\/get.feature:11\nAnd match response.unknown[0]. contains\nPath must not end with a '.' or '..'\nsrc\/test\/java\/frame\/get.feature:11\n"}],"line":6,"description":"","durationMillis":969.1142,"failed":true,"error":"Path must not end with a '.' or '..'\nsrc\/test\/java\/frame\/get.feature:11","executorName":"main","name":"Test a sample Get API","startTime":1707315716049,"refId":"[1:6]","endTime":1707315717044,"exampleIndex":-1},{"sectionIndex":1,"stepResults":[{"result":{"nanos":816001,"millis":0.816001,"status":"passed"},"step":{"background":true,"line":4,"prefix":"Given","index":0,"text":"url 'https:\/\/reqres.in\/api\/'"}},{"result":{"nanos":569801,"millis":0.569801,"status":"passed"},"step":{"line":14,"prefix":"Given","index":0,"text":"path 'users'"}},{"result":{"nanos":6315100,"millis":6.3151,"status":"passed"},"step":{"line":15,"prefix":"Given","index":1,"text":"param  id = 1"}},{"result":{"nanos":85769800,"millis":85.7698,"status":"passed"},"step":{"line":16,"prefix":"When","index":2,"text":"method GET"},"stepLog":"19:51:57.069 request:\n1 > GET https:\/\/reqres.in\/api\/users?id=1\n1 > Host: reqres.in\n1 > Connection: Keep-Alive\n1 > User-Agent: Apache-HttpClient\/4.5.14 (Java\/17.0.1)\n1 > Accept-Encoding: gzip,deflate\n\n\n19:51:57.151 response time in milliseconds: 81\n1 < 200\n1 < Date: Wed, 07 Feb 2024 14:21:57 GMT\n1 < Content-Type: application\/json; charset=utf-8\n1 < Transfer-Encoding: chunked\n1 < Connection: keep-alive\n1 < Report-To: {\"group\":\"heroku-nel\",\"max_age\":3600,\"endpoints\":[{\"url\":\"https:\/\/nel.heroku.com\/reports?ts=1707296107&sid=c4c9725f-1ab0-44d8-820f-430df2718e11&s=SPrG2wC6yG16md%2FjOy9crjWpvgOgspF4%2BKg4T6%2FQxYs%3D\"}]}\n1 < Reporting-Endpoints: heroku-nel=https:\/\/nel.heroku.com\/reports?ts=1707296107&sid=c4c9725f-1ab0-44d8-820f-430df2718e11&s=SPrG2wC6yG16md%2FjOy9crjWpvgOgspF4%2BKg4T6%2FQxYs%3D\n1 < Nel: {\"report_to\":\"heroku-nel\",\"max_age\":3600,\"success_fraction\":0.005,\"failure_fraction\":0.05,\"response_headers\":[\"Via\"]}\n1 < X-Powered-By: Express\n1 < Access-Control-Allow-Origin: *\n1 < Etag: W\/\"118-P3iKcVpIgCj9HqYeOOrGLX8qJVc\"\n1 < Via: 1.1 vegur\n1 < Cache-Control: max-age=14400\n1 < CF-Cache-Status: HIT\n1 < Age: 4688\n1 < Vary: Accept-Encoding\n1 < Server: cloudflare\n1 < CF-RAY: 851c4844faa00694-MAA\n{\"data\":{\"id\":1,\"email\":\"george.bluth@reqres.in\",\"first_name\":\"George\",\"last_name\":\"Bluth\",\"avatar\":\"https:\/\/reqres.in\/img\/faces\/1-image.jpg\"},\"support\":{\"url\":\"https:\/\/reqres.in\/#support-heading\",\"text\":\"To keep ReqRes free, contributions towards server costs are appreciated!\"}}\n\n"},{"result":{"nanos":12600,"millis":0.0126,"status":"passed"},"step":{"line":17,"prefix":"Then","index":3,"text":"status 200"}},{"result":{"nanos":911500,"millis":0.9115,"status":"passed"},"step":{"line":18,"prefix":"And","index":4,"text":"print  response"},"stepLog":"19:51:57.153 [print] {\n  \"data\": {\n    \"id\": 1,\n    \"email\": \"george.bluth@reqres.in\",\n    \"first_name\": \"George\",\n    \"last_name\": \"Bluth\",\n    \"avatar\": \"https:\/\/reqres.in\/img\/faces\/1-image.jpg\"\n  },\n  \"support\": {\n    \"url\": \"https:\/\/reqres.in\/#support-heading\",\n    \"text\": \"To keep ReqRes free, contributions towards server costs are appreciated!\"\n  }\n}\n \n"}],"executorName":"main","line":13,"name":"Test a sample get data","description":"","durationMillis":94.394802,"startTime":1707315717057,"failed":false,"refId":"[2:13]","endTime":1707315717153,"exampleIndex":-1}],"callDepth":0,"name":"To test Get Request","description":"","resultDate":"2024-02-07 07:51:57 pm","durationMillis":1063.509002,"passedCount":1}