{"failedCount":0,"prefixedPath":"classpath:frame\/get.feature","packageQualifiedName":"frame.get","loopIndex":-1,"relativePath":"frame\/get.feature","scenarioResults":[{"sectionIndex":0,"stepResults":[{"result":{"nanos":86300,"millis":0.0863,"status":"passed"},"step":{"background":true,"line":4,"prefix":"Given","index":0,"text":"url niha"},"stepLog":"00:06:38.430 Given Env:  null \n"},{"result":{"nanos":384000,"millis":0.384,"status":"passed"},"step":{"line":7,"prefix":"Given","index":0,"text":"path 'unknown'"}},{"result":{"nanos":1083000,"millis":1.083,"status":"passed"},"step":{"line":8,"prefix":"Given","index":1,"text":"param id = 2"}},{"result":{"nanos":140170600,"millis":140.1706,"status":"passed"},"step":{"line":9,"prefix":"When","index":2,"text":"method GET"},"stepLog":"00:06:38.434 request:\n1 > GET https:\/\/reqres.in\/api\/unknown?id=2\n1 > Host: reqres.in\n1 > Connection: Keep-Alive\n1 > User-Agent: Apache-HttpClient\/4.5.14 (Java\/17.0.1)\n1 > Accept-Encoding: gzip,deflate\n\n\n00:06:38.572 response time in milliseconds: 135\n1 < 200\n1 < Date: Sun, 11 Feb 2024 18:36:39 GMT\n1 < Content-Type: application\/json; charset=utf-8\n1 < Transfer-Encoding: chunked\n1 < Connection: keep-alive\n1 < Report-To: {\"group\":\"heroku-nel\",\"max_age\":3600,\"endpoints\":[{\"url\":\"https:\/\/nel.heroku.com\/reports?ts=1707315991&sid=c4c9725f-1ab0-44d8-820f-430df2718e11&s=O9x%2FFdnigKNO2%2FiHPuEBJqs7%2FdTuKMSSEJYyNQvdvZs%3D\"}]}\n1 < Reporting-Endpoints: heroku-nel=https:\/\/nel.heroku.com\/reports?ts=1707315991&sid=c4c9725f-1ab0-44d8-820f-430df2718e11&s=O9x%2FFdnigKNO2%2FiHPuEBJqs7%2FdTuKMSSEJYyNQvdvZs%3D\n1 < Nel: {\"report_to\":\"heroku-nel\",\"max_age\":3600,\"success_fraction\":0.005,\"failure_fraction\":0.05,\"response_headers\":[\"Via\"]}\n1 < X-Powered-By: Express\n1 < Access-Control-Allow-Origin: *\n1 < Etag: W\/\"e8-ov4wWh4\/OY1IMQMqWgskYtOFnVs\"\n1 < Via: 1.1 vegur\n1 < Cache-Control: max-age=14400\n1 < CF-Cache-Status: HIT\n1 < Age: 1231\n1 < Vary: Accept-Encoding\n1 < Server: cloudflare\n1 < CF-RAY: 853eb2d849fc8031-MAA\n{\"data\":{\"id\":2,\"name\":\"fuchsia rose\",\"year\":2001,\"color\":\"#C74375\",\"pantone_value\":\"17-2031\"},\"support\":{\"url\":\"https:\/\/reqres.in\/#support-heading\",\"text\":\"To keep ReqRes free, contributions towards server costs are appreciated!\"}}\n\n"},{"result":{"nanos":35600,"millis":0.0356,"status":"passed"},"step":{"line":10,"prefix":"Then","index":3,"text":"status 200"}},{"result":{"nanos":551300,"millis":0.5513,"status":"passed"},"step":{"line":11,"prefix":"And","index":4,"text":"print  response"},"stepLog":"00:06:38.574 [print] {\n  \"data\": {\n    \"id\": 2,\n    \"name\": \"fuchsia rose\",\n    \"year\": 2001,\n    \"color\": \"#C74375\",\n    \"pantone_value\": \"17-2031\"\n  },\n  \"support\": {\n    \"url\": \"https:\/\/reqres.in\/#support-heading\",\n    \"text\": \"To keep ReqRes free, contributions towards server costs are appreciated!\"\n  }\n}\n \n"},{"result":{"nanos":911600,"millis":0.9116,"status":"passed"},"step":{"comments":["# And match response.data[0].name =='cerulean'"],"line":13,"prefix":"And","index":5,"text":"match response.data.color == '#C74375'"}}],"executorName":"main","line":6,"name":"Test a sample Get API","description":"","durationMillis":143.2224,"startTime":1707676598429,"failed":false,"refId":"[1:6]","endTime":1707676598575,"exampleIndex":-1},{"sectionIndex":1,"stepResults":[{"result":{"nanos":100900,"millis":0.1009,"status":"passed"},"step":{"background":true,"line":4,"prefix":"Given","index":0,"text":"url niha"},"stepLog":"00:06:38.581 Given Env:  null \n"},{"result":{"nanos":268100,"millis":0.2681,"status":"passed"},"step":{"line":17,"prefix":"Given","index":0,"text":"path 'users'"}},{"result":{"nanos":196301200,"millis":196.3012,"status":"passed"},"step":{"comments":["#Given param  id = 2"],"line":19,"prefix":"When","index":1,"text":"method GET"},"stepLog":"00:06:38.584 request:\n1 > GET https:\/\/reqres.in\/api\/users\n1 > Host: reqres.in\n1 > Connection: Keep-Alive\n1 > User-Agent: Apache-HttpClient\/4.5.14 (Java\/17.0.1)\n1 > Accept-Encoding: gzip,deflate\n\n\n00:06:38.777 response time in milliseconds: 192\n1 < 200\n1 < Date: Sun, 11 Feb 2024 18:36:39 GMT\n1 < Content-Type: application\/json; charset=utf-8\n1 < Transfer-Encoding: chunked\n1 < Connection: keep-alive\n1 < Report-To: {\"group\":\"heroku-nel\",\"max_age\":3600,\"endpoints\":[{\"url\":\"https:\/\/nel.heroku.com\/reports?ts=1707668013&sid=c4c9725f-1ab0-44d8-820f-430df2718e11&s=Bi%2FkCsjWb1gSJzOfjTVQXmc1vBr5cLL315C63FfihjY%3D\"}]}\n1 < Reporting-Endpoints: heroku-nel=https:\/\/nel.heroku.com\/reports?ts=1707668013&sid=c4c9725f-1ab0-44d8-820f-430df2718e11&s=Bi%2FkCsjWb1gSJzOfjTVQXmc1vBr5cLL315C63FfihjY%3D\n1 < Nel: {\"report_to\":\"heroku-nel\",\"max_age\":3600,\"success_fraction\":0.005,\"failure_fraction\":0.05,\"response_headers\":[\"Via\"]}\n1 < X-Powered-By: Express\n1 < Access-Control-Allow-Origin: *\n1 < Etag: W\/\"3e4-2RLXvr5wTg9YQ6aH95CkYoFNuO8\"\n1 < Via: 1.1 vegur\n1 < Cache-Control: max-age=14400\n1 < CF-Cache-Status: HIT\n1 < Age: 1234\n1 < Vary: Accept-Encoding\n1 < Server: cloudflare\n1 < CF-RAY: 853eb2d9acbd7f60-MAA\n{\"page\":1,\"per_page\":6,\"total\":12,\"total_pages\":2,\"data\":[{\"id\":1,\"email\":\"george.bluth@reqres.in\",\"first_name\":\"George\",\"last_name\":\"Bluth\",\"avatar\":\"https:\/\/reqres.in\/img\/faces\/1-image.jpg\"},{\"id\":2,\"email\":\"janet.weaver@reqres.in\",\"first_name\":\"Janet\",\"last_name\":\"Weaver\",\"avatar\":\"https:\/\/reqres.in\/img\/faces\/2-image.jpg\"},{\"id\":3,\"email\":\"emma.wong@reqres.in\",\"first_name\":\"Emma\",\"last_name\":\"Wong\",\"avatar\":\"https:\/\/reqres.in\/img\/faces\/3-image.jpg\"},{\"id\":4,\"email\":\"eve.holt@reqres.in\",\"first_name\":\"Eve\",\"last_name\":\"Holt\",\"avatar\":\"https:\/\/reqres.in\/img\/faces\/4-image.jpg\"},{\"id\":5,\"email\":\"charles.morris@reqres.in\",\"first_name\":\"Charles\",\"last_name\":\"Morris\",\"avatar\":\"https:\/\/reqres.in\/img\/faces\/5-image.jpg\"},{\"id\":6,\"email\":\"tracey.ramos@reqres.in\",\"first_name\":\"Tracey\",\"last_name\":\"Ramos\",\"avatar\":\"https:\/\/reqres.in\/img\/faces\/6-image.jpg\"}],\"support\":{\"url\":\"https:\/\/reqres.in\/#support-heading\",\"text\":\"To keep ReqRes free, contributions towards server costs are appreciated!\"}}\n\n"},{"result":{"nanos":12400,"millis":0.0124,"status":"passed"},"step":{"line":20,"prefix":"Then","index":2,"text":"status 200"}},{"result":{"nanos":1315300,"millis":1.3153,"status":"passed"},"step":{"line":21,"prefix":"And","index":3,"text":"print  response"},"stepLog":"00:06:38.779 [print] {\n  \"page\": 1,\n  \"per_page\": 6,\n  \"total\": 12,\n  \"total_pages\": 2,\n  \"data\": [\n    {\n      \"id\": 1,\n      \"email\": \"george.bluth@reqres.in\",\n      \"first_name\": \"George\",\n      \"last_name\": \"Bluth\",\n      \"avatar\": \"https:\/\/reqres.in\/img\/faces\/1-image.jpg\"\n    },\n    {\n      \"id\": 2,\n      \"email\": \"janet.weaver@reqres.in\",\n      \"first_name\": \"Janet\",\n      \"last_name\": \"Weaver\",\n      \"avatar\": \"https:\/\/reqres.in\/img\/faces\/2-image.jpg\"\n    },\n    {\n      \"id\": 3,\n      \"email\": \"emma.wong@reqres.in\",\n      \"first_name\": \"Emma\",\n      \"last_name\": \"Wong\",\n      \"avatar\": \"https:\/\/reqres.in\/img\/faces\/3-image.jpg\"\n    },\n    {\n      \"id\": 4,\n      \"email\": \"eve.holt@reqres.in\",\n      \"first_name\": \"Eve\",\n      \"last_name\": \"Holt\",\n      \"avatar\": \"https:\/\/reqres.in\/img\/faces\/4-image.jpg\"\n    },\n    {\n      \"id\": 5,\n      \"email\": \"charles.morris@reqres.in\",\n      \"first_name\": \"Charles\",\n      \"last_name\": \"Morris\",\n      \"avatar\": \"https:\/\/reqres.in\/img\/faces\/5-image.jpg\"\n    },\n    {\n      \"id\": 6,\n      \"email\": \"tracey.ramos@reqres.in\",\n      \"first_name\": \"Tracey\",\n      \"last_name\": \"Ramos\",\n      \"avatar\": \"https:\/\/reqres.in\/img\/faces\/6-image.jpg\"\n    }\n  ],\n  \"support\": {\n    \"url\": \"https:\/\/reqres.in\/#support-heading\",\n    \"text\": \"To keep ReqRes free, contributions towards server costs are appreciated!\"\n  }\n}\n \n"},{"result":{"nanos":706300,"millis":0.7063,"status":"passed"},"step":{"line":22,"prefix":"And","index":4,"text":"match response.data[5].first_name ==\"Tracey\""}},{"result":{"nanos":880300,"millis":0.8803,"status":"passed"},"step":{"line":23,"prefix":"And","index":5,"text":"print name"},"stepLog":"00:06:38.781 [print] love \n"}],"line":16,"description":"","durationMillis":199.5845,"failed":false,"tags":["second"],"executorName":"main","name":"Test a sample get data","startTime":1707676598580,"refId":"[2:16]","endTime":1707676598781,"exampleIndex":-1}],"callDepth":0,"name":"To test Get Request","description":"","resultDate":"2024-02-12 12:06:38 am","durationMillis":342.8069,"passedCount":2}