{"failedCount":1,"prefixedPath":"src\/test\/java\/frame\/Function.feature","packageQualifiedName":"src.test.java.frame.Function","loopIndex":-1,"relativePath":"src\/test\/java\/frame\/Function.feature","scenarioResults":[{"sectionIndex":0,"stepResults":[{"result":{"nanos":858600,"millis":0.8586,"status":"passed"},"step":{"line":4,"prefix":"Given","index":0,"text":"url 'https:\/\/reqres.in\/api\/users?page=2'"},"stepLog":"23:10:30.776 the value is null \n"},{"result":{"nanos":689243700,"millis":689.2437,"status":"passed"},"step":{"line":5,"prefix":"When","index":1,"text":"method GET"},"stepLog":"23:10:31.083 request:\n1 > GET https:\/\/reqres.in\/api\/users?page=2\n1 > Host: reqres.in\n1 > Connection: Keep-Alive\n1 > User-Agent: Apache-HttpClient\/4.5.14 (Java\/17.0.1)\n1 > Accept-Encoding: gzip,deflate\n\n\n23:10:31.480 response time in milliseconds: 393\n1 < 200\n1 < Date: Wed, 14 Feb 2024 17:40:33 GMT\n1 < Content-Type: application\/json; charset=utf-8\n1 < Transfer-Encoding: chunked\n1 < Connection: keep-alive\n1 < Report-To: {\"group\":\"heroku-nel\",\"max_age\":3600,\"endpoints\":[{\"url\":\"https:\/\/nel.heroku.com\/reports?ts=1707846056&sid=c4c9725f-1ab0-44d8-820f-430df2718e11&s=5ZKDJciF4D%2Fw3VUeT1QTzE6FOYkXxBC8R5cjOsClbN8%3D\"}]}\n1 < Reporting-Endpoints: heroku-nel=https:\/\/nel.heroku.com\/reports?ts=1707846056&sid=c4c9725f-1ab0-44d8-820f-430df2718e11&s=5ZKDJciF4D%2Fw3VUeT1QTzE6FOYkXxBC8R5cjOsClbN8%3D\n1 < Nel: {\"report_to\":\"heroku-nel\",\"max_age\":3600,\"success_fraction\":0.005,\"failure_fraction\":0.05,\"response_headers\":[\"Via\"]}\n1 < X-Powered-By: Express\n1 < Access-Control-Allow-Origin: *\n1 < Etag: W\/\"406-ut0vzoCuidvyMf8arZpMpJ6ZRDw\"\n1 < Via: 1.1 vegur\n1 < Cache-Control: max-age=14400\n1 < CF-Cache-Status: HIT\n1 < Age: 7030\n1 < Vary: Accept-Encoding\n1 < Server: cloudflare\n1 < CF-RAY: 855718cbbc587fdf-MAA\n{\"page\":2,\"per_page\":6,\"total\":12,\"total_pages\":2,\"data\":[{\"id\":7,\"email\":\"michael.lawson@reqres.in\",\"first_name\":\"Michael\",\"last_name\":\"Lawson\",\"avatar\":\"https:\/\/reqres.in\/img\/faces\/7-image.jpg\"},{\"id\":8,\"email\":\"lindsay.ferguson@reqres.in\",\"first_name\":\"Lindsay\",\"last_name\":\"Ferguson\",\"avatar\":\"https:\/\/reqres.in\/img\/faces\/8-image.jpg\"},{\"id\":9,\"email\":\"tobias.funke@reqres.in\",\"first_name\":\"Tobias\",\"last_name\":\"Funke\",\"avatar\":\"https:\/\/reqres.in\/img\/faces\/9-image.jpg\"},{\"id\":10,\"email\":\"byron.fields@reqres.in\",\"first_name\":\"Byron\",\"last_name\":\"Fields\",\"avatar\":\"https:\/\/reqres.in\/img\/faces\/10-image.jpg\"},{\"id\":11,\"email\":\"george.edwards@reqres.in\",\"first_name\":\"George\",\"last_name\":\"Edwards\",\"avatar\":\"https:\/\/reqres.in\/img\/faces\/11-image.jpg\"},{\"id\":12,\"email\":\"rachel.howell@reqres.in\",\"first_name\":\"Rachel\",\"last_name\":\"Howell\",\"avatar\":\"https:\/\/reqres.in\/img\/faces\/12-image.jpg\"}],\"support\":{\"url\":\"https:\/\/reqres.in\/#support-heading\",\"text\":\"To keep ReqRes free, contributions towards server costs are appreciated!\"}}\n\n"},{"result":{"nanos":22700,"millis":0.0227,"status":"passed"},"step":{"line":6,"prefix":"Then","index":2,"text":"status 200"}},{"result":{"nanos":7347800,"millis":7.3478,"status":"passed"},"step":{"line":7,"prefix":"And","index":3,"text":"print response"},"stepLog":"23:10:31.506 [print] {\n  \"page\": 2,\n  \"per_page\": 6,\n  \"total\": 12,\n  \"total_pages\": 2,\n  \"data\": [\n    {\n      \"id\": 7,\n      \"email\": \"michael.lawson@reqres.in\",\n      \"first_name\": \"Michael\",\n      \"last_name\": \"Lawson\",\n      \"avatar\": \"https:\/\/reqres.in\/img\/faces\/7-image.jpg\"\n    },\n    {\n      \"id\": 8,\n      \"email\": \"lindsay.ferguson@reqres.in\",\n      \"first_name\": \"Lindsay\",\n      \"last_name\": \"Ferguson\",\n      \"avatar\": \"https:\/\/reqres.in\/img\/faces\/8-image.jpg\"\n    },\n    {\n      \"id\": 9,\n      \"email\": \"tobias.funke@reqres.in\",\n      \"first_name\": \"Tobias\",\n      \"last_name\": \"Funke\",\n      \"avatar\": \"https:\/\/reqres.in\/img\/faces\/9-image.jpg\"\n    },\n    {\n      \"id\": 10,\n      \"email\": \"byron.fields@reqres.in\",\n      \"first_name\": \"Byron\",\n      \"last_name\": \"Fields\",\n      \"avatar\": \"https:\/\/reqres.in\/img\/faces\/10-image.jpg\"\n    },\n    {\n      \"id\": 11,\n      \"email\": \"george.edwards@reqres.in\",\n      \"first_name\": \"George\",\n      \"last_name\": \"Edwards\",\n      \"avatar\": \"https:\/\/reqres.in\/img\/faces\/11-image.jpg\"\n    },\n    {\n      \"id\": 12,\n      \"email\": \"rachel.howell@reqres.in\",\n      \"first_name\": \"Rachel\",\n      \"last_name\": \"Howell\",\n      \"avatar\": \"https:\/\/reqres.in\/img\/faces\/12-image.jpg\"\n    }\n  ],\n  \"support\": {\n    \"url\": \"https:\/\/reqres.in\/#support-heading\",\n    \"text\": \"To keep ReqRes free, contributions towards server costs are appreciated!\"\n  }\n}\n \n"},{"result":{"nanos":1647900,"millis":1.6479,"status":"passed"},"step":{"line":8,"prefix":"*","index":4,"text":"def data = response.data"}},{"result":{"nanos":1390100,"millis":1.3901,"status":"passed"},"step":{"line":9,"prefix":"And","index":5,"text":"print 'data----',data"},"stepLog":"23:10:31.510 [print] data---- [\n  {\n    \"id\": 7,\n    \"email\": \"michael.lawson@reqres.in\",\n    \"first_name\": \"Michael\",\n    \"last_name\": \"Lawson\",\n    \"avatar\": \"https:\/\/reqres.in\/img\/faces\/7-image.jpg\"\n  },\n  {\n    \"id\": 8,\n    \"email\": \"lindsay.ferguson@reqres.in\",\n    \"first_name\": \"Lindsay\",\n    \"last_name\": \"Ferguson\",\n    \"avatar\": \"https:\/\/reqres.in\/img\/faces\/8-image.jpg\"\n  },\n  {\n    \"id\": 9,\n    \"email\": \"tobias.funke@reqres.in\",\n    \"first_name\": \"Tobias\",\n    \"last_name\": \"Funke\",\n    \"avatar\": \"https:\/\/reqres.in\/img\/faces\/9-image.jpg\"\n  },\n  {\n    \"id\": 10,\n    \"email\": \"byron.fields@reqres.in\",\n    \"first_name\": \"Byron\",\n    \"last_name\": \"Fields\",\n    \"avatar\": \"https:\/\/reqres.in\/img\/faces\/10-image.jpg\"\n  },\n  {\n    \"id\": 11,\n    \"email\": \"george.edwards@reqres.in\",\n    \"first_name\": \"George\",\n    \"last_name\": \"Edwards\",\n    \"avatar\": \"https:\/\/reqres.in\/img\/faces\/11-image.jpg\"\n  },\n  {\n    \"id\": 12,\n    \"email\": \"rachel.howell@reqres.in\",\n    \"first_name\": \"Rachel\",\n    \"last_name\": \"Howell\",\n    \"avatar\": \"https:\/\/reqres.in\/img\/faces\/12-image.jpg\"\n  }\n]\n \n"},{"result":{"nanos":121886000,"errorMessage":"js failed:\n>>>>\n01: (function (args){\n02:       \n03: for(i=0;i<=args.length;i++){\n04: if(i<==9){\n05: return args[i]\n06: }\n07: }\n08: })\n<<<<\norg.graalvm.polyglot.PolyglotException: SyntaxError: Unnamed:4:6 Expected an operand but found =\r\nif(i<==9){\r\n      ^\nUnnamed:7:0 Expected ) but found }\r\n}\r\n^\nUnnamed:8:0 Expected eof but found }\r\n})\r\n^\n\n- org.graalvm.polyglot.Context.eval(Context.java:425)\n- com.intuit.karate.graal.JsEngine.evalForValue(JsEngine.java:139)\n- com.intuit.karate.graal.JsEngine.eval(JsEngine.java:135)\n- com.intuit.karate.core.ScenarioEngine.evalJs(ScenarioEngine.java:1196)\n- com.intuit.karate.core.ScenarioEngine.evalKarateExpression(ScenarioEngine.java:2149)\n- com.intuit.karate.core.ScenarioEngine.evalKarateExpression(ScenarioEngine.java:2068)\n- com.intuit.karate.core.ScenarioEngine.evalAndCastTo(ScenarioEngine.java:1257)\n\nsrc\/test\/java\/frame\/Function.feature:10","millis":121.886,"status":"failed"},"step":{"endLine":20,"line":10,"prefix":"*","docString":"function (args){\n      \nfor(i=0;i<=args.length;i++){\nif(i<==9){\nreturn args[i]\n}\n}\n}","index":6,"text":"def tests ="},"stepLog":"23:10:31.640 src\/test\/java\/frame\/Function.feature:10\n* def tests =\n\"\"\"\nfunction (args){\n      \nfor(i=0;i<=args.length;i++){\nif(i<==9){\nreturn args[i]\n}\n}\n}\n\"\"\"\njs failed:\n>>>>\n01: (function (args){\n02:       \n03: for(i=0;i<=args.length;i++){\n04: if(i<==9){\n05: return args[i]\n06: }\n07: }\n08: })\n<<<<\norg.graalvm.polyglot.PolyglotException: SyntaxError: Unnamed:4:6 Expected an operand but found =\r\nif(i<==9){\r\n      ^\nUnnamed:7:0 Expected ) but found }\r\n}\r\n^\nUnnamed:8:0 Expected eof but found }\r\n})\r\n^\n\n- org.graalvm.polyglot.Context.eval(Context.java:425)\n- com.intuit.karate.graal.JsEngine.evalForValue(JsEngine.java:139)\n- com.intuit.karate.graal.JsEngine.eval(JsEngine.java:135)\n- com.intuit.karate.core.ScenarioEngine.evalJs(ScenarioEngine.java:1196)\n- com.intuit.karate.core.ScenarioEngine.evalKarateExpression(ScenarioEngine.java:2149)\n- com.intuit.karate.core.ScenarioEngine.evalKarateExpression(ScenarioEngine.java:2068)\n- com.intuit.karate.core.ScenarioEngine.evalAndCastTo(ScenarioEngine.java:1257)\n\nsrc\/test\/java\/frame\/Function.feature:10\n"},{"result":{"nanos":0,"millis":0.0,"status":"skipped"},"step":{"line":21,"prefix":"*","index":7,"text":"def username  = call tests data"}},{"result":{"nanos":0,"millis":0.0,"status":"skipped"},"step":{"line":22,"prefix":"And","index":8,"text":"print 'username------',username"}}],"line":3,"description":"","durationMillis":822.3968,"failed":true,"error":"js failed:\n>>>>\n01: (function (args){\n02:       \n03: for(i=0;i<=args.length;i++){\n04: if(i<==9){\n05: return args[i]\n06: }\n07: }\n08: })\n<<<<\norg.graalvm.polyglot.PolyglotException: SyntaxError: Unnamed:4:6 Expected an operand but found =\r\nif(i<==9){\r\n      ^\nUnnamed:7:0 Expected ) but found }\r\n}\r\n^\nUnnamed:8:0 Expected eof but found }\r\n})\r\n^\n\n- org.graalvm.polyglot.Context.eval(Context.java:425)\n- com.intuit.karate.graal.JsEngine.evalForValue(JsEngine.java:139)\n- com.intuit.karate.graal.JsEngine.eval(JsEngine.java:135)\n- com.intuit.karate.core.ScenarioEngine.evalJs(ScenarioEngine.java:1196)\n- com.intuit.karate.core.ScenarioEngine.evalKarateExpression(ScenarioEngine.java:2149)\n- com.intuit.karate.core.ScenarioEngine.evalKarateExpression(ScenarioEngine.java:2068)\n- com.intuit.karate.core.ScenarioEngine.evalAndCastTo(ScenarioEngine.java:1257)\n\nsrc\/test\/java\/frame\/Function.feature:10","executorName":"main","name":"Teste the users","startTime":1707932430634,"refId":"[1:3]","endTime":1707932431640,"exampleIndex":-1}],"callDepth":0,"name":"Test the javascrpit functions","description":"","resultDate":"2024-02-14 11:10:31 pm","durationMillis":822.3968,"passedCount":0}