{"failedCount":1,"prefixedPath":"src\/test\/java\/frame\/geet.feature","packageQualifiedName":"src.test.java.frame.geet","loopIndex":-1,"relativePath":"src\/test\/java\/frame\/geet.feature","scenarioResults":[{"sectionIndex":0,"stepResults":[{"result":{"nanos":74540500,"millis":74.5405,"status":"passed"},"step":{"background":true,"line":4,"prefix":"Given","index":0,"text":"url  'https:\/\/reqres.in'"}},{"result":{"nanos":821100,"millis":0.8211,"status":"passed"},"step":{"background":true,"line":5,"prefix":"And","index":1,"text":"header Accpet = 'application\/json'"}},{"result":{"nanos":422200,"millis":0.4222,"status":"passed"},"step":{"comments":["# Given url  'https:\/\/reqres.in'"],"line":9,"prefix":"Given","index":0,"text":"path '\/api\/unknown'"}},{"result":{"nanos":928303900,"millis":928.3039,"status":"passed"},"step":{"line":10,"prefix":"When","index":1,"text":"method GET"},"stepLog":"23:56:21.387 request:\n1 > GET https:\/\/reqres.in\/api\/unknown\n1 > Accpet: application\/json\n1 > Host: reqres.in\n1 > Connection: Keep-Alive\n1 > User-Agent: Apache-HttpClient\/4.5.14 (Java\/17.0.1)\n1 > Accept-Encoding: gzip,deflate\n\n\n23:56:21.979 response time in milliseconds: 587\n1 < 200\n1 < Date: Fri, 26 Jan 2024 18:26:21 GMT\n1 < Content-Type: application\/json; charset=utf-8\n1 < Transfer-Encoding: chunked\n1 < Connection: keep-alive\n1 < Report-To: {\"group\":\"heroku-nel\",\"max_age\":3600,\"endpoints\":[{\"url\":\"https:\/\/nel.heroku.com\/reports?ts=1706224332&sid=c4c9725f-1ab0-44d8-820f-430df2718e11&s=F9GEf0ZubqKzgoLaYeVO%2Bv%2B%2BMZZ1Tzwof61ZcNUeoAc%3D\"}]}\n1 < Reporting-Endpoints: heroku-nel=https:\/\/nel.heroku.com\/reports?ts=1706224332&sid=c4c9725f-1ab0-44d8-820f-430df2718e11&s=F9GEf0ZubqKzgoLaYeVO%2Bv%2B%2BMZZ1Tzwof61ZcNUeoAc%3D\n1 < Nel: {\"report_to\":\"heroku-nel\",\"max_age\":3600,\"success_fraction\":0.005,\"failure_fraction\":0.05,\"response_headers\":[\"Via\"]}\n1 < X-Powered-By: Express\n1 < Access-Control-Allow-Origin: *\n1 < Etag: W\/\"2c1-N6Rqerxquq2kgQhL51EiSg4x0R8\"\n1 < Via: 1.1 vegur\n1 < Cache-Control: max-age=14400\n1 < CF-Cache-Status: HIT\n1 < Age: 1689\n1 < Vary: Accept-Encoding\n1 < Server: cloudflare\n1 < CF-RAY: 84bacdc76d00a90e-MAA\n{\"page\":1,\"per_page\":6,\"total\":12,\"total_pages\":2,\"data\":[{\"id\":1,\"name\":\"cerulean\",\"year\":2000,\"color\":\"#98B2D1\",\"pantone_value\":\"15-4020\"},{\"id\":2,\"name\":\"fuchsia rose\",\"year\":2001,\"color\":\"#C74375\",\"pantone_value\":\"17-2031\"},{\"id\":3,\"name\":\"true red\",\"year\":2002,\"color\":\"#BF1932\",\"pantone_value\":\"19-1664\"},{\"id\":4,\"name\":\"aqua sky\",\"year\":2003,\"color\":\"#7BC4C4\",\"pantone_value\":\"14-4811\"},{\"id\":5,\"name\":\"tigerlily\",\"year\":2004,\"color\":\"#E2583E\",\"pantone_value\":\"17-1456\"},{\"id\":6,\"name\":\"blue turquoise\",\"year\":2005,\"color\":\"#53B0AE\",\"pantone_value\":\"15-5217\"}],\"support\":{\"url\":\"https:\/\/reqres.in\/#support-heading\",\"text\":\"To keep ReqRes free, contributions towards server costs are appreciated!\"}}\n\n"},{"result":{"nanos":31700,"millis":0.0317,"status":"passed"},"step":{"line":11,"prefix":"Then","index":2,"text":"status 200"}},{"result":{"nanos":86447100,"millis":86.4471,"status":"passed"},"step":{"line":12,"prefix":"And","index":3,"text":"print  response"},"stepLog":"23:56:22.092 [print] {\n  \"page\": 1,\n  \"per_page\": 6,\n  \"total\": 12,\n  \"total_pages\": 2,\n  \"data\": [\n    {\n      \"id\": 1,\n      \"name\": \"cerulean\",\n      \"year\": 2000,\n      \"color\": \"#98B2D1\",\n      \"pantone_value\": \"15-4020\"\n    },\n    {\n      \"id\": 2,\n      \"name\": \"fuchsia rose\",\n      \"year\": 2001,\n      \"color\": \"#C74375\",\n      \"pantone_value\": \"17-2031\"\n    },\n    {\n      \"id\": 3,\n      \"name\": \"true red\",\n      \"year\": 2002,\n      \"color\": \"#BF1932\",\n      \"pantone_value\": \"19-1664\"\n    },\n    {\n      \"id\": 4,\n      \"name\": \"aqua sky\",\n      \"year\": 2003,\n      \"color\": \"#7BC4C4\",\n      \"pantone_value\": \"14-4811\"\n    },\n    {\n      \"id\": 5,\n      \"name\": \"tigerlily\",\n      \"year\": 2004,\n      \"color\": \"#E2583E\",\n      \"pantone_value\": \"17-1456\"\n    },\n    {\n      \"id\": 6,\n      \"name\": \"blue turquoise\",\n      \"year\": 2005,\n      \"color\": \"#53B0AE\",\n      \"pantone_value\": \"15-5217\"\n    }\n  ],\n  \"support\": {\n    \"url\": \"https:\/\/reqres.in\/#support-heading\",\n    \"text\": \"To keep ReqRes free, contributions towards server costs are appreciated!\"\n  }\n}\n \n"}],"executorName":"main","line":7,"name":"Test a sample Get API","description":"","durationMillis":1090.5665,"startTime":1706293580987,"failed":false,"refId":"[1:7]","endTime":1706293582096,"exampleIndex":-1},{"sectionIndex":1,"stepResults":[{"result":{"nanos":1097900,"millis":1.0979,"status":"passed"},"step":{"background":true,"line":4,"prefix":"Given","index":0,"text":"url  'https:\/\/reqres.in'"}},{"result":{"nanos":1149200,"millis":1.1492,"status":"passed"},"step":{"background":true,"line":5,"prefix":"And","index":1,"text":"header Accpet = 'application\/json'"}},{"result":{"nanos":732300,"millis":0.7323,"status":"passed"},"step":{"line":15,"prefix":"Given","index":0,"text":"url  'https:\/\/reqres.in\/api\/users\/2'"}},{"result":{"nanos":301700,"millis":0.3017,"status":"passed"},"step":{"line":16,"prefix":"And","index":1,"text":"header Accpet = 'application\/json'"}},{"result":{"nanos":259243100,"millis":259.2431,"status":"passed"},"step":{"line":17,"prefix":"When","index":2,"text":"method GET"},"stepLog":"23:56:22.109 request:\n1 > GET https:\/\/reqres.in\/api\/users\/2\n1 > Accpet: application\/json\n1 > Host: reqres.in\n1 > Connection: Keep-Alive\n1 > User-Agent: Apache-HttpClient\/4.5.14 (Java\/17.0.1)\n1 > Accept-Encoding: gzip,deflate\n\n\n23:56:22.366 response time in milliseconds: 255\n1 < 200\n1 < Date: Fri, 26 Jan 2024 18:26:22 GMT\n1 < Content-Type: application\/json; charset=utf-8\n1 < Transfer-Encoding: chunked\n1 < Connection: keep-alive\n1 < Report-To: {\"group\":\"heroku-nel\",\"max_age\":3600,\"endpoints\":[{\"url\":\"https:\/\/nel.heroku.com\/reports?ts=1706280596&sid=c4c9725f-1ab0-44d8-820f-430df2718e11&s=bwxCPkq1eKzemnSQQvW2jq1lABP8Nwx4pNzXge2y8s0%3D\"}]}\n1 < Reporting-Endpoints: heroku-nel=https:\/\/nel.heroku.com\/reports?ts=1706280596&sid=c4c9725f-1ab0-44d8-820f-430df2718e11&s=bwxCPkq1eKzemnSQQvW2jq1lABP8Nwx4pNzXge2y8s0%3D\n1 < Nel: {\"report_to\":\"heroku-nel\",\"max_age\":3600,\"success_fraction\":0.005,\"failure_fraction\":0.05,\"response_headers\":[\"Via\"]}\n1 < X-Powered-By: Express\n1 < Access-Control-Allow-Origin: *\n1 < Etag: W\/\"118-pbdwwFo9SKNhD3Lx5iHJyngpq00\"\n1 < Via: 1.1 vegur\n1 < Cache-Control: max-age=14400\n1 < CF-Cache-Status: HIT\n1 < Age: 5666\n1 < Vary: Accept-Encoding\n1 < Server: cloudflare\n1 < CF-RAY: 84bacdc97e9f7e78-MAA\n{\"data\":{\"id\":2,\"email\":\"janet.weaver@reqres.in\",\"first_name\":\"Janet\",\"last_name\":\"Weaver\",\"avatar\":\"https:\/\/reqres.in\/img\/faces\/2-image.jpg\"},\"support\":{\"url\":\"https:\/\/reqres.in\/#support-heading\",\"text\":\"To keep ReqRes free, contributions towards server costs are appreciated!\"}}\n\n"},{"result":{"nanos":13700,"millis":0.0137,"status":"passed"},"step":{"line":18,"prefix":"Then","index":3,"text":"status 200"}},{"result":{"nanos":1081700,"millis":1.0817,"status":"passed"},"step":{"line":19,"prefix":"And","index":4,"text":"print  response"},"stepLog":"23:56:22.368 [print] {\n  \"data\": {\n    \"id\": 2,\n    \"email\": \"janet.weaver@reqres.in\",\n    \"first_name\": \"Janet\",\n    \"last_name\": \"Weaver\",\n    \"avatar\": \"https:\/\/reqres.in\/img\/faces\/2-image.jpg\"\n  },\n  \"support\": {\n    \"url\": \"https:\/\/reqres.in\/#support-heading\",\n    \"text\": \"To keep ReqRes free, contributions towards server costs are appreciated!\"\n  }\n}\n \n"},{"result":{"nanos":37009500,"errorMessage":"match failed: EQUALS\n\nsrc\/test\/java\/frame\/geet.feature:20","millis":37.0095,"status":"failed"},"step":{"line":20,"prefix":"And","index":5,"text":"match response.id ==  '#number'"},"stepLog":"23:56:22.409 src\/test\/java\/frame\/geet.feature:20\nAnd match response.id ==  '#number'\nmatch failed: EQUALS\n\nsrc\/test\/java\/frame\/geet.feature:20\n"}],"line":14,"description":"","durationMillis":300.6291,"failed":true,"error":"match failed: EQUALS\n\nsrc\/test\/java\/frame\/geet.feature:20","executorName":"main","name":"sample get api","startTime":1706293582104,"refId":"[2:14]","endTime":1706293582409,"exampleIndex":-1}],"callDepth":0,"name":"Sample API Tests","description":"","resultDate":"2024-01-26 11:56:22 pm","durationMillis":1391.1956,"passedCount":1}