{"failedCount":1,"prefixedPath":"src\/test\/java\/frame\/geet.feature","packageQualifiedName":"src.test.java.frame.geet","loopIndex":-1,"relativePath":"src\/test\/java\/frame\/geet.feature","scenarioResults":[{"sectionIndex":0,"stepResults":[{"result":{"nanos":80404100,"millis":80.4041,"status":"passed"},"step":{"background":true,"line":4,"prefix":"Given","index":0,"text":"url  'https:\/\/reqres.in'"}},{"result":{"nanos":646700,"millis":0.6467,"status":"passed"},"step":{"background":true,"line":5,"prefix":"And","index":1,"text":"header Accpet = 'application\/json'"}},{"result":{"nanos":306800,"millis":0.3068,"status":"passed"},"step":{"comments":["# Given url  'https:\/\/reqres.in'"],"line":8,"prefix":"Given","index":0,"text":"path '\/api\/unknown'"}},{"result":{"nanos":593083200,"millis":593.0832,"status":"passed"},"step":{"line":9,"prefix":"When","index":1,"text":"method GET"},"stepLog":"23:44:51.504 request:\n1 > GET https:\/\/reqres.in\/api\/unknown\n1 > Accpet: application\/json\n1 > Host: reqres.in\n1 > Connection: Keep-Alive\n1 > User-Agent: Apache-HttpClient\/4.5.14 (Java\/17.0.1)\n1 > Accept-Encoding: gzip,deflate\n\n\n23:44:51.828 response time in milliseconds: 319\n1 < 200\n1 < Date: Fri, 26 Jan 2024 18:14:51 GMT\n1 < Content-Type: application\/json; charset=utf-8\n1 < Transfer-Encoding: chunked\n1 < Connection: keep-alive\n1 < Report-To: {\"group\":\"heroku-nel\",\"max_age\":3600,\"endpoints\":[{\"url\":\"https:\/\/nel.heroku.com\/reports?ts=1706224332&sid=c4c9725f-1ab0-44d8-820f-430df2718e11&s=F9GEf0ZubqKzgoLaYeVO%2Bv%2B%2BMZZ1Tzwof61ZcNUeoAc%3D\"}]}\n1 < Reporting-Endpoints: heroku-nel=https:\/\/nel.heroku.com\/reports?ts=1706224332&sid=c4c9725f-1ab0-44d8-820f-430df2718e11&s=F9GEf0ZubqKzgoLaYeVO%2Bv%2B%2BMZZ1Tzwof61ZcNUeoAc%3D\n1 < Nel: {\"report_to\":\"heroku-nel\",\"max_age\":3600,\"success_fraction\":0.005,\"failure_fraction\":0.05,\"response_headers\":[\"Via\"]}\n1 < X-Powered-By: Express\n1 < Access-Control-Allow-Origin: *\n1 < Etag: W\/\"2c1-N6Rqerxquq2kgQhL51EiSg4x0R8\"\n1 < Via: 1.1 vegur\n1 < Cache-Control: max-age=14400\n1 < CF-Cache-Status: HIT\n1 < Age: 999\n1 < Vary: Accept-Encoding\n1 < Server: cloudflare\n1 < CF-RAY: 84babcee093f3977-MAA\n{\"page\":1,\"per_page\":6,\"total\":12,\"total_pages\":2,\"data\":[{\"id\":1,\"name\":\"cerulean\",\"year\":2000,\"color\":\"#98B2D1\",\"pantone_value\":\"15-4020\"},{\"id\":2,\"name\":\"fuchsia rose\",\"year\":2001,\"color\":\"#C74375\",\"pantone_value\":\"17-2031\"},{\"id\":3,\"name\":\"true red\",\"year\":2002,\"color\":\"#BF1932\",\"pantone_value\":\"19-1664\"},{\"id\":4,\"name\":\"aqua sky\",\"year\":2003,\"color\":\"#7BC4C4\",\"pantone_value\":\"14-4811\"},{\"id\":5,\"name\":\"tigerlily\",\"year\":2004,\"color\":\"#E2583E\",\"pantone_value\":\"17-1456\"},{\"id\":6,\"name\":\"blue turquoise\",\"year\":2005,\"color\":\"#53B0AE\",\"pantone_value\":\"15-5217\"}],\"support\":{\"url\":\"https:\/\/reqres.in\/#support-heading\",\"text\":\"To keep ReqRes free, contributions towards server costs are appreciated!\"}}\n\n"},{"result":{"nanos":19700,"millis":0.0197,"status":"passed"},"step":{"line":10,"prefix":"Then","index":2,"text":"status 200"}},{"result":{"nanos":66615800,"millis":66.6158,"status":"passed"},"step":{"line":11,"prefix":"And","index":3,"text":"print  response"},"stepLog":"23:44:51.922 [print] {\n  \"page\": 1,\n  \"per_page\": 6,\n  \"total\": 12,\n  \"total_pages\": 2,\n  \"data\": [\n    {\n      \"id\": 1,\n      \"name\": \"cerulean\",\n      \"year\": 2000,\n      \"color\": \"#98B2D1\",\n      \"pantone_value\": \"15-4020\"\n    },\n    {\n      \"id\": 2,\n      \"name\": \"fuchsia rose\",\n      \"year\": 2001,\n      \"color\": \"#C74375\",\n      \"pantone_value\": \"17-2031\"\n    },\n    {\n      \"id\": 3,\n      \"name\": \"true red\",\n      \"year\": 2002,\n      \"color\": \"#BF1932\",\n      \"pantone_value\": \"19-1664\"\n    },\n    {\n      \"id\": 4,\n      \"name\": \"aqua sky\",\n      \"year\": 2003,\n      \"color\": \"#7BC4C4\",\n      \"pantone_value\": \"14-4811\"\n    },\n    {\n      \"id\": 5,\n      \"name\": \"tigerlily\",\n      \"year\": 2004,\n      \"color\": \"#E2583E\",\n      \"pantone_value\": \"17-1456\"\n    },\n    {\n      \"id\": 6,\n      \"name\": \"blue turquoise\",\n      \"year\": 2005,\n      \"color\": \"#53B0AE\",\n      \"pantone_value\": \"15-5217\"\n    }\n  ],\n  \"support\": {\n    \"url\": \"https:\/\/reqres.in\/#support-heading\",\n    \"text\": \"To keep ReqRes free, contributions towards server costs are appreciated!\"\n  }\n}\n \n"},{"result":{"nanos":0,"errorMessage":"no step-definition method match found for: Match respose.[0].page= \"1\"\nsrc\/test\/java\/frame\/geet.feature:12","millis":0.0,"status":"failed"},"step":{"line":12,"prefix":"And","index":4,"text":"Match respose.[0].page= \"1\""},"stepLog":"23:44:51.929 src\/test\/java\/frame\/geet.feature:12\nAnd Match respose.[0].page= \"1\"\nno step-definition method match found for: Match respose.[0].page= \"1\"\nsrc\/test\/java\/frame\/geet.feature:12\n"}],"line":6,"description":"","durationMillis":741.0763,"failed":true,"error":"no step-definition method match found for: Match respose.[0].page= \"1\"\nsrc\/test\/java\/frame\/geet.feature:12","executorName":"main","name":"Test a sample Get API","startTime":1706292891165,"refId":"[1:6]","endTime":1706292891929,"exampleIndex":-1},{"sectionIndex":1,"stepResults":[{"result":{"nanos":204900,"millis":0.2049,"status":"passed"},"step":{"background":true,"line":4,"prefix":"Given","index":0,"text":"url  'https:\/\/reqres.in'"}},{"result":{"nanos":492800,"millis":0.4928,"status":"passed"},"step":{"background":true,"line":5,"prefix":"And","index":1,"text":"header Accpet = 'application\/json'"}},{"result":{"nanos":320400,"millis":0.3204,"status":"passed"},"step":{"line":15,"prefix":"Given","index":0,"text":"path  '\/api\/users'"}},{"result":{"nanos":251000200,"millis":251.0002,"status":"passed"},"step":{"line":16,"prefix":"When","index":1,"text":"method GET"},"stepLog":"23:44:51.938 request:\n1 > GET https:\/\/reqres.in\/api\/users\n1 > Accpet: application\/json\n1 > Host: reqres.in\n1 > Connection: Keep-Alive\n1 > User-Agent: Apache-HttpClient\/4.5.14 (Java\/17.0.1)\n1 > Accept-Encoding: gzip,deflate\n\n\n23:44:52.186 response time in milliseconds: 243\n1 < 200\n1 < Date: Fri, 26 Jan 2024 18:14:52 GMT\n1 < Content-Type: application\/json; charset=utf-8\n1 < Transfer-Encoding: chunked\n1 < Connection: keep-alive\n1 < Report-To: {\"group\":\"heroku-nel\",\"max_age\":3600,\"endpoints\":[{\"url\":\"https:\/\/nel.heroku.com\/reports?ts=1706253703&sid=c4c9725f-1ab0-44d8-820f-430df2718e11&s=RqrgP6W6I4Q1g917CGQigd3ZiY38e%2FT%2F2f80nBAkY6s%3D\"}]}\n1 < Reporting-Endpoints: heroku-nel=https:\/\/nel.heroku.com\/reports?ts=1706253703&sid=c4c9725f-1ab0-44d8-820f-430df2718e11&s=RqrgP6W6I4Q1g917CGQigd3ZiY38e%2FT%2F2f80nBAkY6s%3D\n1 < Nel: {\"report_to\":\"heroku-nel\",\"max_age\":3600,\"success_fraction\":0.005,\"failure_fraction\":0.05,\"response_headers\":[\"Via\"]}\n1 < X-Powered-By: Express\n1 < Access-Control-Allow-Origin: *\n1 < Etag: W\/\"3e4-2RLXvr5wTg9YQ6aH95CkYoFNuO8\"\n1 < Via: 1.1 vegur\n1 < Cache-Control: max-age=14400\n1 < CF-Cache-Status: HIT\n1 < Age: 1828\n1 < Vary: Accept-Encoding\n1 < Server: cloudflare\n1 < CF-RAY: 84babcef7dc417b2-MAA\n{\"page\":1,\"per_page\":6,\"total\":12,\"total_pages\":2,\"data\":[{\"id\":1,\"email\":\"george.bluth@reqres.in\",\"first_name\":\"George\",\"last_name\":\"Bluth\",\"avatar\":\"https:\/\/reqres.in\/img\/faces\/1-image.jpg\"},{\"id\":2,\"email\":\"janet.weaver@reqres.in\",\"first_name\":\"Janet\",\"last_name\":\"Weaver\",\"avatar\":\"https:\/\/reqres.in\/img\/faces\/2-image.jpg\"},{\"id\":3,\"email\":\"emma.wong@reqres.in\",\"first_name\":\"Emma\",\"last_name\":\"Wong\",\"avatar\":\"https:\/\/reqres.in\/img\/faces\/3-image.jpg\"},{\"id\":4,\"email\":\"eve.holt@reqres.in\",\"first_name\":\"Eve\",\"last_name\":\"Holt\",\"avatar\":\"https:\/\/reqres.in\/img\/faces\/4-image.jpg\"},{\"id\":5,\"email\":\"charles.morris@reqres.in\",\"first_name\":\"Charles\",\"last_name\":\"Morris\",\"avatar\":\"https:\/\/reqres.in\/img\/faces\/5-image.jpg\"},{\"id\":6,\"email\":\"tracey.ramos@reqres.in\",\"first_name\":\"Tracey\",\"last_name\":\"Ramos\",\"avatar\":\"https:\/\/reqres.in\/img\/faces\/6-image.jpg\"}],\"support\":{\"url\":\"https:\/\/reqres.in\/#support-heading\",\"text\":\"To keep ReqRes free, contributions towards server costs are appreciated!\"}}\n\n"},{"result":{"nanos":13500,"millis":0.0135,"status":"passed"},"step":{"line":17,"prefix":"Then","index":2,"text":"status 200"}},{"result":{"nanos":1613000,"millis":1.613,"status":"passed"},"step":{"line":18,"prefix":"And","index":3,"text":"print  response"},"stepLog":"23:44:52.190 [print] {\n  \"page\": 1,\n  \"per_page\": 6,\n  \"total\": 12,\n  \"total_pages\": 2,\n  \"data\": [\n    {\n      \"id\": 1,\n      \"email\": \"george.bluth@reqres.in\",\n      \"first_name\": \"George\",\n      \"last_name\": \"Bluth\",\n      \"avatar\": \"https:\/\/reqres.in\/img\/faces\/1-image.jpg\"\n    },\n    {\n      \"id\": 2,\n      \"email\": \"janet.weaver@reqres.in\",\n      \"first_name\": \"Janet\",\n      \"last_name\": \"Weaver\",\n      \"avatar\": \"https:\/\/reqres.in\/img\/faces\/2-image.jpg\"\n    },\n    {\n      \"id\": 3,\n      \"email\": \"emma.wong@reqres.in\",\n      \"first_name\": \"Emma\",\n      \"last_name\": \"Wong\",\n      \"avatar\": \"https:\/\/reqres.in\/img\/faces\/3-image.jpg\"\n    },\n    {\n      \"id\": 4,\n      \"email\": \"eve.holt@reqres.in\",\n      \"first_name\": \"Eve\",\n      \"last_name\": \"Holt\",\n      \"avatar\": \"https:\/\/reqres.in\/img\/faces\/4-image.jpg\"\n    },\n    {\n      \"id\": 5,\n      \"email\": \"charles.morris@reqres.in\",\n      \"first_name\": \"Charles\",\n      \"last_name\": \"Morris\",\n      \"avatar\": \"https:\/\/reqres.in\/img\/faces\/5-image.jpg\"\n    },\n    {\n      \"id\": 6,\n      \"email\": \"tracey.ramos@reqres.in\",\n      \"first_name\": \"Tracey\",\n      \"last_name\": \"Ramos\",\n      \"avatar\": \"https:\/\/reqres.in\/img\/faces\/6-image.jpg\"\n    }\n  ],\n  \"support\": {\n    \"url\": \"https:\/\/reqres.in\/#support-heading\",\n    \"text\": \"To keep ReqRes free, contributions towards server costs are appreciated!\"\n  }\n}\n \n"}],"executorName":"main","line":14,"name":"sample get api","description":"","durationMillis":253.6448,"startTime":1706292891935,"failed":false,"refId":"[2:14]","endTime":1706292892190,"exampleIndex":-1}],"callDepth":0,"name":"Sample API Tests","description":"","resultDate":"2024-01-26 11:44:52 pm","durationMillis":994.7211,"passedCount":1}