{"failedCount":1,"prefixedPath":"src\/test\/java\/frame\/Get.feature","packageQualifiedName":"src.test.java.frame.Get","loopIndex":-1,"relativePath":"src\/test\/java\/frame\/Get.feature","scenarioResults":[{"sectionIndex":0,"stepResults":[{"result":{"nanos":58011100,"millis":58.0111,"status":"passed"},"step":{"line":4,"prefix":"Given","index":0,"text":"url  'https:\/\/reqres.in\/api\/users?page=2'"}},{"result":{"nanos":729878100,"millis":729.8781,"status":"passed"},"step":{"line":5,"prefix":"When","index":1,"text":"method GET"},"stepLog":"12:13:54.921 request:\n1 > GET https:\/\/reqres.in\/api\/users?page=2\n1 > Host: reqres.in\n1 > Connection: Keep-Alive\n1 > User-Agent: Apache-HttpClient\/4.5.5 (Java\/17.0.1)\n1 > Accept-Encoding: gzip,deflate\n\n\n12:13:55.370 response time in milliseconds: 443\n1 < 200\n1 < Date: Wed, 03 Jan 2024 06:43:55 GMT\n1 < Content-Type: application\/json; charset=utf-8\n1 < Transfer-Encoding: chunked\n1 < Connection: keep-alive\n1 < Report-To: {\"group\":\"heroku-nel\",\"max_age\":3600,\"endpoints\":[{\"url\":\"https:\/\/nel.heroku.com\/reports?ts=1703925013&sid=c4c9725f-1ab0-44d8-820f-430df2718e11&s=XLuCffr%2BPsd1khB4kgD8K%2FFqkVvC%2FVCDV%2FHM65pemLA%3D\"}]}\n1 < Reporting-Endpoints: heroku-nel=https:\/\/nel.heroku.com\/reports?ts=1703925013&sid=c4c9725f-1ab0-44d8-820f-430df2718e11&s=XLuCffr%2BPsd1khB4kgD8K%2FFqkVvC%2FVCDV%2FHM65pemLA%3D\n1 < Nel: {\"report_to\":\"heroku-nel\",\"max_age\":3600,\"success_fraction\":0.005,\"failure_fraction\":0.05,\"response_headers\":[\"Via\"]}\n1 < X-Powered-By: Express\n1 < Access-Control-Allow-Origin: *\n1 < Etag: W\/\"406-ut0vzoCuidvyMf8arZpMpJ6ZRDw\"\n1 < Via: 1.1 vegur\n1 < Cache-Control: max-age=14400\n1 < CF-Cache-Status: HIT\n1 < Age: 5312\n1 < Vary: Accept-Encoding\n1 < Server: cloudflare\n1 < CF-RAY: 83f94532aa6d5fba-SIN\n{\"page\":2,\"per_page\":6,\"total\":12,\"total_pages\":2,\"data\":[{\"id\":7,\"email\":\"michael.lawson@reqres.in\",\"first_name\":\"Michael\",\"last_name\":\"Lawson\",\"avatar\":\"https:\/\/reqres.in\/img\/faces\/7-image.jpg\"},{\"id\":8,\"email\":\"lindsay.ferguson@reqres.in\",\"first_name\":\"Lindsay\",\"last_name\":\"Ferguson\",\"avatar\":\"https:\/\/reqres.in\/img\/faces\/8-image.jpg\"},{\"id\":9,\"email\":\"tobias.funke@reqres.in\",\"first_name\":\"Tobias\",\"last_name\":\"Funke\",\"avatar\":\"https:\/\/reqres.in\/img\/faces\/9-image.jpg\"},{\"id\":10,\"email\":\"byron.fields@reqres.in\",\"first_name\":\"Byron\",\"last_name\":\"Fields\",\"avatar\":\"https:\/\/reqres.in\/img\/faces\/10-image.jpg\"},{\"id\":11,\"email\":\"george.edwards@reqres.in\",\"first_name\":\"George\",\"last_name\":\"Edwards\",\"avatar\":\"https:\/\/reqres.in\/img\/faces\/11-image.jpg\"},{\"id\":12,\"email\":\"rachel.howell@reqres.in\",\"first_name\":\"Rachel\",\"last_name\":\"Howell\",\"avatar\":\"https:\/\/reqres.in\/img\/faces\/12-image.jpg\"}],\"support\":{\"url\":\"https:\/\/reqres.in\/#support-heading\",\"text\":\"To keep ReqRes free, contributions towards server costs are appreciated!\"}}\n\n"},{"result":{"nanos":23500,"millis":0.0235,"status":"passed"},"step":{"line":6,"prefix":"Then","index":2,"text":"status 200"}},{"result":{"nanos":33485700,"errorMessage":"js failed:\n>>>>\n01: karate.log('[print]', respones)\n<<<<\norg.graalvm.polyglot.PolyglotException: ReferenceError: \"respones\" is not defined\n- <js>.:program(Unnamed:1)\n\nsrc\/test\/java\/frame\/Get.feature:7","millis":33.4857,"status":"failed"},"step":{"line":7,"prefix":"And","index":3,"text":"print  respones"},"stepLog":"12:13:55.442 src\/test\/java\/frame\/Get.feature:7\nAnd print  respones\njs failed:\n>>>>\n01: karate.log('[print]', respones)\n<<<<\norg.graalvm.polyglot.PolyglotException: ReferenceError: \"respones\" is not defined\n- <js>.:program(Unnamed:1)\n\nsrc\/test\/java\/frame\/Get.feature:7\n"}],"line":3,"description":"","durationMillis":821.3984,"failed":true,"error":"js failed:\n>>>>\n01: karate.log('[print]', respones)\n<<<<\norg.graalvm.polyglot.PolyglotException: ReferenceError: \"respones\" is not defined\n- <js>.:program(Unnamed:1)\n\nsrc\/test\/java\/frame\/Get.feature:7","executorName":"main","name":"Test a sample Get API","startTime":1704264234600,"refId":"[1:3]","endTime":1704264235442,"exampleIndex":-1}],"callDepth":0,"name":"Sample API Tests","description":"","resultDate":"2024-01-03 12:13:55 pm","durationMillis":821.3984,"passedCount":0}