{"failedCount":0,"prefixedPath":"src\/test\/java\/frame\/Function.feature","packageQualifiedName":"src.test.java.frame.Function","loopIndex":-1,"relativePath":"src\/test\/java\/frame\/Function.feature","scenarioResults":[{"sectionIndex":0,"stepResults":[{"result":{"nanos":952900,"millis":0.9529,"status":"passed"},"step":{"line":4,"prefix":"Given","index":0,"text":"url 'https:\/\/reqres.in\/api\/users?page=2'"},"stepLog":"23:06:40.313 the value is null \n"},{"result":{"nanos":632281000,"millis":632.281,"status":"passed"},"step":{"line":5,"prefix":"When","index":1,"text":"method GET"},"stepLog":"23:06:40.653 request:\n1 > GET https:\/\/reqres.in\/api\/users?page=2\n1 > Host: reqres.in\n1 > Connection: Keep-Alive\n1 > User-Agent: Apache-HttpClient\/4.5.14 (Java\/17.0.1)\n1 > Accept-Encoding: gzip,deflate\n\n\n23:06:40.950 response time in milliseconds: 293\n1 < 200\n1 < Date: Wed, 14 Feb 2024 17:36:42 GMT\n1 < Content-Type: application\/json; charset=utf-8\n1 < Transfer-Encoding: chunked\n1 < Connection: keep-alive\n1 < Report-To: {\"group\":\"heroku-nel\",\"max_age\":3600,\"endpoints\":[{\"url\":\"https:\/\/nel.heroku.com\/reports?ts=1707846056&sid=c4c9725f-1ab0-44d8-820f-430df2718e11&s=5ZKDJciF4D%2Fw3VUeT1QTzE6FOYkXxBC8R5cjOsClbN8%3D\"}]}\n1 < Reporting-Endpoints: heroku-nel=https:\/\/nel.heroku.com\/reports?ts=1707846056&sid=c4c9725f-1ab0-44d8-820f-430df2718e11&s=5ZKDJciF4D%2Fw3VUeT1QTzE6FOYkXxBC8R5cjOsClbN8%3D\n1 < Nel: {\"report_to\":\"heroku-nel\",\"max_age\":3600,\"success_fraction\":0.005,\"failure_fraction\":0.05,\"response_headers\":[\"Via\"]}\n1 < X-Powered-By: Express\n1 < Access-Control-Allow-Origin: *\n1 < Etag: W\/\"406-ut0vzoCuidvyMf8arZpMpJ6ZRDw\"\n1 < Via: 1.1 vegur\n1 < Cache-Control: max-age=14400\n1 < CF-Cache-Status: HIT\n1 < Age: 6799\n1 < Vary: Accept-Encoding\n1 < Server: cloudflare\n1 < CF-RAY: 8557132ada067e81-MAA\n{\"page\":2,\"per_page\":6,\"total\":12,\"total_pages\":2,\"data\":[{\"id\":7,\"email\":\"michael.lawson@reqres.in\",\"first_name\":\"Michael\",\"last_name\":\"Lawson\",\"avatar\":\"https:\/\/reqres.in\/img\/faces\/7-image.jpg\"},{\"id\":8,\"email\":\"lindsay.ferguson@reqres.in\",\"first_name\":\"Lindsay\",\"last_name\":\"Ferguson\",\"avatar\":\"https:\/\/reqres.in\/img\/faces\/8-image.jpg\"},{\"id\":9,\"email\":\"tobias.funke@reqres.in\",\"first_name\":\"Tobias\",\"last_name\":\"Funke\",\"avatar\":\"https:\/\/reqres.in\/img\/faces\/9-image.jpg\"},{\"id\":10,\"email\":\"byron.fields@reqres.in\",\"first_name\":\"Byron\",\"last_name\":\"Fields\",\"avatar\":\"https:\/\/reqres.in\/img\/faces\/10-image.jpg\"},{\"id\":11,\"email\":\"george.edwards@reqres.in\",\"first_name\":\"George\",\"last_name\":\"Edwards\",\"avatar\":\"https:\/\/reqres.in\/img\/faces\/11-image.jpg\"},{\"id\":12,\"email\":\"rachel.howell@reqres.in\",\"first_name\":\"Rachel\",\"last_name\":\"Howell\",\"avatar\":\"https:\/\/reqres.in\/img\/faces\/12-image.jpg\"}],\"support\":{\"url\":\"https:\/\/reqres.in\/#support-heading\",\"text\":\"To keep ReqRes free, contributions towards server costs are appreciated!\"}}\n\n"},{"result":{"nanos":27100,"millis":0.0271,"status":"passed"},"step":{"line":6,"prefix":"Then","index":2,"text":"status 200"}},{"result":{"nanos":6414300,"millis":6.4143,"status":"passed"},"step":{"line":7,"prefix":"And","index":3,"text":"print response"},"stepLog":"23:06:40.980 [print] {\n  \"page\": 2,\n  \"per_page\": 6,\n  \"total\": 12,\n  \"total_pages\": 2,\n  \"data\": [\n    {\n      \"id\": 7,\n      \"email\": \"michael.lawson@reqres.in\",\n      \"first_name\": \"Michael\",\n      \"last_name\": \"Lawson\",\n      \"avatar\": \"https:\/\/reqres.in\/img\/faces\/7-image.jpg\"\n    },\n    {\n      \"id\": 8,\n      \"email\": \"lindsay.ferguson@reqres.in\",\n      \"first_name\": \"Lindsay\",\n      \"last_name\": \"Ferguson\",\n      \"avatar\": \"https:\/\/reqres.in\/img\/faces\/8-image.jpg\"\n    },\n    {\n      \"id\": 9,\n      \"email\": \"tobias.funke@reqres.in\",\n      \"first_name\": \"Tobias\",\n      \"last_name\": \"Funke\",\n      \"avatar\": \"https:\/\/reqres.in\/img\/faces\/9-image.jpg\"\n    },\n    {\n      \"id\": 10,\n      \"email\": \"byron.fields@reqres.in\",\n      \"first_name\": \"Byron\",\n      \"last_name\": \"Fields\",\n      \"avatar\": \"https:\/\/reqres.in\/img\/faces\/10-image.jpg\"\n    },\n    {\n      \"id\": 11,\n      \"email\": \"george.edwards@reqres.in\",\n      \"first_name\": \"George\",\n      \"last_name\": \"Edwards\",\n      \"avatar\": \"https:\/\/reqres.in\/img\/faces\/11-image.jpg\"\n    },\n    {\n      \"id\": 12,\n      \"email\": \"rachel.howell@reqres.in\",\n      \"first_name\": \"Rachel\",\n      \"last_name\": \"Howell\",\n      \"avatar\": \"https:\/\/reqres.in\/img\/faces\/12-image.jpg\"\n    }\n  ],\n  \"support\": {\n    \"url\": \"https:\/\/reqres.in\/#support-heading\",\n    \"text\": \"To keep ReqRes free, contributions towards server costs are appreciated!\"\n  }\n}\n \n"},{"result":{"nanos":3187700,"millis":3.1877,"status":"passed"},"step":{"line":8,"prefix":"*","index":4,"text":"def data = response.data"}},{"result":{"nanos":1571400,"millis":1.5714,"status":"passed"},"step":{"line":9,"prefix":"And","index":5,"text":"print 'data----',data"},"stepLog":"23:06:40.986 [print] data---- [\n  {\n    \"id\": 7,\n    \"email\": \"michael.lawson@reqres.in\",\n    \"first_name\": \"Michael\",\n    \"last_name\": \"Lawson\",\n    \"avatar\": \"https:\/\/reqres.in\/img\/faces\/7-image.jpg\"\n  },\n  {\n    \"id\": 8,\n    \"email\": \"lindsay.ferguson@reqres.in\",\n    \"first_name\": \"Lindsay\",\n    \"last_name\": \"Ferguson\",\n    \"avatar\": \"https:\/\/reqres.in\/img\/faces\/8-image.jpg\"\n  },\n  {\n    \"id\": 9,\n    \"email\": \"tobias.funke@reqres.in\",\n    \"first_name\": \"Tobias\",\n    \"last_name\": \"Funke\",\n    \"avatar\": \"https:\/\/reqres.in\/img\/faces\/9-image.jpg\"\n  },\n  {\n    \"id\": 10,\n    \"email\": \"byron.fields@reqres.in\",\n    \"first_name\": \"Byron\",\n    \"last_name\": \"Fields\",\n    \"avatar\": \"https:\/\/reqres.in\/img\/faces\/10-image.jpg\"\n  },\n  {\n    \"id\": 11,\n    \"email\": \"george.edwards@reqres.in\",\n    \"first_name\": \"George\",\n    \"last_name\": \"Edwards\",\n    \"avatar\": \"https:\/\/reqres.in\/img\/faces\/11-image.jpg\"\n  },\n  {\n    \"id\": 12,\n    \"email\": \"rachel.howell@reqres.in\",\n    \"first_name\": \"Rachel\",\n    \"last_name\": \"Howell\",\n    \"avatar\": \"https:\/\/reqres.in\/img\/faces\/12-image.jpg\"\n  }\n]\n \n"},{"result":{"nanos":1337800,"millis":1.3378,"status":"passed"},"step":{"endLine":17,"line":10,"prefix":"*","docString":"function (args){\n      \nreturn  args.length\n      \n}","index":6,"text":"def tests ="}},{"result":{"nanos":4341600,"millis":4.3416,"status":"passed"},"step":{"line":18,"prefix":"*","index":7,"text":"def username  = call tests data"}},{"result":{"nanos":1189500,"millis":1.1895,"status":"passed"},"step":{"line":19,"prefix":"And","index":8,"text":"print 'username------',username"},"stepLog":"23:06:40.993 [print] username------ 6 \n"}],"executorName":"main","line":3,"name":"Teste the users","description":"","durationMillis":651.3033,"startTime":1707932200159,"failed":false,"refId":"[1:3]","endTime":1707932200993,"exampleIndex":-1}],"callDepth":0,"name":"Test the javascrpit functions","description":"","resultDate":"2024-02-14 11:06:40 pm","durationMillis":651.3033,"passedCount":1}