{"failedCount":0,"prefixedPath":"src\/test\/java\/frame\/Function.feature","packageQualifiedName":"src.test.java.frame.Function","loopIndex":-1,"relativePath":"src\/test\/java\/frame\/Function.feature","scenarioResults":[{"sectionIndex":0,"stepResults":[{"result":{"nanos":1065200,"millis":1.0652,"status":"passed"},"step":{"line":4,"prefix":"Given","index":0,"text":"url 'https:\/\/reqres.in\/api\/unknown'"},"stepLog":"23:21:28.069 the value is null \n"},{"result":{"nanos":658141000,"millis":658.141,"status":"passed"},"step":{"line":5,"prefix":"When","index":1,"text":"method GET"},"stepLog":"23:21:28.368 request:\n1 > GET https:\/\/reqres.in\/api\/unknown\n1 > Host: reqres.in\n1 > Connection: Keep-Alive\n1 > User-Agent: Apache-HttpClient\/4.5.14 (Java\/17.0.1)\n1 > Accept-Encoding: gzip,deflate\n\n\n23:21:28.735 response time in milliseconds: 362\n1 < 200\n1 < Date: Wed, 14 Feb 2024 17:51:30 GMT\n1 < Content-Type: application\/json; charset=utf-8\n1 < Transfer-Encoding: chunked\n1 < Connection: keep-alive\n1 < Report-To: {\"group\":\"heroku-nel\",\"max_age\":3600,\"endpoints\":[{\"url\":\"https:\/\/nel.heroku.com\/reports?ts=1707179772&sid=c4c9725f-1ab0-44d8-820f-430df2718e11&s=tuMh79n8RreOkqJm6xID1RAj6oIArDXopWwGJyu3rf0%3D\"}]}\n1 < Reporting-Endpoints: heroku-nel=https:\/\/nel.heroku.com\/reports?ts=1707179772&sid=c4c9725f-1ab0-44d8-820f-430df2718e11&s=tuMh79n8RreOkqJm6xID1RAj6oIArDXopWwGJyu3rf0%3D\n1 < Nel: {\"report_to\":\"heroku-nel\",\"max_age\":3600,\"success_fraction\":0.005,\"failure_fraction\":0.05,\"response_headers\":[\"Via\"]}\n1 < X-Powered-By: Express\n1 < Access-Control-Allow-Origin: *\n1 < Etag: W\/\"2c1-N6Rqerxquq2kgQhL51EiSg4x0R8\"\n1 < Via: 1.1 vegur\n1 < Cache-Control: max-age=14400\n1 < CF-Cache-Status: HIT\n1 < Age: 198\n1 < Vary: Accept-Encoding\n1 < Server: cloudflare\n1 < CF-RAY: 855728d76be27eec-MAA\n{\"page\":1,\"per_page\":6,\"total\":12,\"total_pages\":2,\"data\":[{\"id\":1,\"name\":\"cerulean\",\"year\":2000,\"color\":\"#98B2D1\",\"pantone_value\":\"15-4020\"},{\"id\":2,\"name\":\"fuchsia rose\",\"year\":2001,\"color\":\"#C74375\",\"pantone_value\":\"17-2031\"},{\"id\":3,\"name\":\"true red\",\"year\":2002,\"color\":\"#BF1932\",\"pantone_value\":\"19-1664\"},{\"id\":4,\"name\":\"aqua sky\",\"year\":2003,\"color\":\"#7BC4C4\",\"pantone_value\":\"14-4811\"},{\"id\":5,\"name\":\"tigerlily\",\"year\":2004,\"color\":\"#E2583E\",\"pantone_value\":\"17-1456\"},{\"id\":6,\"name\":\"blue turquoise\",\"year\":2005,\"color\":\"#53B0AE\",\"pantone_value\":\"15-5217\"}],\"support\":{\"url\":\"https:\/\/reqres.in\/#support-heading\",\"text\":\"To keep ReqRes free, contributions towards server costs are appreciated!\"}}\n\n"},{"result":{"nanos":22000,"millis":0.022,"status":"passed"},"step":{"line":6,"prefix":"Then","index":2,"text":"status 200"}},{"result":{"nanos":6132200,"millis":6.1322,"status":"passed"},"step":{"line":7,"prefix":"And","index":3,"text":"print response"},"stepLog":"23:21:28.765 [print] {\n  \"page\": 1,\n  \"per_page\": 6,\n  \"total\": 12,\n  \"total_pages\": 2,\n  \"data\": [\n    {\n      \"id\": 1,\n      \"name\": \"cerulean\",\n      \"year\": 2000,\n      \"color\": \"#98B2D1\",\n      \"pantone_value\": \"15-4020\"\n    },\n    {\n      \"id\": 2,\n      \"name\": \"fuchsia rose\",\n      \"year\": 2001,\n      \"color\": \"#C74375\",\n      \"pantone_value\": \"17-2031\"\n    },\n    {\n      \"id\": 3,\n      \"name\": \"true red\",\n      \"year\": 2002,\n      \"color\": \"#BF1932\",\n      \"pantone_value\": \"19-1664\"\n    },\n    {\n      \"id\": 4,\n      \"name\": \"aqua sky\",\n      \"year\": 2003,\n      \"color\": \"#7BC4C4\",\n      \"pantone_value\": \"14-4811\"\n    },\n    {\n      \"id\": 5,\n      \"name\": \"tigerlily\",\n      \"year\": 2004,\n      \"color\": \"#E2583E\",\n      \"pantone_value\": \"17-1456\"\n    },\n    {\n      \"id\": 6,\n      \"name\": \"blue turquoise\",\n      \"year\": 2005,\n      \"color\": \"#53B0AE\",\n      \"pantone_value\": \"15-5217\"\n    }\n  ],\n  \"support\": {\n    \"url\": \"https:\/\/reqres.in\/#support-heading\",\n    \"text\": \"To keep ReqRes free, contributions towards server costs are appreciated!\"\n  }\n}\n \n"},{"result":{"nanos":3957100,"millis":3.9571,"status":"passed"},"step":{"line":8,"prefix":"*","index":4,"text":"def data = response.data"}},{"result":{"nanos":1252200,"millis":1.2522,"status":"passed"},"step":{"line":9,"prefix":"And","index":5,"text":"print 'data----',data"},"stepLog":"23:21:28.771 [print] data---- [\n  {\n    \"id\": 1,\n    \"name\": \"cerulean\",\n    \"year\": 2000,\n    \"color\": \"#98B2D1\",\n    \"pantone_value\": \"15-4020\"\n  },\n  {\n    \"id\": 2,\n    \"name\": \"fuchsia rose\",\n    \"year\": 2001,\n    \"color\": \"#C74375\",\n    \"pantone_value\": \"17-2031\"\n  },\n  {\n    \"id\": 3,\n    \"name\": \"true red\",\n    \"year\": 2002,\n    \"color\": \"#BF1932\",\n    \"pantone_value\": \"19-1664\"\n  },\n  {\n    \"id\": 4,\n    \"name\": \"aqua sky\",\n    \"year\": 2003,\n    \"color\": \"#7BC4C4\",\n    \"pantone_value\": \"14-4811\"\n  },\n  {\n    \"id\": 5,\n    \"name\": \"tigerlily\",\n    \"year\": 2004,\n    \"color\": \"#E2583E\",\n    \"pantone_value\": \"17-1456\"\n  },\n  {\n    \"id\": 6,\n    \"name\": \"blue turquoise\",\n    \"year\": 2005,\n    \"color\": \"#53B0AE\",\n    \"pantone_value\": \"15-5217\"\n  }\n]\n \n"},{"result":{"nanos":12113100,"millis":12.1131,"status":"passed"},"step":{"endLine":20,"line":10,"prefix":"*","docString":"function (args){\n      \nfor(i=0;i<=args.length;i++){\nif(args[i].id == 2){\nreturn args[i]\n}\n}\n}","index":6,"text":"def tests ="}},{"result":{"nanos":7998000,"millis":7.998,"status":"passed"},"step":{"line":21,"prefix":"*","index":7,"text":"def username  = call tests data"}},{"result":{"nanos":1284300,"millis":1.2843,"status":"passed"},"step":{"line":22,"prefix":"And","index":8,"text":"print 'username------',username"},"stepLog":"23:21:28.794 [print] username------ {\n  \"id\": 2,\n  \"name\": \"fuchsia rose\",\n  \"year\": 2001,\n  \"color\": \"#C74375\",\n  \"pantone_value\": \"17-2031\"\n}\n \n"}],"executorName":"main","line":3,"name":"Teste the users","description":"","durationMillis":691.9651,"startTime":1707933087921,"failed":false,"refId":"[1:3]","endTime":1707933088794,"exampleIndex":-1}],"callDepth":0,"name":"Test the javascrpit functions","description":"","resultDate":"2024-02-14 11:21:28 pm","durationMillis":691.9651,"passedCount":1}