{"failedCount":1,"prefixedPath":"src\/test\/java\/frame\/Get.feature","packageQualifiedName":"src.test.java.frame.Get","loopIndex":-1,"relativePath":"src\/test\/java\/frame\/Get.feature","scenarioResults":[{"sectionIndex":0,"stepResults":[{"result":{"nanos":58078600,"millis":58.0786,"status":"passed"},"step":{"line":4,"prefix":"Given","index":0,"text":"url  'https:\/\/reqres.in\/api\/users?page=2'"}},{"result":{"nanos":709358200,"millis":709.3582,"status":"passed"},"step":{"line":5,"prefix":"When","index":1,"text":"method GET"},"stepLog":"07:35:35.415 request:\n1 > GET https:\/\/reqres.in\/api\/users?page=2\n1 > Host: reqres.in\n1 > Connection: Keep-Alive\n1 > User-Agent: Apache-HttpClient\/4.5.12 (Java\/17.0.1)\n1 > Accept-Encoding: gzip,deflate\n\n\n07:35:35.791 response time in milliseconds: 372\n1 < 200\n1 < Date: Fri, 29 Dec 2023 02:05:37 GMT\n1 < Content-Type: application\/json; charset=utf-8\n1 < Transfer-Encoding: chunked\n1 < Connection: keep-alive\n1 < Report-To: {\"group\":\"heroku-nel\",\"max_age\":3600,\"endpoints\":[{\"url\":\"https:\/\/nel.heroku.com\/reports?ts=1703315890&sid=c4c9725f-1ab0-44d8-820f-430df2718e11&s=dr2p%2Fz%2Bh1V03dxmcHVrnowkqNqvsTclCA8soV1TvTGo%3D\"}]}\n1 < Reporting-Endpoints: heroku-nel=https:\/\/nel.heroku.com\/reports?ts=1703315890&sid=c4c9725f-1ab0-44d8-820f-430df2718e11&s=dr2p%2Fz%2Bh1V03dxmcHVrnowkqNqvsTclCA8soV1TvTGo%3D\n1 < Nel: {\"report_to\":\"heroku-nel\",\"max_age\":3600,\"success_fraction\":0.005,\"failure_fraction\":0.05,\"response_headers\":[\"Via\"]}\n1 < X-Powered-By: Express\n1 < Access-Control-Allow-Origin: *\n1 < Etag: W\/\"406-ut0vzoCuidvyMf8arZpMpJ6ZRDw\"\n1 < Via: 1.1 vegur\n1 < Cache-Control: max-age=14400\n1 < CF-Cache-Status: HIT\n1 < Age: 7190\n1 < Vary: Accept-Encoding\n1 < Server: cloudflare\n1 < CF-RAY: 83ce7aa51a22851f-BOM\n{\"page\":2,\"per_page\":6,\"total\":12,\"total_pages\":2,\"data\":[{\"id\":7,\"email\":\"michael.lawson@reqres.in\",\"first_name\":\"Michael\",\"last_name\":\"Lawson\",\"avatar\":\"https:\/\/reqres.in\/img\/faces\/7-image.jpg\"},{\"id\":8,\"email\":\"lindsay.ferguson@reqres.in\",\"first_name\":\"Lindsay\",\"last_name\":\"Ferguson\",\"avatar\":\"https:\/\/reqres.in\/img\/faces\/8-image.jpg\"},{\"id\":9,\"email\":\"tobias.funke@reqres.in\",\"first_name\":\"Tobias\",\"last_name\":\"Funke\",\"avatar\":\"https:\/\/reqres.in\/img\/faces\/9-image.jpg\"},{\"id\":10,\"email\":\"byron.fields@reqres.in\",\"first_name\":\"Byron\",\"last_name\":\"Fields\",\"avatar\":\"https:\/\/reqres.in\/img\/faces\/10-image.jpg\"},{\"id\":11,\"email\":\"george.edwards@reqres.in\",\"first_name\":\"George\",\"last_name\":\"Edwards\",\"avatar\":\"https:\/\/reqres.in\/img\/faces\/11-image.jpg\"},{\"id\":12,\"email\":\"rachel.howell@reqres.in\",\"first_name\":\"Rachel\",\"last_name\":\"Howell\",\"avatar\":\"https:\/\/reqres.in\/img\/faces\/12-image.jpg\"}],\"support\":{\"url\":\"https:\/\/reqres.in\/#support-heading\",\"text\":\"To keep ReqRes free, contributions towards server costs are appreciated!\"}}\n\n"},{"result":{"nanos":0,"errorMessage":"no step-definition method match found for: Status 200\nsrc\/test\/java\/frame\/Get.feature:6","millis":0.0,"status":"failed"},"step":{"line":6,"prefix":"Then","index":2,"text":"Status 200"},"stepLog":"07:35:35.843 src\/test\/java\/frame\/Get.feature:6\nThen Status 200\nno step-definition method match found for: Status 200\nsrc\/test\/java\/frame\/Get.feature:6\n"}],"line":3,"description":"","durationMillis":767.4368,"failed":true,"error":"no step-definition method match found for: Status 200\nsrc\/test\/java\/frame\/Get.feature:6","executorName":"main","name":"Test a sample Get API","startTime":1703815535053,"refId":"[1:3]","endTime":1703815535843,"exampleIndex":-1}],"callDepth":0,"name":"Sample API Tests","description":"","resultDate":"2023-12-29 07:35:35 am","durationMillis":767.4368,"passedCount":0}