{"failedCount":1,"prefixedPath":"src\/test\/java\/frame\/geet.feature","packageQualifiedName":"src.test.java.frame.geet","loopIndex":-1,"relativePath":"src\/test\/java\/frame\/geet.feature","scenarioResults":[{"sectionIndex":0,"stepResults":[{"result":{"nanos":70333000,"millis":70.333,"status":"passed"},"step":{"background":true,"line":4,"prefix":"Given","index":0,"text":"url  'https:\/\/reqres.in'"}},{"result":{"nanos":1044300,"millis":1.0443,"status":"passed"},"step":{"background":true,"line":5,"prefix":"And","index":1,"text":"header Accpet = 'application\/json'"}},{"result":{"nanos":467600,"millis":0.4676,"status":"passed"},"step":{"comments":["# Given url  'https:\/\/reqres.in'"],"line":9,"prefix":"Given","index":0,"text":"path '\/api\/unknown'"}},{"result":{"nanos":754169600,"millis":754.1696,"status":"passed"},"step":{"line":10,"prefix":"When","index":1,"text":"method GET"},"stepLog":"23:54:06.352 request:\n1 > GET https:\/\/reqres.in\/api\/unknown\n1 > Accpet: application\/json\n1 > Host: reqres.in\n1 > Connection: Keep-Alive\n1 > User-Agent: Apache-HttpClient\/4.5.14 (Java\/17.0.1)\n1 > Accept-Encoding: gzip,deflate\n\n\n23:54:06.806 response time in milliseconds: 449\n1 < 200\n1 < Date: Fri, 26 Jan 2024 18:24:06 GMT\n1 < Content-Type: application\/json; charset=utf-8\n1 < Transfer-Encoding: chunked\n1 < Connection: keep-alive\n1 < Report-To: {\"group\":\"heroku-nel\",\"max_age\":3600,\"endpoints\":[{\"url\":\"https:\/\/nel.heroku.com\/reports?ts=1706224572&sid=c4c9725f-1ab0-44d8-820f-430df2718e11&s=autIfqSqvw9xi2iWnPnYEA1VtaQq91yNPd7%2FnpJ99zc%3D\"}]}\n1 < Reporting-Endpoints: heroku-nel=https:\/\/nel.heroku.com\/reports?ts=1706224572&sid=c4c9725f-1ab0-44d8-820f-430df2718e11&s=autIfqSqvw9xi2iWnPnYEA1VtaQq91yNPd7%2FnpJ99zc%3D\n1 < Nel: {\"report_to\":\"heroku-nel\",\"max_age\":3600,\"success_fraction\":0.005,\"failure_fraction\":0.05,\"response_headers\":[\"Via\"]}\n1 < X-Powered-By: Express\n1 < Access-Control-Allow-Origin: *\n1 < Etag: W\/\"2c1-N6Rqerxquq2kgQhL51EiSg4x0R8\"\n1 < Via: 1.1 vegur\n1 < Cache-Control: max-age=14400\n1 < CF-Cache-Status: HIT\n1 < Age: 2634\n1 < Vary: Accept-Encoding\n1 < Server: cloudflare\n1 < CF-RAY: 84baca79e8747f61-MAA\n{\"page\":1,\"per_page\":6,\"total\":12,\"total_pages\":2,\"data\":[{\"id\":1,\"name\":\"cerulean\",\"year\":2000,\"color\":\"#98B2D1\",\"pantone_value\":\"15-4020\"},{\"id\":2,\"name\":\"fuchsia rose\",\"year\":2001,\"color\":\"#C74375\",\"pantone_value\":\"17-2031\"},{\"id\":3,\"name\":\"true red\",\"year\":2002,\"color\":\"#BF1932\",\"pantone_value\":\"19-1664\"},{\"id\":4,\"name\":\"aqua sky\",\"year\":2003,\"color\":\"#7BC4C4\",\"pantone_value\":\"14-4811\"},{\"id\":5,\"name\":\"tigerlily\",\"year\":2004,\"color\":\"#E2583E\",\"pantone_value\":\"17-1456\"},{\"id\":6,\"name\":\"blue turquoise\",\"year\":2005,\"color\":\"#53B0AE\",\"pantone_value\":\"15-5217\"}],\"support\":{\"url\":\"https:\/\/reqres.in\/#support-heading\",\"text\":\"To keep ReqRes free, contributions towards server costs are appreciated!\"}}\n\n"},{"result":{"nanos":20400,"millis":0.0204,"status":"passed"},"step":{"line":11,"prefix":"Then","index":2,"text":"status 200"}},{"result":{"nanos":65106600,"millis":65.1066,"status":"passed"},"step":{"line":12,"prefix":"And","index":3,"text":"print  response"},"stepLog":"23:54:06.902 [print] {\n  \"page\": 1,\n  \"per_page\": 6,\n  \"total\": 12,\n  \"total_pages\": 2,\n  \"data\": [\n    {\n      \"id\": 1,\n      \"name\": \"cerulean\",\n      \"year\": 2000,\n      \"color\": \"#98B2D1\",\n      \"pantone_value\": \"15-4020\"\n    },\n    {\n      \"id\": 2,\n      \"name\": \"fuchsia rose\",\n      \"year\": 2001,\n      \"color\": \"#C74375\",\n      \"pantone_value\": \"17-2031\"\n    },\n    {\n      \"id\": 3,\n      \"name\": \"true red\",\n      \"year\": 2002,\n      \"color\": \"#BF1932\",\n      \"pantone_value\": \"19-1664\"\n    },\n    {\n      \"id\": 4,\n      \"name\": \"aqua sky\",\n      \"year\": 2003,\n      \"color\": \"#7BC4C4\",\n      \"pantone_value\": \"14-4811\"\n    },\n    {\n      \"id\": 5,\n      \"name\": \"tigerlily\",\n      \"year\": 2004,\n      \"color\": \"#E2583E\",\n      \"pantone_value\": \"17-1456\"\n    },\n    {\n      \"id\": 6,\n      \"name\": \"blue turquoise\",\n      \"year\": 2005,\n      \"color\": \"#53B0AE\",\n      \"pantone_value\": \"15-5217\"\n    }\n  ],\n  \"support\": {\n    \"url\": \"https:\/\/reqres.in\/#support-heading\",\n    \"text\": \"To keep ReqRes free, contributions towards server costs are appreciated!\"\n  }\n}\n \n"}],"executorName":"main","line":7,"name":"Test a sample Get API","description":"","durationMillis":891.1415,"startTime":1706293445991,"failed":false,"refId":"[1:7]","endTime":1706293446905,"exampleIndex":-1},{"sectionIndex":1,"stepResults":[{"result":{"nanos":342300,"millis":0.3423,"status":"passed"},"step":{"background":true,"line":4,"prefix":"Given","index":0,"text":"url  'https:\/\/reqres.in'"}},{"result":{"nanos":957200,"millis":0.9572,"status":"passed"},"step":{"background":true,"line":5,"prefix":"And","index":1,"text":"header Accpet = 'application\/json'"}},{"result":{"nanos":719300,"millis":0.7193,"status":"passed"},"step":{"line":15,"prefix":"Given","index":0,"text":"url  'https:\/\/reqres.in\/api\/users\/2'"}},{"result":{"nanos":636400,"millis":0.6364,"status":"passed"},"step":{"line":16,"prefix":"And","index":1,"text":"header Accpet = 'application\/json'"}},{"result":{"nanos":179393000,"millis":179.393,"status":"passed"},"step":{"line":17,"prefix":"When","index":2,"text":"method GET"},"stepLog":"23:54:06.916 request:\n1 > GET https:\/\/reqres.in\/api\/users\/2\n1 > Accpet: application\/json\n1 > Host: reqres.in\n1 > Connection: Keep-Alive\n1 > User-Agent: Apache-HttpClient\/4.5.14 (Java\/17.0.1)\n1 > Accept-Encoding: gzip,deflate\n\n\n23:54:07.091 response time in milliseconds: 174\n1 < 200\n1 < Date: Fri, 26 Jan 2024 18:24:07 GMT\n1 < Content-Type: application\/json; charset=utf-8\n1 < Transfer-Encoding: chunked\n1 < Connection: keep-alive\n1 < Report-To: {\"group\":\"heroku-nel\",\"max_age\":3600,\"endpoints\":[{\"url\":\"https:\/\/nel.heroku.com\/reports?ts=1706224316&sid=c4c9725f-1ab0-44d8-820f-430df2718e11&s=B6rv8SrPmmV%2F0tczhBtPqBy3GcdQz6%2BXI9NbuEyK%2FKo%3D\"}]}\n1 < Reporting-Endpoints: heroku-nel=https:\/\/nel.heroku.com\/reports?ts=1706224316&sid=c4c9725f-1ab0-44d8-820f-430df2718e11&s=B6rv8SrPmmV%2F0tczhBtPqBy3GcdQz6%2BXI9NbuEyK%2FKo%3D\n1 < Nel: {\"report_to\":\"heroku-nel\",\"max_age\":3600,\"success_fraction\":0.005,\"failure_fraction\":0.05,\"response_headers\":[\"Via\"]}\n1 < X-Powered-By: Express\n1 < Access-Control-Allow-Origin: *\n1 < Etag: W\/\"118-pbdwwFo9SKNhD3Lx5iHJyngpq00\"\n1 < Via: 1.1 vegur\n1 < Cache-Control: max-age=14400\n1 < CF-Cache-Status: HIT\n1 < Age: 731\n1 < Vary: Accept-Encoding\n1 < Server: cloudflare\n1 < CF-RAY: 84baca7bffb1b2ac-MAA\n{\"data\":{\"id\":2,\"email\":\"janet.weaver@reqres.in\",\"first_name\":\"Janet\",\"last_name\":\"Weaver\",\"avatar\":\"https:\/\/reqres.in\/img\/faces\/2-image.jpg\"},\"support\":{\"url\":\"https:\/\/reqres.in\/#support-heading\",\"text\":\"To keep ReqRes free, contributions towards server costs are appreciated!\"}}\n\n"},{"result":{"nanos":11400,"millis":0.0114,"status":"passed"},"step":{"line":18,"prefix":"Then","index":3,"text":"status 200"}},{"result":{"nanos":699500,"millis":0.6995,"status":"passed"},"step":{"line":19,"prefix":"And","index":4,"text":"print  response"},"stepLog":"23:54:07.093 [print] {\n  \"data\": {\n    \"id\": 2,\n    \"email\": \"janet.weaver@reqres.in\",\n    \"first_name\": \"Janet\",\n    \"last_name\": \"Weaver\",\n    \"avatar\": \"https:\/\/reqres.in\/img\/faces\/2-image.jpg\"\n  },\n  \"support\": {\n    \"url\": \"https:\/\/reqres.in\/#support-heading\",\n    \"text\": \"To keep ReqRes free, contributions towards server costs are appreciated!\"\n  }\n}\n \n"},{"result":{"nanos":32471900,"errorMessage":"match failed: EQUALS\n\nsrc\/test\/java\/frame\/geet.feature:20","millis":32.4719,"status":"failed"},"step":{"line":20,"prefix":"And","index":5,"text":"match response.id == '#present'"},"stepLog":"23:54:07.130 src\/test\/java\/frame\/geet.feature:20\nAnd match response.id == '#present'\nmatch failed: EQUALS\n\nsrc\/test\/java\/frame\/geet.feature:20\n"}],"line":14,"description":"","durationMillis":215.231,"failed":true,"error":"match failed: EQUALS\n\nsrc\/test\/java\/frame\/geet.feature:20","executorName":"main","name":"sample get api","startTime":1706293446909,"refId":"[2:14]","endTime":1706293447130,"exampleIndex":-1}],"callDepth":0,"name":"Sample API Tests","description":"","resultDate":"2024-01-26 11:54:07 pm","durationMillis":1106.3725,"passedCount":1}