{"failedCount":0,"prefixedPath":"src\/test\/java\/frame\/get.feature","packageQualifiedName":"src.test.java.frame.get","loopIndex":-1,"relativePath":"src\/test\/java\/frame\/get.feature","scenarioResults":[{"sectionIndex":0,"stepResults":[{"result":{"nanos":101385600,"millis":101.3856,"status":"passed"},"step":{"background":true,"line":4,"prefix":"Given","index":0,"text":"url 'https:\/\/reqres.in\/api\/'"}},{"result":{"nanos":689399,"millis":0.689399,"status":"passed"},"step":{"line":7,"prefix":"Given","index":0,"text":"path 'unknown'"}},{"result":{"nanos":1286750800,"millis":1286.7508,"status":"passed"},"step":{"comments":["# Given param id = 2"],"line":9,"prefix":"When","index":1,"text":"method GET"},"stepLog":"22:57:16.446 request:\n1 > GET https:\/\/reqres.in\/api\/unknown\n1 > Host: reqres.in\n1 > Connection: Keep-Alive\n1 > User-Agent: Apache-HttpClient\/4.5.14 (Java\/17.0.1)\n1 > Accept-Encoding: gzip,deflate\n\n\n22:57:17.296 response time in milliseconds: 844\n1 < 200\n1 < Date: Wed, 07 Feb 2024 17:27:17 GMT\n1 < Content-Type: application\/json; charset=utf-8\n1 < Transfer-Encoding: chunked\n1 < Connection: keep-alive\n1 < Report-To: {\"group\":\"heroku-nel\",\"max_age\":3600,\"endpoints\":[{\"url\":\"https:\/\/nel.heroku.com\/reports?ts=1707179772&sid=c4c9725f-1ab0-44d8-820f-430df2718e11&s=tuMh79n8RreOkqJm6xID1RAj6oIArDXopWwGJyu3rf0%3D\"}]}\n1 < Reporting-Endpoints: heroku-nel=https:\/\/nel.heroku.com\/reports?ts=1707179772&sid=c4c9725f-1ab0-44d8-820f-430df2718e11&s=tuMh79n8RreOkqJm6xID1RAj6oIArDXopWwGJyu3rf0%3D\n1 < Nel: {\"report_to\":\"heroku-nel\",\"max_age\":3600,\"success_fraction\":0.005,\"failure_fraction\":0.05,\"response_headers\":[\"Via\"]}\n1 < X-Powered-By: Express\n1 < Access-Control-Allow-Origin: *\n1 < Etag: W\/\"2c1-N6Rqerxquq2kgQhL51EiSg4x0R8\"\n1 < Via: 1.1 vegur\n1 < Cache-Control: max-age=14400\n1 < CF-Cache-Status: HIT\n1 < Age: 903\n1 < Vary: Accept-Encoding\n1 < Server: cloudflare\n1 < CF-RAY: 851d57bf7db517ab-MAA\n{\"page\":1,\"per_page\":6,\"total\":12,\"total_pages\":2,\"data\":[{\"id\":1,\"name\":\"cerulean\",\"year\":2000,\"color\":\"#98B2D1\",\"pantone_value\":\"15-4020\"},{\"id\":2,\"name\":\"fuchsia rose\",\"year\":2001,\"color\":\"#C74375\",\"pantone_value\":\"17-2031\"},{\"id\":3,\"name\":\"true red\",\"year\":2002,\"color\":\"#BF1932\",\"pantone_value\":\"19-1664\"},{\"id\":4,\"name\":\"aqua sky\",\"year\":2003,\"color\":\"#7BC4C4\",\"pantone_value\":\"14-4811\"},{\"id\":5,\"name\":\"tigerlily\",\"year\":2004,\"color\":\"#E2583E\",\"pantone_value\":\"17-1456\"},{\"id\":6,\"name\":\"blue turquoise\",\"year\":2005,\"color\":\"#53B0AE\",\"pantone_value\":\"15-5217\"}],\"support\":{\"url\":\"https:\/\/reqres.in\/#support-heading\",\"text\":\"To keep ReqRes free, contributions towards server costs are appreciated!\"}}\n\n"},{"result":{"nanos":27500,"millis":0.0275,"status":"passed"},"step":{"line":10,"prefix":"Then","index":2,"text":"status 200"}},{"result":{"nanos":123612201,"millis":123.612201,"status":"passed"},"step":{"line":11,"prefix":"And","index":3,"text":"print  response"},"stepLog":"22:57:17.448 [print] {\n  \"page\": 1,\n  \"per_page\": 6,\n  \"total\": 12,\n  \"total_pages\": 2,\n  \"data\": [\n    {\n      \"id\": 1,\n      \"name\": \"cerulean\",\n      \"year\": 2000,\n      \"color\": \"#98B2D1\",\n      \"pantone_value\": \"15-4020\"\n    },\n    {\n      \"id\": 2,\n      \"name\": \"fuchsia rose\",\n      \"year\": 2001,\n      \"color\": \"#C74375\",\n      \"pantone_value\": \"17-2031\"\n    },\n    {\n      \"id\": 3,\n      \"name\": \"true red\",\n      \"year\": 2002,\n      \"color\": \"#BF1932\",\n      \"pantone_value\": \"19-1664\"\n    },\n    {\n      \"id\": 4,\n      \"name\": \"aqua sky\",\n      \"year\": 2003,\n      \"color\": \"#7BC4C4\",\n      \"pantone_value\": \"14-4811\"\n    },\n    {\n      \"id\": 5,\n      \"name\": \"tigerlily\",\n      \"year\": 2004,\n      \"color\": \"#E2583E\",\n      \"pantone_value\": \"17-1456\"\n    },\n    {\n      \"id\": 6,\n      \"name\": \"blue turquoise\",\n      \"year\": 2005,\n      \"color\": \"#53B0AE\",\n      \"pantone_value\": \"15-5217\"\n    }\n  ],\n  \"support\": {\n    \"url\": \"https:\/\/reqres.in\/#support-heading\",\n    \"text\": \"To keep ReqRes free, contributions towards server costs are appreciated!\"\n  }\n}\n \n"},{"result":{"nanos":121050500,"millis":121.0505,"status":"passed"},"step":{"line":13,"prefix":"And","index":4,"text":"match response.data[0].name =='cerulean'"}}],"executorName":"main","line":6,"name":"Test a sample Get API","description":"","durationMillis":1633.516,"startTime":1707326835917,"failed":false,"refId":"[1:6]","endTime":1707326837573,"exampleIndex":-1},{"sectionIndex":1,"stepResults":[{"result":{"nanos":378301,"millis":0.378301,"status":"passed"},"step":{"background":true,"line":4,"prefix":"Given","index":0,"text":"url 'https:\/\/reqres.in\/api\/'"}},{"result":{"nanos":611800,"millis":0.6118,"status":"passed"},"step":{"line":16,"prefix":"Given","index":0,"text":"path 'users'"}},{"result":{"nanos":4657200,"millis":4.6572,"status":"passed"},"step":{"line":17,"prefix":"Given","index":1,"text":"param  id = 2"}},{"result":{"nanos":93236501,"millis":93.236501,"status":"passed"},"step":{"line":18,"prefix":"When","index":2,"text":"method GET"},"stepLog":"22:57:17.590 request:\n1 > GET https:\/\/reqres.in\/api\/users?id=2\n1 > Host: reqres.in\n1 > Connection: Keep-Alive\n1 > User-Agent: Apache-HttpClient\/4.5.14 (Java\/17.0.1)\n1 > Accept-Encoding: gzip,deflate\n\n\n22:57:17.679 response time in milliseconds: 88\n1 < 200\n1 < Date: Wed, 07 Feb 2024 17:27:18 GMT\n1 < Content-Type: application\/json; charset=utf-8\n1 < Transfer-Encoding: chunked\n1 < Connection: keep-alive\n1 < Report-To: {\"group\":\"heroku-nel\",\"max_age\":3600,\"endpoints\":[{\"url\":\"https:\/\/nel.heroku.com\/reports?ts=1707294288&sid=c4c9725f-1ab0-44d8-820f-430df2718e11&s=0Z4hOLvQkvQlCC75mD1dgrFmQEvY6%2BwuxiAgLLUoaFI%3D\"}]}\n1 < Reporting-Endpoints: heroku-nel=https:\/\/nel.heroku.com\/reports?ts=1707294288&sid=c4c9725f-1ab0-44d8-820f-430df2718e11&s=0Z4hOLvQkvQlCC75mD1dgrFmQEvY6%2BwuxiAgLLUoaFI%3D\n1 < Nel: {\"report_to\":\"heroku-nel\",\"max_age\":3600,\"success_fraction\":0.005,\"failure_fraction\":0.05,\"response_headers\":[\"Via\"]}\n1 < X-Powered-By: Express\n1 < Access-Control-Allow-Origin: *\n1 < Etag: W\/\"118-pbdwwFo9SKNhD3Lx5iHJyngpq00\"\n1 < Via: 1.1 vegur\n1 < Cache-Control: max-age=14400\n1 < CF-Cache-Status: HIT\n1 < Age: 318\n1 < Vary: Accept-Encoding\n1 < Server: cloudflare\n1 < CF-RAY: 851d57c1fb8a7fa3-MAA\n{\"data\":{\"id\":2,\"email\":\"janet.weaver@reqres.in\",\"first_name\":\"Janet\",\"last_name\":\"Weaver\",\"avatar\":\"https:\/\/reqres.in\/img\/faces\/2-image.jpg\"},\"support\":{\"url\":\"https:\/\/reqres.in\/#support-heading\",\"text\":\"To keep ReqRes free, contributions towards server costs are appreciated!\"}}\n\n"},{"result":{"nanos":14100,"millis":0.0141,"status":"passed"},"step":{"line":19,"prefix":"Then","index":3,"text":"status 200"}},{"result":{"nanos":1008899,"millis":1.008899,"status":"passed"},"step":{"line":20,"prefix":"And","index":4,"text":"print  response"},"stepLog":"22:57:17.682 [print] {\n  \"data\": {\n    \"id\": 2,\n    \"email\": \"janet.weaver@reqres.in\",\n    \"first_name\": \"Janet\",\n    \"last_name\": \"Weaver\",\n    \"avatar\": \"https:\/\/reqres.in\/img\/faces\/2-image.jpg\"\n  },\n  \"support\": {\n    \"url\": \"https:\/\/reqres.in\/#support-heading\",\n    \"text\": \"To keep ReqRes free, contributions towards server costs are appreciated!\"\n  }\n}\n \n"}],"executorName":"main","line":15,"name":"Test a sample get data","description":"","durationMillis":99.906801,"startTime":1707326837582,"failed":false,"refId":"[2:15]","endTime":1707326837682,"exampleIndex":-1}],"callDepth":0,"name":"To test Get Request","description":"","resultDate":"2024-02-07 10:57:17 pm","durationMillis":1733.422801,"passedCount":2}