{"failedCount":1,"prefixedPath":"src\/test\/java\/frame\/Data.feature","packageQualifiedName":"src.test.java.frame.Data","loopIndex":-1,"relativePath":"src\/test\/java\/frame\/Data.feature","scenarioResults":[{"sectionIndex":0,"stepResults":[{"result":{"nanos":943200,"millis":0.9432,"status":"passed"},"step":{"line":4,"prefix":"Given","index":0,"text":"url 'https:\/\/reqres.in\/api\/users\/'"},"stepLog":"22:28:43.461 the value is null \n"},{"result":{"nanos":535980900,"millis":535.9809,"status":"passed"},"step":{"line":5,"prefix":"When","index":1,"text":"method GET"},"stepLog":"22:28:43.721 request:\n1 > GET https:\/\/reqres.in\/api\/users\/\n1 > Host: reqres.in\n1 > Connection: Keep-Alive\n1 > User-Agent: Apache-HttpClient\/4.5.14 (Java\/17.0.1)\n1 > Accept-Encoding: gzip,deflate\n\n\n22:28:43.999 response time in milliseconds: 274\n1 < 200\n1 < Date: Tue, 13 Feb 2024 16:58:45 GMT\n1 < Content-Type: application\/json; charset=utf-8\n1 < Transfer-Encoding: chunked\n1 < Connection: keep-alive\n1 < Report-To: {\"group\":\"heroku-nel\",\"max_age\":3600,\"endpoints\":[{\"url\":\"https:\/\/nel.heroku.com\/reports?ts=1707577597&sid=c4c9725f-1ab0-44d8-820f-430df2718e11&s=dGVKdawddJpcExD8lD2fcoZBfv%2FH%2BhWpQglsfrX67rU%3D\"}]}\n1 < Reporting-Endpoints: heroku-nel=https:\/\/nel.heroku.com\/reports?ts=1707577597&sid=c4c9725f-1ab0-44d8-820f-430df2718e11&s=dGVKdawddJpcExD8lD2fcoZBfv%2FH%2BhWpQglsfrX67rU%3D\n1 < Nel: {\"report_to\":\"heroku-nel\",\"max_age\":3600,\"success_fraction\":0.005,\"failure_fraction\":0.05,\"response_headers\":[\"Via\"]}\n1 < X-Powered-By: Express\n1 < Access-Control-Allow-Origin: *\n1 < Etag: W\/\"3e4-2RLXvr5wTg9YQ6aH95CkYoFNuO8\"\n1 < Via: 1.1 vegur\n1 < Cache-Control: max-age=14400\n1 < CF-Cache-Status: HIT\n1 < Age: 7147\n1 < Vary: Accept-Encoding\n1 < Server: cloudflare\n1 < CF-RAY: 854e9e30ded27ecd-MAA\n{\"page\":1,\"per_page\":6,\"total\":12,\"total_pages\":2,\"data\":[{\"id\":1,\"email\":\"george.bluth@reqres.in\",\"first_name\":\"George\",\"last_name\":\"Bluth\",\"avatar\":\"https:\/\/reqres.in\/img\/faces\/1-image.jpg\"},{\"id\":2,\"email\":\"janet.weaver@reqres.in\",\"first_name\":\"Janet\",\"last_name\":\"Weaver\",\"avatar\":\"https:\/\/reqres.in\/img\/faces\/2-image.jpg\"},{\"id\":3,\"email\":\"emma.wong@reqres.in\",\"first_name\":\"Emma\",\"last_name\":\"Wong\",\"avatar\":\"https:\/\/reqres.in\/img\/faces\/3-image.jpg\"},{\"id\":4,\"email\":\"eve.holt@reqres.in\",\"first_name\":\"Eve\",\"last_name\":\"Holt\",\"avatar\":\"https:\/\/reqres.in\/img\/faces\/4-image.jpg\"},{\"id\":5,\"email\":\"charles.morris@reqres.in\",\"first_name\":\"Charles\",\"last_name\":\"Morris\",\"avatar\":\"https:\/\/reqres.in\/img\/faces\/5-image.jpg\"},{\"id\":6,\"email\":\"tracey.ramos@reqres.in\",\"first_name\":\"Tracey\",\"last_name\":\"Ramos\",\"avatar\":\"https:\/\/reqres.in\/img\/faces\/6-image.jpg\"}],\"support\":{\"url\":\"https:\/\/reqres.in\/#support-heading\",\"text\":\"To keep ReqRes free, contributions towards server costs are appreciated!\"}}\n\n"},{"result":{"nanos":18700,"millis":0.0187,"status":"passed"},"step":{"line":6,"prefix":"Then","index":2,"text":"status 200"}},{"result":{"nanos":0,"errorMessage":"no step-definition method match found for: Print response\nsrc\/test\/java\/frame\/Data.feature:7","millis":0.0,"status":"failed"},"step":{"line":7,"prefix":"And","index":3,"text":"Print response"},"stepLog":"22:28:44.030 src\/test\/java\/frame\/Data.feature:7\nAnd Print response\nno step-definition method match found for: Print response\nsrc\/test\/java\/frame\/Data.feature:7\n"}],"line":3,"description":"","durationMillis":536.9428,"failed":true,"error":"no step-definition method match found for: Print response\nsrc\/test\/java\/frame\/Data.feature:7","executorName":"main","name":"test multiple files","startTime":1707843523315,"refId":"[1:3]","endTime":1707843524030,"exampleIndex":-1}],"callDepth":0,"name":"TEST data files","description":"","resultDate":"2024-02-13 10:28:44 pm","durationMillis":536.9428,"passedCount":0}