{"failedCount":1,"prefixedPath":"src\/test\/java\/frame\/get.feature","packageQualifiedName":"src.test.java.frame.get","loopIndex":-1,"relativePath":"src\/test\/java\/frame\/get.feature","scenarioResults":[{"sectionIndex":0,"stepResults":[{"result":{"nanos":54230600,"millis":54.2306,"status":"passed"},"step":{"background":true,"line":4,"prefix":"Given","index":0,"text":"url 'https:\/\/reqres.in\/api\/'"}},{"result":{"nanos":478400,"millis":0.4784,"status":"passed"},"step":{"line":7,"prefix":"Given","index":0,"text":"path 'unknown'"}},{"result":{"nanos":6483000,"millis":6.483,"status":"passed"},"step":{"line":8,"prefix":"Given","index":1,"text":"param id = 2"}},{"result":{"nanos":1152737000,"millis":1152.737,"status":"passed"},"step":{"line":9,"prefix":"When","index":2,"text":"method GET"},"stepLog":"12:07:08.682 request:\n1 > GET https:\/\/reqres.in\/api\/unknown?id=2\n1 > Host: reqres.in\n1 > Connection: Keep-Alive\n1 > User-Agent: Apache-HttpClient\/4.5.14 (Java\/17.0.1)\n1 > Accept-Encoding: gzip,deflate\n\n\n12:07:09.448 response time in milliseconds: 762\n1 < 200\n1 < Date: Sun, 11 Feb 2024 06:37:10 GMT\n1 < Content-Type: application\/json; charset=utf-8\n1 < Transfer-Encoding: chunked\n1 < Connection: keep-alive\n1 < Report-To: {\"group\":\"heroku-nel\",\"max_age\":3600,\"endpoints\":[{\"url\":\"https:\/\/nel.heroku.com\/reports?ts=1707315991&sid=c4c9725f-1ab0-44d8-820f-430df2718e11&s=O9x%2FFdnigKNO2%2FiHPuEBJqs7%2FdTuKMSSEJYyNQvdvZs%3D\"}]}\n1 < Reporting-Endpoints: heroku-nel=https:\/\/nel.heroku.com\/reports?ts=1707315991&sid=c4c9725f-1ab0-44d8-820f-430df2718e11&s=O9x%2FFdnigKNO2%2FiHPuEBJqs7%2FdTuKMSSEJYyNQvdvZs%3D\n1 < Nel: {\"report_to\":\"heroku-nel\",\"max_age\":3600,\"success_fraction\":0.005,\"failure_fraction\":0.05,\"response_headers\":[\"Via\"]}\n1 < X-Powered-By: Express\n1 < Access-Control-Allow-Origin: *\n1 < Etag: W\/\"e8-ov4wWh4\/OY1IMQMqWgskYtOFnVs\"\n1 < Via: 1.1 vegur\n1 < Cache-Control: max-age=14400\n1 < CF-Cache-Status: REVALIDATED\n1 < Vary: Accept-Encoding\n1 < Server: cloudflare\n1 < CF-RAY: 853a94ea9a3b7f9b-MAA\n{\"data\":{\"id\":2,\"name\":\"fuchsia rose\",\"year\":2001,\"color\":\"#C74375\",\"pantone_value\":\"17-2031\"},\"support\":{\"url\":\"https:\/\/reqres.in\/#support-heading\",\"text\":\"To keep ReqRes free, contributions towards server costs are appreciated!\"}}\n\n"},{"result":{"nanos":26100,"millis":0.0261,"status":"passed"},"step":{"line":10,"prefix":"Then","index":3,"text":"status 200"}},{"result":{"nanos":78888600,"millis":78.8886,"status":"passed"},"step":{"line":11,"prefix":"And","index":4,"text":"print  response"},"stepLog":"12:07:09.549 [print] {\n  \"data\": {\n    \"id\": 2,\n    \"name\": \"fuchsia rose\",\n    \"year\": 2001,\n    \"color\": \"#C74375\",\n    \"pantone_value\": \"17-2031\"\n  },\n  \"support\": {\n    \"url\": \"https:\/\/reqres.in\/#support-heading\",\n    \"text\": \"To keep ReqRes free, contributions towards server costs are appreciated!\"\n  }\n}\n \n"},{"result":{"nanos":33431600,"millis":33.4316,"status":"passed"},"step":{"comments":["# And match response.data[0].name =='cerulean'"],"line":13,"prefix":"And","index":5,"text":"match response.data.color == '#C74375'"}}],"executorName":"main","line":6,"name":"Test a sample Get API","description":"","durationMillis":1326.2753,"startTime":1707633428241,"failed":false,"refId":"[1:6]","endTime":1707633429584,"exampleIndex":-1},{"sectionIndex":1,"stepResults":[{"result":{"nanos":989700,"millis":0.9897,"status":"passed"},"step":{"background":true,"line":4,"prefix":"Given","index":0,"text":"url 'https:\/\/reqres.in\/api\/'"}},{"result":{"nanos":767700,"millis":0.7677,"status":"passed"},"step":{"line":17,"prefix":"Given","index":0,"text":"path 'users'"}},{"result":{"nanos":93300900,"millis":93.3009,"status":"passed"},"step":{"comments":["#Given param  id = 2"],"line":19,"prefix":"When","index":1,"text":"method GET"},"stepLog":"12:07:09.593 request:\n1 > GET https:\/\/reqres.in\/api\/users\n1 > Host: reqres.in\n1 > Connection: Keep-Alive\n1 > User-Agent: Apache-HttpClient\/4.5.14 (Java\/17.0.1)\n1 > Accept-Encoding: gzip,deflate\n\n\n12:07:09.685 response time in milliseconds: 90\n1 < 200\n1 < Date: Sun, 11 Feb 2024 06:37:10 GMT\n1 < Content-Type: application\/json; charset=utf-8\n1 < Transfer-Encoding: chunked\n1 < Connection: keep-alive\n1 < Report-To: {\"group\":\"heroku-nel\",\"max_age\":3600,\"endpoints\":[{\"url\":\"https:\/\/nel.heroku.com\/reports?ts=1707621135&sid=c4c9725f-1ab0-44d8-820f-430df2718e11&s=vYt2sxvffh9tQHNVOK3rxfAaH6h1z6%2BQdHPeQkZp3DI%3D\"}]}\n1 < Reporting-Endpoints: heroku-nel=https:\/\/nel.heroku.com\/reports?ts=1707621135&sid=c4c9725f-1ab0-44d8-820f-430df2718e11&s=vYt2sxvffh9tQHNVOK3rxfAaH6h1z6%2BQdHPeQkZp3DI%3D\n1 < Nel: {\"report_to\":\"heroku-nel\",\"max_age\":3600,\"success_fraction\":0.005,\"failure_fraction\":0.05,\"response_headers\":[\"Via\"]}\n1 < X-Powered-By: Express\n1 < Access-Control-Allow-Origin: *\n1 < Etag: W\/\"3e4-2RLXvr5wTg9YQ6aH95CkYoFNuO8\"\n1 < Via: 1.1 vegur\n1 < Cache-Control: max-age=14400\n1 < CF-Cache-Status: HIT\n1 < Age: 4997\n1 < Vary: Accept-Encoding\n1 < Server: cloudflare\n1 < CF-RAY: 853a94ee3a547f9f-MAA\n{\"page\":1,\"per_page\":6,\"total\":12,\"total_pages\":2,\"data\":[{\"id\":1,\"email\":\"george.bluth@reqres.in\",\"first_name\":\"George\",\"last_name\":\"Bluth\",\"avatar\":\"https:\/\/reqres.in\/img\/faces\/1-image.jpg\"},{\"id\":2,\"email\":\"janet.weaver@reqres.in\",\"first_name\":\"Janet\",\"last_name\":\"Weaver\",\"avatar\":\"https:\/\/reqres.in\/img\/faces\/2-image.jpg\"},{\"id\":3,\"email\":\"emma.wong@reqres.in\",\"first_name\":\"Emma\",\"last_name\":\"Wong\",\"avatar\":\"https:\/\/reqres.in\/img\/faces\/3-image.jpg\"},{\"id\":4,\"email\":\"eve.holt@reqres.in\",\"first_name\":\"Eve\",\"last_name\":\"Holt\",\"avatar\":\"https:\/\/reqres.in\/img\/faces\/4-image.jpg\"},{\"id\":5,\"email\":\"charles.morris@reqres.in\",\"first_name\":\"Charles\",\"last_name\":\"Morris\",\"avatar\":\"https:\/\/reqres.in\/img\/faces\/5-image.jpg\"},{\"id\":6,\"email\":\"tracey.ramos@reqres.in\",\"first_name\":\"Tracey\",\"last_name\":\"Ramos\",\"avatar\":\"https:\/\/reqres.in\/img\/faces\/6-image.jpg\"}],\"support\":{\"url\":\"https:\/\/reqres.in\/#support-heading\",\"text\":\"To keep ReqRes free, contributions towards server costs are appreciated!\"}}\n\n"},{"result":{"nanos":10600,"millis":0.0106,"status":"passed"},"step":{"line":20,"prefix":"Then","index":2,"text":"status 200"}},{"result":{"nanos":816800,"millis":0.8168,"status":"passed"},"step":{"line":21,"prefix":"And","index":3,"text":"print  response"},"stepLog":"12:07:09.687 [print] {\n  \"page\": 1,\n  \"per_page\": 6,\n  \"total\": 12,\n  \"total_pages\": 2,\n  \"data\": [\n    {\n      \"id\": 1,\n      \"email\": \"george.bluth@reqres.in\",\n      \"first_name\": \"George\",\n      \"last_name\": \"Bluth\",\n      \"avatar\": \"https:\/\/reqres.in\/img\/faces\/1-image.jpg\"\n    },\n    {\n      \"id\": 2,\n      \"email\": \"janet.weaver@reqres.in\",\n      \"first_name\": \"Janet\",\n      \"last_name\": \"Weaver\",\n      \"avatar\": \"https:\/\/reqres.in\/img\/faces\/2-image.jpg\"\n    },\n    {\n      \"id\": 3,\n      \"email\": \"emma.wong@reqres.in\",\n      \"first_name\": \"Emma\",\n      \"last_name\": \"Wong\",\n      \"avatar\": \"https:\/\/reqres.in\/img\/faces\/3-image.jpg\"\n    },\n    {\n      \"id\": 4,\n      \"email\": \"eve.holt@reqres.in\",\n      \"first_name\": \"Eve\",\n      \"last_name\": \"Holt\",\n      \"avatar\": \"https:\/\/reqres.in\/img\/faces\/4-image.jpg\"\n    },\n    {\n      \"id\": 5,\n      \"email\": \"charles.morris@reqres.in\",\n      \"first_name\": \"Charles\",\n      \"last_name\": \"Morris\",\n      \"avatar\": \"https:\/\/reqres.in\/img\/faces\/5-image.jpg\"\n    },\n    {\n      \"id\": 6,\n      \"email\": \"tracey.ramos@reqres.in\",\n      \"first_name\": \"Tracey\",\n      \"last_name\": \"Ramos\",\n      \"avatar\": \"https:\/\/reqres.in\/img\/faces\/6-image.jpg\"\n    }\n  ],\n  \"support\": {\n    \"url\": \"https:\/\/reqres.in\/#support-heading\",\n    \"text\": \"To keep ReqRes free, contributions towards server costs are appreciated!\"\n  }\n}\n \n"},{"result":{"nanos":2084500,"millis":2.0845,"status":"passed"},"step":{"line":22,"prefix":"And","index":4,"text":"match response.data[5].first_name ==\"Tracey\""}},{"result":{"nanos":11700700,"errorMessage":"js failed:\n>>>>\n01: karate.log('[print]',name)\n<<<<\norg.graalvm.polyglot.PolyglotException: ReferenceError: \"name\" is not defined\n- <js>.:program(Unnamed:1)\n\nsrc\/test\/java\/frame\/get.feature:23","millis":11.7007,"status":"failed"},"step":{"line":23,"prefix":"And","index":5,"text":"print name"},"stepLog":"12:07:09.704 src\/test\/java\/frame\/get.feature:23\nAnd print name\njs failed:\n>>>>\n01: karate.log('[print]',name)\n<<<<\norg.graalvm.polyglot.PolyglotException: ReferenceError: \"name\" is not defined\n- <js>.:program(Unnamed:1)\n\nsrc\/test\/java\/frame\/get.feature:23\n"}],"line":16,"description":"","durationMillis":109.6709,"failed":true,"error":"js failed:\n>>>>\n01: karate.log('[print]',name)\n<<<<\norg.graalvm.polyglot.PolyglotException: ReferenceError: \"name\" is not defined\n- <js>.:program(Unnamed:1)\n\nsrc\/test\/java\/frame\/get.feature:23","tags":["second"],"executorName":"main","name":"Test a sample get data","startTime":1707633429590,"refId":"[2:16]","endTime":1707633429704,"exampleIndex":-1}],"callDepth":0,"name":"To test Get Request","description":"","resultDate":"2024-02-11 12:07:09 pm","durationMillis":1435.9462,"passedCount":1}