{"failedCount":1,"prefixedPath":"src\/test\/java\/frame\/get.feature","packageQualifiedName":"src.test.java.frame.get","loopIndex":-1,"relativePath":"src\/test\/java\/frame\/get.feature","scenarioResults":[{"sectionIndex":0,"stepResults":[{"result":{"nanos":80310100,"millis":80.3101,"status":"passed"},"step":{"background":true,"line":4,"prefix":"Given","index":0,"text":"url 'https:\/\/reqres.in\/api\/'"}},{"result":{"nanos":553500,"millis":0.5535,"status":"passed"},"step":{"line":7,"prefix":"Given","index":0,"text":"path 'unknown'"}},{"result":{"nanos":9192500,"millis":9.1925,"status":"passed"},"step":{"line":8,"prefix":"Given","index":1,"text":"param id = 2"}},{"result":{"nanos":1574504200,"millis":1574.5042,"status":"passed"},"step":{"line":9,"prefix":"When","index":2,"text":"method GET"},"stepLog":"21:58:58.097 request:\n1 > GET https:\/\/reqres.in\/api\/unknown?id=2\n1 > Host: reqres.in\n1 > Connection: Keep-Alive\n1 > User-Agent: Apache-HttpClient\/4.5.14 (Java\/17.0.1)\n1 > Accept-Encoding: gzip,deflate\n\n\n21:58:59.428 response time in milliseconds: 1327\n1 < 200\n1 < Date: Thu, 08 Feb 2024 16:28:59 GMT\n1 < Content-Type: application\/json; charset=utf-8\n1 < Transfer-Encoding: chunked\n1 < Connection: keep-alive\n1 < Report-To: {\"group\":\"heroku-nel\",\"max_age\":3600,\"endpoints\":[{\"url\":\"https:\/\/nel.heroku.com\/reports?ts=1707315991&sid=c4c9725f-1ab0-44d8-820f-430df2718e11&s=O9x%2FFdnigKNO2%2FiHPuEBJqs7%2FdTuKMSSEJYyNQvdvZs%3D\"}]}\n1 < Reporting-Endpoints: heroku-nel=https:\/\/nel.heroku.com\/reports?ts=1707315991&sid=c4c9725f-1ab0-44d8-820f-430df2718e11&s=O9x%2FFdnigKNO2%2FiHPuEBJqs7%2FdTuKMSSEJYyNQvdvZs%3D\n1 < Nel: {\"report_to\":\"heroku-nel\",\"max_age\":3600,\"success_fraction\":0.005,\"failure_fraction\":0.05,\"response_headers\":[\"Via\"]}\n1 < X-Powered-By: Express\n1 < Access-Control-Allow-Origin: *\n1 < Etag: W\/\"e8-ov4wWh4\/OY1IMQMqWgskYtOFnVs\"\n1 < Via: 1.1 vegur\n1 < Cache-Control: max-age=14400\n1 < CF-Cache-Status: REVALIDATED\n1 < Vary: Accept-Encoding\n1 < Server: cloudflare\n1 < CF-RAY: 85253fb3ddfea8fb-MAA\n{\"data\":{\"id\":2,\"name\":\"fuchsia rose\",\"year\":2001,\"color\":\"#C74375\",\"pantone_value\":\"17-2031\"},\"support\":{\"url\":\"https:\/\/reqres.in\/#support-heading\",\"text\":\"To keep ReqRes free, contributions towards server costs are appreciated!\"}}\n\n"},{"result":{"nanos":17800,"millis":0.0178,"status":"passed"},"step":{"line":10,"prefix":"Then","index":3,"text":"status 200"}},{"result":{"nanos":944497100,"millis":944.4971,"status":"passed"},"step":{"line":11,"prefix":"And","index":4,"text":"print  response"},"stepLog":"21:59:00.393 [print] {\n  \"data\": {\n    \"id\": 2,\n    \"name\": \"fuchsia rose\",\n    \"year\": 2001,\n    \"color\": \"#C74375\",\n    \"pantone_value\": \"17-2031\"\n  },\n  \"support\": {\n    \"url\": \"https:\/\/reqres.in\/#support-heading\",\n    \"text\": \"To keep ReqRes free, contributions towards server costs are appreciated!\"\n  }\n}\n \n"},{"result":{"nanos":442389800,"millis":442.3898,"status":"passed"},"step":{"comments":["# And match response.data[0].name =='cerulean'"],"line":14,"prefix":"And","index":5,"text":"match response.data.color == '#C74375'"}}],"executorName":"main","line":6,"name":"Test a sample Get API","description":"","durationMillis":3051.465,"startTime":1707409737770,"failed":false,"refId":"[1:6]","endTime":1707409740837,"exampleIndex":-1},{"sectionIndex":1,"stepResults":[{"result":{"nanos":788600,"millis":0.7886,"status":"passed"},"step":{"background":true,"line":4,"prefix":"Given","index":0,"text":"url 'https:\/\/reqres.in\/api\/'"}},{"result":{"nanos":595500,"millis":0.5955,"status":"passed"},"step":{"line":17,"prefix":"Given","index":0,"text":"path 'users'"}},{"result":{"nanos":425503800,"millis":425.5038,"status":"passed"},"step":{"comments":["#Given param  id = 2"],"line":19,"prefix":"When","index":1,"text":"method GET"},"stepLog":"21:59:00.845 request:\n1 > GET https:\/\/reqres.in\/api\/users\n1 > Host: reqres.in\n1 > Connection: Keep-Alive\n1 > User-Agent: Apache-HttpClient\/4.5.14 (Java\/17.0.1)\n1 > Accept-Encoding: gzip,deflate\n\n\n21:59:01.266 response time in milliseconds: 419\n1 < 200\n1 < Date: Thu, 08 Feb 2024 16:29:01 GMT\n1 < Content-Type: application\/json; charset=utf-8\n1 < Transfer-Encoding: chunked\n1 < Connection: keep-alive\n1 < Report-To: {\"group\":\"heroku-nel\",\"max_age\":3600,\"endpoints\":[{\"url\":\"https:\/\/nel.heroku.com\/reports?ts=1707409740&sid=c4c9725f-1ab0-44d8-820f-430df2718e11&s=ORCLdQRKEHiEtSUPAgKWq5t3hY%2F6X6CFXwXICdQWu30%3D\"}]}\n1 < Reporting-Endpoints: heroku-nel=https:\/\/nel.heroku.com\/reports?ts=1707409740&sid=c4c9725f-1ab0-44d8-820f-430df2718e11&s=ORCLdQRKEHiEtSUPAgKWq5t3hY%2F6X6CFXwXICdQWu30%3D\n1 < Nel: {\"report_to\":\"heroku-nel\",\"max_age\":3600,\"success_fraction\":0.005,\"failure_fraction\":0.05,\"response_headers\":[\"Via\"]}\n1 < X-Powered-By: Express\n1 < Access-Control-Allow-Origin: *\n1 < Etag: W\/\"3e4-2RLXvr5wTg9YQ6aH95CkYoFNuO8\"\n1 < Via: 1.1 vegur\n1 < Cache-Control: max-age=14400\n1 < CF-Cache-Status: MISS\n1 < Vary: Accept-Encoding\n1 < Server: cloudflare\n1 < CF-RAY: 85253fbf6e367f8e-MAA\n{\"page\":1,\"per_page\":6,\"total\":12,\"total_pages\":2,\"data\":[{\"id\":1,\"email\":\"george.bluth@reqres.in\",\"first_name\":\"George\",\"last_name\":\"Bluth\",\"avatar\":\"https:\/\/reqres.in\/img\/faces\/1-image.jpg\"},{\"id\":2,\"email\":\"janet.weaver@reqres.in\",\"first_name\":\"Janet\",\"last_name\":\"Weaver\",\"avatar\":\"https:\/\/reqres.in\/img\/faces\/2-image.jpg\"},{\"id\":3,\"email\":\"emma.wong@reqres.in\",\"first_name\":\"Emma\",\"last_name\":\"Wong\",\"avatar\":\"https:\/\/reqres.in\/img\/faces\/3-image.jpg\"},{\"id\":4,\"email\":\"eve.holt@reqres.in\",\"first_name\":\"Eve\",\"last_name\":\"Holt\",\"avatar\":\"https:\/\/reqres.in\/img\/faces\/4-image.jpg\"},{\"id\":5,\"email\":\"charles.morris@reqres.in\",\"first_name\":\"Charles\",\"last_name\":\"Morris\",\"avatar\":\"https:\/\/reqres.in\/img\/faces\/5-image.jpg\"},{\"id\":6,\"email\":\"tracey.ramos@reqres.in\",\"first_name\":\"Tracey\",\"last_name\":\"Ramos\",\"avatar\":\"https:\/\/reqres.in\/img\/faces\/6-image.jpg\"}],\"support\":{\"url\":\"https:\/\/reqres.in\/#support-heading\",\"text\":\"To keep ReqRes free, contributions towards server costs are appreciated!\"}}\n\n"},{"result":{"nanos":23800,"millis":0.0238,"status":"passed"},"step":{"line":20,"prefix":"Then","index":2,"text":"status 200"}},{"result":{"nanos":1528500,"millis":1.5285,"status":"passed"},"step":{"line":21,"prefix":"And","index":3,"text":"print  response"},"stepLog":"21:59:01.271 [print] {\n  \"page\": 1,\n  \"per_page\": 6,\n  \"total\": 12,\n  \"total_pages\": 2,\n  \"data\": [\n    {\n      \"id\": 1,\n      \"email\": \"george.bluth@reqres.in\",\n      \"first_name\": \"George\",\n      \"last_name\": \"Bluth\",\n      \"avatar\": \"https:\/\/reqres.in\/img\/faces\/1-image.jpg\"\n    },\n    {\n      \"id\": 2,\n      \"email\": \"janet.weaver@reqres.in\",\n      \"first_name\": \"Janet\",\n      \"last_name\": \"Weaver\",\n      \"avatar\": \"https:\/\/reqres.in\/img\/faces\/2-image.jpg\"\n    },\n    {\n      \"id\": 3,\n      \"email\": \"emma.wong@reqres.in\",\n      \"first_name\": \"Emma\",\n      \"last_name\": \"Wong\",\n      \"avatar\": \"https:\/\/reqres.in\/img\/faces\/3-image.jpg\"\n    },\n    {\n      \"id\": 4,\n      \"email\": \"eve.holt@reqres.in\",\n      \"first_name\": \"Eve\",\n      \"last_name\": \"Holt\",\n      \"avatar\": \"https:\/\/reqres.in\/img\/faces\/4-image.jpg\"\n    },\n    {\n      \"id\": 5,\n      \"email\": \"charles.morris@reqres.in\",\n      \"first_name\": \"Charles\",\n      \"last_name\": \"Morris\",\n      \"avatar\": \"https:\/\/reqres.in\/img\/faces\/5-image.jpg\"\n    },\n    {\n      \"id\": 6,\n      \"email\": \"tracey.ramos@reqres.in\",\n      \"first_name\": \"Tracey\",\n      \"last_name\": \"Ramos\",\n      \"avatar\": \"https:\/\/reqres.in\/img\/faces\/6-image.jpg\"\n    }\n  ],\n  \"support\": {\n    \"url\": \"https:\/\/reqres.in\/#support-heading\",\n    \"text\": \"To keep ReqRes free, contributions towards server costs are appreciated!\"\n  }\n}\n \n"},{"result":{"nanos":253705400,"errorMessage":"js failed:\n>>>>\n01: ='null'\n<<<<\norg.graalvm.polyglot.PolyglotException: SyntaxError: Unnamed:1:0 Expected an operand but found =\r\n='null'\r\n^\n\n- org.graalvm.polyglot.Context.eval(Context.java:425)\n- com.intuit.karate.graal.JsEngine.evalForValue(JsEngine.java:139)\n- com.intuit.karate.graal.JsEngine.eval(JsEngine.java:135)\n- com.intuit.karate.core.ScenarioEngine.evalJs(ScenarioEngine.java:1196)\n- com.intuit.karate.core.ScenarioEngine.evalKarateExpression(ScenarioEngine.java:2149)\n- com.intuit.karate.core.ScenarioEngine.match(ScenarioEngine.java:1747)\n- com.intuit.karate.core.ScenarioEngine.matchResult(ScenarioEngine.java:175)\n\nsrc\/test\/java\/frame\/get.feature:22","millis":253.7054,"status":"failed"},"step":{"line":22,"prefix":"And","index":4,"text":"match response.x.data[5].first_name !=='null'"},"stepLog":"21:59:01.530 src\/test\/java\/frame\/get.feature:22\nAnd match response.x.data[5].first_name !=='null'\njs failed:\n>>>>\n01: ='null'\n<<<<\norg.graalvm.polyglot.PolyglotException: SyntaxError: Unnamed:1:0 Expected an operand but found =\r\n='null'\r\n^\n\n- org.graalvm.polyglot.Context.eval(Context.java:425)\n- com.intuit.karate.graal.JsEngine.evalForValue(JsEngine.java:139)\n- com.intuit.karate.graal.JsEngine.eval(JsEngine.java:135)\n- com.intuit.karate.core.ScenarioEngine.evalJs(ScenarioEngine.java:1196)\n- com.intuit.karate.core.ScenarioEngine.evalKarateExpression(ScenarioEngine.java:2149)\n- com.intuit.karate.core.ScenarioEngine.match(ScenarioEngine.java:1747)\n- com.intuit.karate.core.ScenarioEngine.matchResult(ScenarioEngine.java:175)\n\nsrc\/test\/java\/frame\/get.feature:22\n"}],"line":16,"description":"","durationMillis":682.1456,"failed":true,"error":"js failed:\n>>>>\n01: ='null'\n<<<<\norg.graalvm.polyglot.PolyglotException: SyntaxError: Unnamed:1:0 Expected an operand but found =\r\n='null'\r\n^\n\n- org.graalvm.polyglot.Context.eval(Context.java:425)\n- com.intuit.karate.graal.JsEngine.evalForValue(JsEngine.java:139)\n- com.intuit.karate.graal.JsEngine.eval(JsEngine.java:135)\n- com.intuit.karate.core.ScenarioEngine.evalJs(ScenarioEngine.java:1196)\n- com.intuit.karate.core.ScenarioEngine.evalKarateExpression(ScenarioEngine.java:2149)\n- com.intuit.karate.core.ScenarioEngine.match(ScenarioEngine.java:1747)\n- com.intuit.karate.core.ScenarioEngine.matchResult(ScenarioEngine.java:175)\n\nsrc\/test\/java\/frame\/get.feature:22","executorName":"main","name":"Test a sample get data","startTime":1707409740841,"refId":"[2:16]","endTime":1707409741530,"exampleIndex":-1}],"callDepth":0,"name":"To test Get Request","description":"","resultDate":"2024-02-08 09:59:01 pm","durationMillis":3733.6106,"passedCount":1}